DACSS 601: Data Science Fundamentals - FALL 2022 - Final Project
…
Code

sum(is.na(dataset$Text_General_Code))

[1] 654

We are calculating the number of occurrences of each crime type in the dataset.

Code

countData<- dataset%>%count(Text_General_Code)
countData<-countData[-c(1),]
countData

# A tibble: 33 × 2
   Text_General_Code                  n
   <chr>                          <int>
 1 Aggravated Assault No Firearm  68421
 2 All Other Offenses            435476
 3 Arson                           5643
 4 Burglary Non-Residential       23182
 5 Burglary Residential           93979
 6 Disorderly Conduct             39798
 7 DRIVING UNDER THE INFLUENCE    52750
 8 Embezzlement                    4642
 9 Forgery and Counterfeiting      4816
10 Fraud                         113555
# … with 23 more rows
…
Rearranging the data in decreasing order so that it would be helpful for us to know the major crimes happening in the city.

Code

countData<-countData[order(countData$n,decreasing = T),]
countData

# A tibble: 33 × 2
   Text_General_Code                   n
   <chr>                           <int>
 1 All Other Offenses             435476
 2 Other Assaults                 275523
 3 Thefts                         254714
 4 Vandalism/Criminal Mischief    199335
 5 Theft from Vehicle             169539
 6 Narcotic / Drug Law Violations 136599
 7 Fraud                          113555
 8 Recovered Stolen Motor Vehicle  94186
 9 Burglary Residential            93979
10 Aggravated Assault No Firearm   68421
# … with 23 more rows
…
From the above pie chart we can clearly see that “11” is the district where the most number of crimes are happening in Philadelphia.

In the given dataset we have latitude and longitude values. So let’s try to plot the crime location in the map.

Code

map_drug <- dataset %>% 
  filter(Year == 2006) %>% 
  select(Location_Block, Lon, Lat)
map_drug<-head(map_drug,50)
map_drug

# A tibble: 50 × 3
   Location_Block            Lon   Lat
   <chr>                   <dbl> <dbl>
 1 7200 BLOCK SAUL ST      -75.1  40.0
 2 2200 BLOCK COTTMAN AVE  -75.1  40.0
 3 1900 BLOCK S MOLE ST    -75.2  39.9
 4 2000 BLOCK S HEMBERGER  -75.2  39.9
 5 6600 BLOCK LYNFORD ST   -75.1  40.0
 6 1700 BLOCK BORBECK AV   -75.1  40.1
 7 1800 BLOCK S HICKS ST   -75.2  39.9
 8 2400 BLOCK S 24TH ST    -75.2  39.9
 9 5900 BLOCK REACH ST     -75.1  40.0
10 7900 BLOCK BURHOLME AVE -75.1  40.1
# … with 40 more rows
…
The above map shows the locations of 50 crime scenes happened around Philadelphia in 2006.

Code

map_drug <- dataset %>% 
  filter(Text_General_Code=='Thefts',Year=='2006') %>% 
  select(Location_Block, Lon, Lat)
map_drug<-head(map_drug,50)
map_drug

# A tibble: 50 × 3
   Location_Block           Lon   Lat
   <chr>                  <dbl> <dbl>
 1 6600 BLOCK LYNFORD ST  -75.1  40.0
 2 1700 BLOCK BORBECK AV  -75.1  40.1
 3 2400 BLOCK S 24TH ST   -75.2  39.9
 4 2200 BLOCK OREGON AVE  -75.2  39.9
 5 300 BLOCK GERRITT ST   -75.2  39.9
 6 100 BLOCK CARPENTER ST -75.1  39.9
 7 500 BLOCK S 2ND ST     -75.1  39.9
 8 4700 BLOCK UMBRIA ST   -75.2  40.0
 9 0 BLOCK MIFFLIN ST     -75.1  39.9
10 6400 BLOCK RIDGE AV    -75.2  40.0
# … with 40 more rows
…
