DACSS 601: Data Science Fundamentals - FALL 2022 - Challenge 2
…
Read in one (or more) of the following data sets, available in the posts/_data folder, using the correct R package and command.

railroad*.csv or StateCounty2012.xls ⭐

FAOstat*.csv or birds.csv ⭐⭐⭐

hotel_bookings.csv ⭐⭐⭐⭐

Code

# read in the data from FAOSTAT_cattle_dairy.csv
cattle <- read_csv("_data/FAOSTAT_cattle_dairy.csv")
cattle

# A tibble: 36,449 × 14
   Domain Cod…¹ Domain Area …² Area  Eleme…³ Element Item …⁴ Item  Year …⁵  Year
   <chr>        <chr>    <dbl> <chr>   <dbl> <chr>     <dbl> <chr>   <dbl> <dbl>
 1 QL           Lives…       2 Afgh…    5318 Milk A…     882 Milk…    1961  1961
 2 QL           Lives…       2 Afgh…    5420 Yield       882 Milk…    1961  1961
 3 QL           Lives…       2 Afgh…    5510 Produc…     882 Milk…    1961  1961
 4 QL           Lives…       2 Afgh…    5318 Milk A…     882 Milk…    1962  1962
 5 QL           Lives…       2 Afgh…    5420 Yield       882 Milk…    1962  1962
 6 QL           Lives…       2 Afgh…    5510 Produc…     882 Milk…    1962  1962
 7 QL           Lives…       2 Afgh…    5318 Milk A…     882 Milk…    1963  1963
 8 QL           Lives…       2 Afgh…    5420 Yield       882 Milk…    1963  1963
 9 QL           Lives…       2 Afgh…    5510 Produc…     882 Milk…    1963  1963
10 QL           Lives…       2 Afgh…    5318 Milk A…     882 Milk…    1964  1964
# … with 36,439 more rows, 4 more variables: Unit <chr>, Value <dbl>,
#   Flag <chr>, `Flag Description` <chr>, and abbreviated variable names
#   ¹​`Domain Code`, ²​`Area Code`, ³​`Element Code`, ⁴​`Item Code`, ⁵​`Year Code`
…
Code

# create new dataset omitting the least meaningful columns due to redundancy
cattle_new <- select(cattle, !ends_with("Code") & !("Flag"))
cattle_new

# A tibble: 36,449 × 8
   Domain            Area        Element      Item     Year Unit   Value Flag …¹
   <chr>             <chr>       <chr>        <chr>   <dbl> <chr>  <dbl> <chr>  
 1 Livestock Primary Afghanistan Milk Animals Milk, …  1961 Head  700000 FAO es…
 2 Livestock Primary Afghanistan Yield        Milk, …  1961 hg/An   5000 Calcul…
 3 Livestock Primary Afghanistan Production   Milk, …  1961 tonn… 350000 FAO es…
 4 Livestock Primary Afghanistan Milk Animals Milk, …  1962 Head  700000 FAO es…
 5 Livestock Primary Afghanistan Yield        Milk, …  1962 hg/An   5000 Calcul…
 6 Livestock Primary Afghanistan Production   Milk, …  1962 tonn… 350000 FAO es…
 7 Livestock Primary Afghanistan Milk Animals Milk, …  1963 Head  780000 FAO es…
 8 Livestock Primary Afghanistan Yield        Milk, …  1963 hg/An   5128 Calcul…
 9 Livestock Primary Afghanistan Production   Milk, …  1963 tonn… 400000 FAO es…
10 Livestock Primary Afghanistan Milk Animals Milk, …  1964 Head  780000 FAO es…
# … with 36,439 more rows, and abbreviated variable name ¹​`Flag Description`
…
Code

# compute number of missing values
sum(is.na(cattle_new$Value))

[1] 74

Code

# compute the mean, median, and mode for Value based on the Area, Year, and Element, and Year and Element
Year_Element_Area <- group_by(cattle_new, Year, Element, Area)
summarize(Year_Element_Area, mean_value = mean(Value, na.rm = TRUE))

# A tibble: 36,449 × 4
# Groups:   Year, Element [174]
    Year Element      Area                mean_value
   <dbl> <chr>        <chr>                    <dbl>
 1  1961 Milk Animals Afghanistan             700000
 2  1961 Milk Animals Africa                17007415
 3  1961 Milk Animals Albania                 116600
 4  1961 Milk Animals Algeria                 263000
 5  1961 Milk Animals American Samoa              40
 6  1961 Milk Animals Americas              37391981
 7  1961 Milk Animals Angola                  220000
 8  1961 Milk Animals Antigua and Barbuda       2300
 9  1961 Milk Animals Argentina              2290000
10  1961 Milk Animals Asia                  34361815
# … with 36,439 more rows

Code

summarize(Year_Element_Area, median_value = median(Value, na.rm = TRUE))

# A tibble: 36,449 × 4
# Groups:   Year, Element [174]
    Year Element      Area                median_value
   <dbl> <chr>        <chr>                      <dbl>
 1  1961 Milk Animals Afghanistan               700000
 2  1961 Milk Animals Africa                  17007415
 3  1961 Milk Animals Albania                   116600
 4  1961 Milk Animals Algeria                   263000
 5  1961 Milk Animals American Samoa                40
 6  1961 Milk Animals Americas                37391981
 7  1961 Milk Animals Angola                    220000
 8  1961 Milk Animals Antigua and Barbuda         2300
 9  1961 Milk Animals Argentina                2290000
10  1961 Milk Animals Asia                    34361815
# … with 36,439 more rows

Code

summarize(Year_Element_Area, mode = sum(n()))

# A tibble: 36,449 × 4
# Groups:   Year, Element [174]
    Year Element      Area                 mode
   <dbl> <chr>        <chr>               <int>
 1  1961 Milk Animals Afghanistan             1
 2  1961 Milk Animals Africa                  1
 3  1961 Milk Animals Albania                 1
 4  1961 Milk Animals Algeria                 1
 5  1961 Milk Animals American Samoa          1
 6  1961 Milk Animals Americas                1
 7  1961 Milk Animals Angola                  1
 8  1961 Milk Animals Antigua and Barbuda     1
 9  1961 Milk Animals Argentina               1
10  1961 Milk Animals Asia                    1
# … with 36,439 more rows

Code

Year_Element <- group_by(cattle_new, Year, Element)
summarize(Year_Element, mean_value = mean(Value, na.rm = TRUE))

# A tibble: 174 × 3
# Groups:   Year [58]
    Year Element      mean_value
   <dbl> <chr>             <dbl>
 1  1961 Milk Animals   3582516.
 2  1961 Production     6335891.
 3  1961 Yield            11949.
 4  1962 Milk Animals   3567116.
 5  1962 Production     6384721.
 6  1962 Yield            12105.
 7  1963 Milk Animals   3578137.
 8  1963 Production     6319684.
 9  1963 Yield            12147.
10  1964 Milk Animals   3554094.
# … with 164 more rows

Code

summarize(Year_Element, median_value = median(Value, na.rm = TRUE))

# A tibble: 174 × 3
# Groups:   Year [58]
    Year Element      median_value
   <dbl> <chr>               <dbl>
 1  1961 Milk Animals       200550
 2  1961 Production         100368
 3  1961 Yield                8812
 4  1962 Milk Animals       200850
 5  1962 Production         100000
 6  1962 Yield                8899
 7  1963 Milk Animals       219550
 8  1963 Production         102500
 9  1963 Yield                9051
10  1964 Milk Animals       215650
# … with 164 more rows

Code

summarize(Year_Element, mode = n())

# A tibble: 174 × 3
# Groups:   Year [58]
    Year Element       mode
   <dbl> <chr>        <int>
 1  1961 Milk Animals   198
 2  1961 Production     198
 3  1961 Yield          198
 4  1962 Milk Animals   198
 5  1962 Production     198
 6  1962 Yield          198
 7  1963 Milk Animals   198
 8  1963 Production     198
 9  1963 Yield          198
10  1964 Milk Animals   198
# … with 164 more rows

Code

# compute the mininum, maximum, quantiles, and standard deviation for Value based on Area, Year, and Element, and Year and Element
summarize(Year_Element_Area, min_value = min(Value, na.rm = TRUE))

# A tibble: 36,449 × 4
# Groups:   Year, Element [174]
    Year Element      Area                min_value
   <dbl> <chr>        <chr>                   <dbl>
 1  1961 Milk Animals Afghanistan            700000
 2  1961 Milk Animals Africa               17007415
 3  1961 Milk Animals Albania                116600
 4  1961 Milk Animals Algeria                263000
 5  1961 Milk Animals American Samoa             40
 6  1961 Milk Animals Americas             37391981
 7  1961 Milk Animals Angola                 220000
 8  1961 Milk Animals Antigua and Barbuda      2300
 9  1961 Milk Animals Argentina             2290000
10  1961 Milk Animals Asia                 34361815
# … with 36,439 more rows

Code

summarize(Year_Element_Area, max_value = max(Value, na.rm = TRUE))

# A tibble: 36,449 × 4
# Groups:   Year, Element [174]
    Year Element      Area                max_value
   <dbl> <chr>        <chr>                   <dbl>
 1  1961 Milk Animals Afghanistan            700000
 2  1961 Milk Animals Africa               17007415
 3  1961 Milk Animals Albania                116600
 4  1961 Milk Animals Algeria                263000
 5  1961 Milk Animals American Samoa             40
 6  1961 Milk Animals Americas             37391981
 7  1961 Milk Animals Angola                 220000
 8  1961 Milk Animals Antigua and Barbuda      2300
 9  1961 Milk Animals Argentina             2290000
10  1961 Milk Animals Asia                 34361815
# … with 36,439 more rows

Code

summarize(Year_Element_Area, quantile_value = quantile(Value, na.rm = TRUE))

# A tibble: 182,245 × 4
# Groups:   Year, Element, Area [36,449]
    Year Element      Area        quantile_value
   <dbl> <chr>        <chr>                <dbl>
 1  1961 Milk Animals Afghanistan         700000
 2  1961 Milk Animals Afghanistan         700000
 3  1961 Milk Animals Afghanistan         700000
 4  1961 Milk Animals Afghanistan         700000
 5  1961 Milk Animals Afghanistan         700000
 6  1961 Milk Animals Africa            17007415
 7  1961 Milk Animals Africa            17007415
 8  1961 Milk Animals Africa            17007415
 9  1961 Milk Animals Africa            17007415
10  1961 Milk Animals Africa            17007415
# … with 182,235 more rows

Code

summarize(Year_Element_Area, sd_value = sd(Value, na.rm = TRUE))

# A tibble: 36,449 × 4
# Groups:   Year, Element [174]
    Year Element      Area                sd_value
   <dbl> <chr>        <chr>                  <dbl>
 1  1961 Milk Animals Afghanistan               NA
 2  1961 Milk Animals Africa                    NA
 3  1961 Milk Animals Albania                   NA
 4  1961 Milk Animals Algeria                   NA
 5  1961 Milk Animals American Samoa            NA
 6  1961 Milk Animals Americas                  NA
 7  1961 Milk Animals Angola                    NA
 8  1961 Milk Animals Antigua and Barbuda       NA
 9  1961 Milk Animals Argentina                 NA
10  1961 Milk Animals Asia                      NA
# … with 36,439 more rows

Code

summarize(Year_Element, min_value = min(Value, na.rm = TRUE))

# A tibble: 174 × 3
# Groups:   Year [58]
    Year Element      min_value
   <dbl> <chr>            <dbl>
 1  1961 Milk Animals         8
 2  1961 Production           7
 3  1961 Yield             1200
 4  1962 Milk Animals        17
 5  1962 Production          23
 6  1962 Yield             1200
 7  1963 Milk Animals        20
 8  1963 Production          20
 9  1963 Yield             1191
10  1964 Milk Animals        25
# … with 164 more rows

Code

summarize(Year_Element, max_value = max(Value, na.rm = TRUE))

# A tibble: 174 × 3
# Groups:   Year [58]
    Year Element      max_value
   <dbl> <chr>            <dbl>
 1  1961 Milk Animals 177334557
 2  1961 Production   313626619
 3  1961 Yield            42941
 4  1962 Milk Animals 176572244
 5  1962 Production   316043684
 6  1962 Yield            44286
 7  1963 Milk Animals 177117785
 8  1963 Production   312824366
 9  1963 Yield            45862
10  1964 Milk Animals 175927677
# … with 164 more rows

Code

summarize(Year_Element, quantile_value = quantile(Value, na.rm = TRUE))

# A tibble: 870 × 3
# Groups:   Year, Element [174]
    Year Element      quantile_value
   <dbl> <chr>                 <dbl>
 1  1961 Milk Animals              8
 2  1961 Milk Animals           6200
 3  1961 Milk Animals         200550
 4  1961 Milk Animals        1236531
 5  1961 Milk Animals      177334557
 6  1961 Production                7
 7  1961 Production             5455
 8  1961 Production           100368
 9  1961 Production          1743000
10  1961 Production        313626619
# … with 860 more rows

Code

summarize(Year_Element, sd_value = sd(Value, na.rm = TRUE))

# A tibble: 174 × 3
# Groups:   Year [58]
    Year Element       sd_value
   <dbl> <chr>            <dbl>
 1  1961 Milk Animals 15152245.
 2  1961 Production   28456161.
 3  1961 Yield            9905.
 4  1962 Milk Animals 15117111.
 5  1962 Production   28667301.
 6  1962 Yield           10173.
 7  1963 Milk Animals 15189434.
 8  1963 Production   28305726.
 9  1963 Yield           10241.
10  1964 Milk Animals 15090377.
# … with 164 more rows
…
