DACSS 601: Data Science Fundamentals - FALL 2022 - Homework 3
…
Note

Since Homework 3 is a continuation of Homework 2, the sections Read in Data through Potential Research Questions will be the same as Homework 2.

Read in Data

Code

# read in the Current USD sheet of the Milex dataset, skipping the first 6 rows and renaming the columns
milex <- read_excel("_data/SIPRI-Milex-data-1949-2021.xlsx", sheet = "Current USD", skip = 6, col_names = c("Country", "Notes", 1949:2021))
# view milex data
milex

# A tibble: 191 × 75
   Country  Notes `1949` `1950` `1951` `1952` `1953` `1954` `1955` `1956` `1957`
   <chr>    <chr> <chr>  <chr>  <chr>  <chr>  <chr>  <chr>  <chr>  <chr>  <chr> 
 1 Africa   <NA>  <NA>   <NA>   <NA>   <NA>   <NA>   <NA>   <NA>   <NA>   <NA>  
 2 North A… <NA>  <NA>   <NA>   <NA>   <NA>   <NA>   <NA>   <NA>   <NA>   <NA>  
 3 Algeria  §4    xxx    xxx    xxx    xxx    xxx    xxx    xxx    xxx    xxx   
 4 Libya    ‡§¶16 xxx    xxx    ...    ...    ...    ...    ...    ...    ...   
 5 Morocco  §17   xxx    xxx    xxx    xxx    xxx    xxx    xxx    23.71… 35.40…
 6 Tunisia  <NA>  xxx    xxx    xxx    xxx    xxx    xxx    xxx    3.714… 6.411…
 7 sub-Sah… <NA>  <NA>   <NA>   <NA>   <NA>   <NA>   <NA>   <NA>   <NA>   <NA>  
 8 Angola   §‖1   xxx    xxx    xxx    xxx    xxx    xxx    xxx    xxx    xxx   
 9 Benin    §     xxx    xxx    xxx    xxx    xxx    xxx    xxx    xxx    xxx   
10 Botswana <NA>  xxx    xxx    xxx    xxx    xxx    xxx    xxx    xxx    xxx   
# … with 181 more rows, and 64 more variables: `1958` <chr>, `1959` <chr>,
#   `1960` <chr>, `1961` <chr>, `1962` <chr>, `1963` <chr>, `1964` <chr>,
#   `1965` <chr>, `1966` <chr>, `1967` <chr>, `1968` <chr>, `1969` <chr>,
#   `1970` <chr>, `1971` <chr>, `1972` <chr>, `1973` <chr>, `1974` <chr>,
#   `1975` <chr>, `1976` <chr>, `1977` <chr>, `1978` <chr>, `1979` <chr>,
#   `1980` <chr>, `1981` <chr>, `1982` <chr>, `1983` <chr>, `1984` <chr>,
#   `1985` <chr>, `1986` <chr>, `1987` <chr>, `1988` <chr>, `1989` <chr>, …
…
  # replace NAs in Sub Region column
  fill(Sub_Region, .direction = "down") %>% 
  # remove rows with region and sub-region names
  slice(-c(1:2, 7, 55:56, 70, 73, 85:86, 91, 98, 105, 117, 123:124, 145, 154, 175)) %>% 
  # replace "xxx" and "..." with NAs
  na_if("xxx") %>%
  na_if("...") %>% 
  # combine Region and Sub Region into one column
  unite(Region:Sub_Region, col = "Region & Sub Region", sep = "/" ) %>% 
  # combine year columns into one column
  pivot_longer('1949':'2021', names_to = "Year", values_to = "Military Expenditure in Millions of US$")
# view cleaned dataset
milex_clean

# A tibble: 12,629 × 4
   Country `Region & Sub Region` Year  `Military Expenditure in Millions of US$`
   <chr>   <chr>                 <chr> <chr>                                    
 1 Algeria Africa/North Africa   1949  <NA>                                     
 2 Algeria Africa/North Africa   1950  <NA>                                     
 3 Algeria Africa/North Africa   1951  <NA>                                     
 4 Algeria Africa/North Africa   1952  <NA>                                     
 5 Algeria Africa/North Africa   1953  <NA>                                     
 6 Algeria Africa/North Africa   1954  <NA>                                     
 7 Algeria Africa/North Africa   1955  <NA>                                     
 8 Algeria Africa/North Africa   1956  <NA>                                     
 9 Algeria Africa/North Africa   1957  <NA>                                     
10 Algeria Africa/North Africa   1958  <NA>                                     
# … with 12,619 more rows

Code

# number of distinct countries
n_distinct(milex_clean$Country)

[1] 173

Code

# list distinct countries
distinct(milex_clean[,1])

# A tibble: 173 × 1
   Country     
   <chr>       
 1 Algeria     
 2 Libya       
 3 Morocco     
 4 Tunisia     
 5 Angola      
 6 Benin       
 7 Botswana    
 8 Burkina Faso
 9 Burundi     
10 Cameroon    
# … with 163 more rows
…
Since there are 13 Region & Sub Region categories, I want to look at the number of times each region and sub region combination is represented in the data. Africa/sub-Saharan Africa is represented the most at 3,431 times with Europe/Central Europe and Europe/Western Europe following at 1,460 times each. This seems correct as there are many sub-Saharan African countries compared to European countries and others. However, I did not specify to remove missing values, so this count may not be entirely accurate as not every country had a military expenditure amount for each year.

Lastly, I computed the average military expenditures in US dollars by country. The range is from 0.05479452 million US dollars to 1 million US dollars, so the USSR has the smallest average while 17 countries (including the United States of America) have the largest average. This is a bit strange since there were a lot of tensions, especially during the Cold War, between the USSR and the USA, but the reason why the USSR has the smallest average military expenditures in US dollars may be because the USSR broke up in the 1990s and most of the larger military expenditures occurred after the disbandment of the USSR.

Code

# calculate the average military expenditures by year 
avg_exp <- milex_clean %>% 
  group_by(Year) %>% 
  summarize(avg_expenditure = mean(!is.na(`Military Expenditure in Millions of US$`)))
# view avg_exp
avg_exp

# A tibble: 73 × 2
   Year  avg_expenditure
   <chr>           <dbl>
 1 1949           0.0983
 2 1950           0.127 
 3 1951           0.162 
 4 1952           0.173 
 5 1953           0.202 
 6 1954           0.185 
 7 1955           0.208 
 8 1956           0.254 
 9 1957           0.306 
10 1958           0.347 
# … with 63 more rows
…
Code

# compute average military expenditures by country
country_exp <- milex_clean %>% 
  group_by(Country) %>% 
  summarize(avg_expenditure = mean(!is.na(`Military Expenditure in Millions of US$`)))
# view country_exp
country_exp

# A tibble: 173 × 2
   Country     avg_expenditure
   <chr>                 <dbl>
 1 Afghanistan           0.329
 2 Albania               0.644
 3 Algeria               0.808
 4 Angola                0.603
 5 Argentina             1    
 6 Armenia               0.397
 7 Australia             1    
 8 Austria               0.890
 9 Azerbaijan            0.411
10 Bahrain               0.699
# … with 163 more rows
…
Code

# find the top 5 spending countries for each year
top_country_exp <- milex_clean %>% 
  group_by(Year) %>% 
  arrange(desc(`Military Expenditure in Millions of US$`)) %>% 
  slice_head(n = 5)
# view top_country_exp
top_country_exp

# A tibble: 365 × 4
# Groups:   Year [73]
   Country  `Region & Sub Region`                      Year  Military Expendit…¹
   <chr>    <chr>                                      <chr> <chr>              
 1 Denmark  Europe/Western Europe                      1949  69.297401347449465 
 2 Norway   Europe/Western Europe                      1949  67.17745742401685  
 3 Portugal Europe/Western Europe                      1949  54.441128511214352 
 4 Italy    Europe/Western Europe                      1949  467.23430058061933 
 5 Mexico   Americas/Central America and the Caribbean 1949  34.797687861271676 
 6 Chile    Americas/South America                     1950  87.502552157771277 
 7 Portugal Europe/Western Europe                      1950  52.732141362862961 
 8 Denmark  Europe/Western Europe                      1950  51.975202471645282 
 9 Italy    Europe/Western Europe                      1950  501.26509684299299 
10 Norway   Europe/Western Europe                      1950  49.979980008007999 
# … with 355 more rows, and abbreviated variable name
#   ¹​`Military Expenditure in Millions of US$`

Code

# filter the top 5 spending countries from 1949 to 1953
first_5_yrs <- filter(top_country_exp, Year <= 1953)
# view first 5 years data frame
first_5_yrs

# A tibble: 25 × 4
# Groups:   Year [5]
   Country  `Region & Sub Region`                      Year  Military Expendit…¹
   <chr>    <chr>                                      <chr> <chr>              
 1 Denmark  Europe/Western Europe                      1949  69.297401347449465 
 2 Norway   Europe/Western Europe                      1949  67.17745742401685  
 3 Portugal Europe/Western Europe                      1949  54.441128511214352 
 4 Italy    Europe/Western Europe                      1949  467.23430058061933 
 5 Mexico   Americas/Central America and the Caribbean 1949  34.797687861271676 
 6 Chile    Americas/South America                     1950  87.502552157771277 
 7 Portugal Europe/Western Europe                      1950  52.732141362862961 
 8 Denmark  Europe/Western Europe                      1950  51.975202471645282 
 9 Italy    Europe/Western Europe                      1950  501.26509684299299 
10 Norway   Europe/Western Europe                      1950  49.979980008007999 
# … with 15 more rows, and abbreviated variable name
#   ¹​`Military Expenditure in Millions of US$`

Code

# filter the top 5 spending countries from 2017 to 2021
last_5_yrs <- filter(top_country_exp, Year >= 2017)
# view last 5 years data frame
last_5_yrs

# A tibble: 25 × 4
# Groups:   Year [5]
   Country      `Region & Sub Region`     Year  Military Expenditure in Millio…¹
   <chr>        <chr>                     <chr> <chr>                           
 1 Poland       Europe/Central Europe     2017  9870.6806282722519              
 2 Korea, North Asia & Oceania/East Asia  2017  961.48148148148152              
 3 Netherlands  Europe/Western Europe     2017  9580.6854982163022              
 4 Croatia      Europe/Central Europe     2017  920.83705291818819              
 5 Cape Verde   Africa/sub-Saharan Africa 2017  9.3543841662816174              
 6 Croatia      Europe/Central Europe     2018  966.35871679888726              
 7 Bulgaria     Europe/Central Europe     2018  961.29727459449623              
 8 Mongolia     Asia & Oceania/East Asia  2018  96.067489859811118              
 9 Algeria      Africa/North Africa       2018  9583.7242883703002              
10 Eswatini     Africa/sub-Saharan Africa 2018  95.863380323095569              
# … with 15 more rows, and abbreviated variable name
#   ¹​`Military Expenditure in Millions of US$`
…
