DACSS 601: Data Science Fundamentals - FALL 2022 - Popular Baby Name Analysis
…
Rows: 6311504 Columns: 5
── Column specification ────────────────────────────────────────────────────────
Delimiter: ","
chr (3): State, Gender, Name
dbl (2): Year, Count

ℹ Use `spec()` to retrieve the full column specification for this data.
ℹ Specify the column types or set `show_col_types = FALSE` to quiet this message.

Code

# view baby_orig data frame
baby_orig

# A tibble: 6,311,504 × 5
   State Gender  Year Name     Count
   <chr> <chr>  <dbl> <chr>    <dbl>
 1 AK    F       1910 Mary        14
 2 AK    F       1910 Annie       12
 3 AK    F       1910 Anna        10
 4 AK    F       1910 Margaret     8
 5 AK    F       1910 Helen        7
 6 AK    F       1910 Elsie        6
 7 AK    F       1910 Lucy         6
 8 AK    F       1910 Dorothy      5
 9 AK    F       1911 Mary        12
10 AK    F       1911 Margaret     7
# … with 6,311,494 more rows
…
Warning in State == c("IL", "IN", "IA", "KS", "MI", "MN", "NE", "ND", "OH", :
longer object length is not a multiple of shorter object length

Warning in State == c("AK", "CA", "CO", "HI", "ID", "MT", "NV", "OR", "UT", :
longer object length is not a multiple of shorter object length

Code

# convert Gender_Full into a factor
baby$Gender_Full <- factor(baby$Gender_Full)
# view baby dataset
baby

# A tibble: 6,311,504 × 6
    Year Name     Count Region State_Full Gender_Full
   <dbl> <chr>    <dbl> <chr>  <chr>      <fct>      
 1  1910 Mary        14 West   Alaska     Female     
 2  1910 Annie       12 West   Alaska     Female     
 3  1910 Anna        10 West   Alaska     Female     
 4  1910 Margaret     8 West   Alaska     Female     
 5  1910 Helen        7 West   Alaska     Female     
 6  1910 Elsie        6 West   Alaska     Female     
 7  1910 Lucy         6 West   Alaska     Female     
 8  1910 Dorothy      5 West   Alaska     Female     
 9  1911 Mary        12 West   Alaska     Female     
10  1911 Margaret     7 West   Alaska     Female     
# … with 6,311,494 more rows
…
The second data frame will help answer the second research question by calculating the difference between the minimum and maximum occurrences for each name in each region. This is done by grouping the baby data frame by Region and Name and then summarizing by the minimum Count (min_count), maximum Count (max_count), and the difference between the two (difference). For ease of visualization, I will only extract the top five names with the largest difference in each region.

The third data frame finds the number of popular names for each gender in each region in order to determine whether there are more popular girl names or popular boy names. This data frame filters the baby data frame with only names that have a Count of 2,000 or more, grouped by Gender_Full and Region, and summarized by the number of occurrences. The definition of “popular” is arbitrary but I chose a limit of 2,000 occurrences or more for each name to be considered popular because the mean Count is 50.7, so 2,000 seems like a good value determining whether the name is deemed popular or not.

Code

# get the top 5 baby names for each year
top_5_baby <- baby %>% 
  group_by(Year) %>% 
  arrange(desc(Count)) %>% 
  slice_head(n = 5)
# view top_5_baby data frame
top_5_baby

# A tibble: 560 × 6
# Groups:   Year [112]
    Year Name  Count Region          State_Full   Gender_Full
   <dbl> <chr> <dbl> <chr>           <chr>        <fct>      
 1  1910 Mary   2913 West            Pennsylvania Female     
 2  1910 Mary   1923 Middle Atlantic New York     Female     
 3  1910 Helen  1604 Middle Atlantic Pennsylvania Female     
 4  1910 Anna   1534 Middle Atlantic Pennsylvania Female     
 5  1910 John   1326 Middle Atlantic Pennsylvania Male       
 6  1911 Mary   3188 Middle Atlantic Pennsylvania Female     
 7  1911 Mary   2322 Middle Atlantic New York     Female     
 8  1911 Helen  1733 Middle Atlantic Pennsylvania Female     
 9  1911 John   1672 Middle Atlantic Pennsylvania Male       
10  1911 John   1624 Middle Atlantic New York     Male       
# … with 550 more rows
…
`summarise()` has grouped output by 'Region'. You can override using the
`.groups` argument.

Code

# view change_baby data frame
change_baby

# A tibble: 30 × 5
# Groups:   Region [6]
   Region          Name    min_count max_count difference
   <chr>           <chr>       <dbl>     <dbl>      <dbl>
 1 Middle Atlantic Robert          5     10026      10021
 2 Middle Atlantic John            5      9639       9634
 3 Middle Atlantic Michael         5      9241       9236
 4 Middle Atlantic Mary            5      8184       8179
 5 Middle Atlantic Linda           5      7542       7537
 6 Midwest         Michael         5      6221       6216
 7 Midwest         Linda           5      5885       5880
 8 Midwest         David           5      5495       5490
 9 Midwest         Robert          5      5427       5422
10 Midwest         James           5      5349       5344
# … with 20 more rows
…
