DACSS 601: Data Science Fundamentals - FALL 2022 - Emma Narkewicz Challenge 6
…
On the read in I: - skipped over notes and the title at the beginning of the table - renamed the columns - deleted the standard error columns because I didn’t feel like including them in my visualization - removed the footnotes from the bottom (after I read them)

library(readxl)
#read in data 
USA_HH <-read_excel("_data/USA Households by Total Money Income, Race, and Hispanic Origin of Householder 1967 to 2019.xlsx",
         skip = 5,
         col_names = c("Year", "Number_of_HHolds_in_1000s", "Delete", "Income_Under_$15,000", "Income_$15,000-$24,999", "Income_$25,000_to_$34,999", "Income_$35,000_to_$49,999","Income_$50,000_to_$74,999K", "Income_$75,999_$99,999K", "Income_$100,000_$149,999", "Income_$150,000_to_$199,999", "Income_Over_$200,000", "Median_Income", "Delete", "Mean_Income", "Delete")) %>%
   select(!contains("Delete")) 
#Remove Footnotes At Bottom of Tables
USA_HH <- head(USA_HH, -31) 

USA_HH

# A tibble: 352 × 13
   Year  Numbe…¹ Incom…² Incom…³ Incom…⁴ Incom…⁵ Incom…⁶ Incom…⁷ Incom…⁸ Incom…⁹
   <chr> <chr>     <dbl>   <dbl>   <dbl>   <dbl>   <dbl>   <dbl>   <dbl>   <dbl>
 1 ALL … <NA>       NA      NA      NA      NA      NA      NA      NA      NA  
 2 2019  128451      9.1     8       8.3    11.7    16.5    12.3    15.5     8.3
 3 2018  128579     10.1     8.8     8.7    12      17      12.5    15       7.2
 4 2017… 127669     10       9.1     9.2    12      16.4    12.4    14.7     7.3
 5 2017  127586     10.1     9.1     9.2    11.9    16.3    12.6    14.8     7.5
 6 2016  126224     10.4     9       9.2    12.3    16.7    12.2    15       7.2
 7 2015  125819     10.6    10       9.6    12.1    16.1    12.4    14.9     7.1
 8 2014  124587     11.4    10.5     9.6    12.6    16.4    12.1    14       6.6
 9 2013… 123931     11.4    10.3     9.5    12.5    16.8    12      13.9     6.7
10 2013… 122952     11.3    10.4     9.7    13.1    17      12.5    13.6     6.3
# … with 342 more rows, 3 more variables: `Income_Over_$200,000` <dbl>,
#   Median_Income <dbl>, Mean_Income <chr>, and abbreviated variable names
#   ¹​Number_of_HHolds_in_1000s, ²​`Income_Under_$15,000`,
#   ³​`Income_$15,000-$24,999`, ⁴​`Income_$25,000_to_$34,999`,
#   ⁵​`Income_$35,000_to_$49,999`, ⁶​`Income_$50,000_to_$74,999K`,
#   ⁷​`Income_$75,999_$99,999K`, ⁸​`Income_$100,000_$149,999`,
#   ⁹​`Income_$150,000_to_$199,999`
…
#Creating new Identity column
USA_HH_Data <- USA_HH %>%
  mutate(Identity = case_when(
    str_detect(Year, "[[:alpha:]]") ~ Year)
    )%>%
  relocate(`Identity`, .before = `Year`)%>%
#Fill down the Identity Column
   fill(Identity) %>%
#Remove the Identity from the  year
    filter(!str_detect(Year, "[[:alpha:]]"))

USA_HH_Data

# A tibble: 340 × 14
   Ident…¹ Year  Numbe…² Incom…³ Incom…⁴ Incom…⁵ Incom…⁶ Incom…⁷ Incom…⁸ Incom…⁹
   <chr>   <chr> <chr>     <dbl>   <dbl>   <dbl>   <dbl>   <dbl>   <dbl>   <dbl>
 1 ALL RA… 2019  128451      9.1     8       8.3    11.7    16.5    12.3    15.5
 2 ALL RA… 2018  128579     10.1     8.8     8.7    12      17      12.5    15  
 3 ALL RA… 2017… 127669     10       9.1     9.2    12      16.4    12.4    14.7
 4 ALL RA… 2017  127586     10.1     9.1     9.2    11.9    16.3    12.6    14.8
 5 ALL RA… 2016  126224     10.4     9       9.2    12.3    16.7    12.2    15  
 6 ALL RA… 2015  125819     10.6    10       9.6    12.1    16.1    12.4    14.9
 7 ALL RA… 2014  124587     11.4    10.5     9.6    12.6    16.4    12.1    14  
 8 ALL RA… 2013… 123931     11.4    10.3     9.5    12.5    16.8    12      13.9
 9 ALL RA… 2013… 122952     11.3    10.4     9.7    13.1    17      12.5    13.6
10 ALL RA… 2012  122459     11.4    10.6    10.1    12.5    17.4    12      13.9
# … with 330 more rows, 4 more variables: `Income_$150,000_to_$199,999` <dbl>,
#   `Income_Over_$200,000` <dbl>, Median_Income <dbl>, Mean_Income <chr>, and
#   abbreviated variable names ¹​Identity, ²​Number_of_HHolds_in_1000s,
#   ³​`Income_Under_$15,000`, ⁴​`Income_$15,000-$24,999`,
#   ⁵​`Income_$25,000_to_$34,999`, ⁶​`Income_$35,000_to_$49,999`,
#   ⁷​`Income_$50,000_to_$74,999K`, ⁸​`Income_$75,999_$99,999K`,
#   ⁹​`Income_$100,000_$149,999`

Identity and Year are now in their own columns, however they still have pesky footnotes. I remembered I could use the presence of numbers in the alphabetical Identity column and the space between the year and the footnotes in the Year column to strategically remove the footnotes using the separate and mutate functions. I did reference and heavily utilize Professor Rolfe’s code from Solution 3 to execute these steps.

#Remove the Footnotes with help of Prof Rolfe's Challenge 3 Code
USA_HH_Data <- USA_HH_Data %>%
# Delete the footnotes after year using 
  separate(Year, into=c("Year", "Delete"), sep=" ")%>%
# Delete the footnotes after Identity by identifying a number after a space in the 
  mutate(Identity = str_remove(Identity, " [0-9]+")) %>%
  select(-"Delete")

USA_HH_Data 

# A tibble: 340 × 14
   Ident…¹ Year  Numbe…² Incom…³ Incom…⁴ Incom…⁵ Incom…⁶ Incom…⁷ Incom…⁸ Incom…⁹
   <chr>   <chr> <chr>     <dbl>   <dbl>   <dbl>   <dbl>   <dbl>   <dbl>   <dbl>
 1 ALL RA… 2019  128451      9.1     8       8.3    11.7    16.5    12.3    15.5
 2 ALL RA… 2018  128579     10.1     8.8     8.7    12      17      12.5    15  
 3 ALL RA… 2017  127669     10       9.1     9.2    12      16.4    12.4    14.7
 4 ALL RA… 2017  127586     10.1     9.1     9.2    11.9    16.3    12.6    14.8
 5 ALL RA… 2016  126224     10.4     9       9.2    12.3    16.7    12.2    15  
 6 ALL RA… 2015  125819     10.6    10       9.6    12.1    16.1    12.4    14.9
 7 ALL RA… 2014  124587     11.4    10.5     9.6    12.6    16.4    12.1    14  
 8 ALL RA… 2013  123931     11.4    10.3     9.5    12.5    16.8    12      13.9
 9 ALL RA… 2013  122952     11.3    10.4     9.7    13.1    17      12.5    13.6
10 ALL RA… 2012  122459     11.4    10.6    10.1    12.5    17.4    12      13.9
# … with 330 more rows, 4 more variables: `Income_$150,000_to_$199,999` <dbl>,
#   `Income_Over_$200,000` <dbl>, Median_Income <dbl>, Mean_Income <chr>, and
#   abbreviated variable names ¹​Identity, ²​Number_of_HHolds_in_1000s,
#   ³​`Income_Under_$15,000`, ⁴​`Income_$15,000-$24,999`,
#   ⁵​`Income_$25,000_to_$34,999`, ⁶​`Income_$35,000_to_$49,999`,
#   ⁷​`Income_$50,000_to_$74,999K`, ⁸​`Income_$75,999_$99,999K`,
#   ⁹​`Income_$100,000_$149,999`
…
I also decided to replace Number_of_HHolds_in_1000s with Number_of_HHolds by multiplying the first column by 1000 and deleting the original. I used mutate(), relocate(), and select() to do this.

#Converting households in 1000s to households
USA_HH_Data <- USA_HH_Data %>%
  mutate(Number_HHolds = 1000 * Number_of_HHolds_in_1000s) %>%
  relocate(`Number_HHolds`, .before = `Income_Under_$15,000`) %>%
  select(-"Number_of_HHolds_in_1000s")

USA_HH_Data

# A tibble: 340 × 14
   Ident…¹  Year Numbe…² Incom…³ Incom…⁴ Incom…⁵ Incom…⁶ Incom…⁷ Incom…⁸ Incom…⁹
   <chr>   <dbl>   <dbl>   <dbl>   <dbl>   <dbl>   <dbl>   <dbl>   <dbl>   <dbl>
 1 ALL RA…  2019  1.28e8     9.1     8       8.3    11.7    16.5    12.3    15.5
 2 ALL RA…  2018  1.29e8    10.1     8.8     8.7    12      17      12.5    15  
 3 ALL RA…  2017  1.28e8    10       9.1     9.2    12      16.4    12.4    14.7
 4 ALL RA…  2017  1.28e8    10.1     9.1     9.2    11.9    16.3    12.6    14.8
 5 ALL RA…  2016  1.26e8    10.4     9       9.2    12.3    16.7    12.2    15  
 6 ALL RA…  2015  1.26e8    10.6    10       9.6    12.1    16.1    12.4    14.9
 7 ALL RA…  2014  1.25e8    11.4    10.5     9.6    12.6    16.4    12.1    14  
 8 ALL RA…  2013  1.24e8    11.4    10.3     9.5    12.5    16.8    12      13.9
 9 ALL RA…  2013  1.23e8    11.3    10.4     9.7    13.1    17      12.5    13.6
10 ALL RA…  2012  1.22e8    11.4    10.6    10.1    12.5    17.4    12      13.9
# … with 330 more rows, 4 more variables: `Income_$150,000_to_$199,999` <dbl>,
#   `Income_Over_$200,000` <dbl>, Median_Income <dbl>, Mean_Income <dbl>, and
#   abbreviated variable names ¹​Identity, ²​Number_HHolds,
#   ³​`Income_Under_$15,000`, ⁴​`Income_$15,000-$24,999`,
#   ⁵​`Income_$25,000_to_$34,999`, ⁶​`Income_$35,000_to_$49,999`,
#   ⁷​`Income_$50,000_to_$74,999K`, ⁸​`Income_$75,999_$99,999K`,
#   ⁹​`Income_$100,000_$149,999`
…
[1] 7

#Calculating number of rows
340 * 9

[1] 3060

USA_HH_Data <- USA_HH_Data %>%
  pivot_longer(cols=starts_with("Income"),
               names_to = "Income_Bracket",
               values_to = "Percent") 

USA_HH_Data

# A tibble: 3,060 × 7
   Identity   Year Number_HHolds Median_Income Mean_Income Income_Brac…¹ Percent
   <chr>     <dbl>         <dbl>         <dbl>       <dbl> <chr>           <dbl>
 1 ALL RACES  2019     128451000         68703       98088 Income_Under…     9.1
 2 ALL RACES  2019     128451000         68703       98088 Income_$15,0…     8  
 3 ALL RACES  2019     128451000         68703       98088 Income_$25,0…     8.3
 4 ALL RACES  2019     128451000         68703       98088 Income_$35,0…    11.7
 5 ALL RACES  2019     128451000         68703       98088 Income_$50,0…    16.5
 6 ALL RACES  2019     128451000         68703       98088 Income_$75,9…    12.3
 7 ALL RACES  2019     128451000         68703       98088 Income_$100,…    15.5
 8 ALL RACES  2019     128451000         68703       98088 Income_$150,…     8.3
 9 ALL RACES  2019     128451000         68703       98088 Income_Over_…    10.3
10 ALL RACES  2018     128579000         64324       91652 Income_Under…    10.1
# … with 3,050 more rows, and abbreviated variable name ¹​Income_Bracket

Woohoo, 3,060 x 7 dimensions as predicted.

I know I want to combine some of the racial categories, and when I do percentage columns can not be combined together properly. To deal with this, I will create a new “HHolds_In_Bracket” Column that converts percentages to counts prior to adjusting identity.

#Creating a column of counts
USA_HH_Data <- USA_HH_Data %>%
  mutate(HHolds_In_Bracket = round(Number_HHolds*(Percent/100)))

USA_HH_Data

# A tibble: 3,060 × 8
   Identity   Year Number_HHolds Median_Income Mean_In…¹ Incom…² Percent HHold…³
   <chr>     <dbl>         <dbl>         <dbl>     <dbl> <chr>     <dbl>   <dbl>
 1 ALL RACES  2019     128451000         68703     98088 Income…     9.1  1.17e7
 2 ALL RACES  2019     128451000         68703     98088 Income…     8    1.03e7
 3 ALL RACES  2019     128451000         68703     98088 Income…     8.3  1.07e7
 4 ALL RACES  2019     128451000         68703     98088 Income…    11.7  1.50e7
 5 ALL RACES  2019     128451000         68703     98088 Income…    16.5  2.12e7
 6 ALL RACES  2019     128451000         68703     98088 Income…    12.3  1.58e7
 7 ALL RACES  2019     128451000         68703     98088 Income…    15.5  1.99e7
 8 ALL RACES  2019     128451000         68703     98088 Income…     8.3  1.07e7
 9 ALL RACES  2019     128451000         68703     98088 Income…    10.3  1.32e7
10 ALL RACES  2018     128579000         64324     91652 Income…    10.1  1.30e7
# … with 3,050 more rows, and abbreviated variable names ¹​Mean_Income,
#   ²​Income_Bracket, ³​HHolds_In_Bracket
…
#Remove old identity column & empty rows
  
USA_HH_Data_Identity <- USA_HH_Data_Identity %>%
  select(!Identity) %>%
    filter(!is.na(Tot_Identity))

USA_HH_Data_Identity

# A tibble: 2,205 × 8
   Tot_Identity  Year Number_HHolds Median_Inc…¹ Mean_…² Incom…³ Percent HHold…⁴
   <chr>        <dbl>         <dbl>        <dbl>   <dbl> <chr>     <dbl>   <dbl>
 1 All_Races     2019     128451000        68703   98088 Income…     9.1  1.17e7
 2 All_Races     2019     128451000        68703   98088 Income…     8    1.03e7
 3 All_Races     2019     128451000        68703   98088 Income…     8.3  1.07e7
 4 All_Races     2019     128451000        68703   98088 Income…    11.7  1.50e7
 5 All_Races     2019     128451000        68703   98088 Income…    16.5  2.12e7
 6 All_Races     2019     128451000        68703   98088 Income…    12.3  1.58e7
 7 All_Races     2019     128451000        68703   98088 Income…    15.5  1.99e7
 8 All_Races     2019     128451000        68703   98088 Income…     8.3  1.07e7
 9 All_Races     2019     128451000        68703   98088 Income…    10.3  1.32e7
10 All_Races     2018     128579000        64324   91652 Income…    10.1  1.30e7
# … with 2,195 more rows, and abbreviated variable names ¹​Median_Income,
#   ²​Mean_Income, ³​Income_Bracket, ⁴​HHolds_In_Bracket
…
USA_HH_Data_Identity_Ord

# A tibble: 2,205 × 8
   Tot_Identity  Year Number_HHolds Median_Inc…¹ Mean_…² Incom…³ Percent HHold…⁴
   <chr>        <dbl>         <dbl>        <dbl>   <dbl> <ord>     <dbl>   <dbl>
 1 All_Races     2019     128451000        68703   98088 <$15,0…     9.1  1.17e7
 2 All_Races     2019     128451000        68703   98088 $15,00…     8    1.03e7
 3 All_Races     2019     128451000        68703   98088 $25,00…     8.3  1.07e7
 4 All_Races     2019     128451000        68703   98088 $35,00…    11.7  1.50e7
 5 All_Races     2019     128451000        68703   98088 $50,00…    16.5  2.12e7
 6 All_Races     2019     128451000        68703   98088 $75,99…    12.3  1.58e7
 7 All_Races     2019     128451000        68703   98088 $100,0…    15.5  1.99e7
 8 All_Races     2019     128451000        68703   98088 $150,0…     8.3  1.07e7
 9 All_Races     2019     128451000        68703   98088 >$200,…    10.3  1.32e7
10 All_Races     2018     128579000        64324   91652 <$15,0…    10.1  1.30e7
# … with 2,195 more rows, and abbreviated variable names ¹​Median_Income,
#   ²​Mean_Income, ³​Income_Bracket, ⁴​HHolds_In_Bracket
…
