DACSS 601: Data Science Fundamentals - FALL 2022 - Emma Narkewicz Challenge 3
…
#Read In Data Pt1
library(readxl)
Aus_Marriage_Data <-read_excel("_data/australian_marriage_law_postal_survey_2017_-_response_final.xls", 
        sheet = 3, 
        skip = 7, 
        col_names = c("District", "Yes", "Percent", "No", "Percent", "Total", "Total_Percent", "Blank", "Response_Clear", "Response_Clear_Percent", "Unclear_Response", "Unclear_Response_Percent","Non_Response", "Non_Response_Percent", "Total", "Total_Percent")) %>%
        select(!contains("Percent")) %>%
        select(!contains("Total")) %>%
        select(!contains("Blank")) %>%
        select(!contains("Response_Clear")) 
      
Aus_Marriage_Data

# A tibble: 184 × 5
   District                    Yes    No Unclear_Response Non_Response
   <chr>                     <dbl> <dbl>            <dbl>        <dbl>
 1 New South Wales Divisions    NA    NA               NA           NA
 2 Banks                     37736 46343              247        20928
 3 Barton                    37153 47984              226        24008
 4 Bennelong                 42943 43215              244        19973
 5 Berowra                   48471 40369              212        16038
 6 Blaxland                  20406 57926              220        25883
 7 Bradfield                 53681 34927              202        17261
 8 Calare                    54091 35779              285        25342
 9 Chifley                   32871 46702              263        28180
10 Cook                      47505 38804              229        18713
# … with 174 more rows
…
I want to identify rows that contain total, so I will attempt to use str_detect(Divisions, “total”) within the filter.

Code

#Remove Notes & Australia Wide data
Aus_Marriage_Data <- head(Aus_Marriage_Data, -10) %>%
#Remove blank rows between Divisions using drop)na
   drop_na("District") %>%
#Remove total rows using function
  filter(!str_detect(District,"(Total)"))

Aus_Marriage_Data

# A tibble: 158 × 5
   District                    Yes    No Unclear_Response Non_Response
   <chr>                     <dbl> <dbl>            <dbl>        <dbl>
 1 New South Wales Divisions    NA    NA               NA           NA
 2 Banks                     37736 46343              247        20928
 3 Barton                    37153 47984              226        24008
 4 Bennelong                 42943 43215              244        19973
 5 Berowra                   48471 40369              212        16038
 6 Blaxland                  20406 57926              220        25883
 7 Bradfield                 53681 34927              202        17261
 8 Calare                    54091 35779              285        25342
 9 Chifley                   32871 46702              263        28180
10 Cook                      47505 38804              229        18713
# … with 148 more rows
…
Based on the Challenge 3 Solution, we can overcome this using case_when to first create a new Divisions column whenever a row ends with “Divisions” (e.g., New South Wales Divisions). This works, but I don’t like that this new Division column is all the way to the right, so I use relocate() to move it before District column.

Code

#Creating new division column
Aus_Marriage <- Aus_Marriage_Data %>%
  mutate(Division = case_when(
    str_ends(District, "Divisions") ~ District)
  )%>%
  relocate(`Division`, .before = `District`)

Aus_Marriage

# A tibble: 158 × 6
   Division                  District                  Yes    No Uncle…¹ Non_R…²
   <chr>                     <chr>                   <dbl> <dbl>   <dbl>   <dbl>
 1 New South Wales Divisions New South Wales Divisi…    NA    NA      NA      NA
 2 <NA>                      Banks                   37736 46343     247   20928
 3 <NA>                      Barton                  37153 47984     226   24008
 4 <NA>                      Bennelong               42943 43215     244   19973
 5 <NA>                      Berowra                 48471 40369     212   16038
 6 <NA>                      Blaxland                20406 57926     220   25883
 7 <NA>                      Bradfield               53681 34927     202   17261
 8 <NA>                      Calare                  54091 35779     285   25342
 9 <NA>                      Chifley                 32871 46702     263   28180
10 <NA>                      Cook                    47505 38804     229   18713
# … with 148 more rows, and abbreviated variable names ¹​Unclear_Response,
#   ²​Non_Response

Next, I use the fill() function to fill the empty Division column rows. This is possible because the Division applies to all the districts in a row up until the next division.

Code

#Fill down the divisions
Aus_Marriage <- Aus_Marriage %>%
 fill(Division)
  
Aus_Marriage

# A tibble: 158 × 6
   Division                  District                  Yes    No Uncle…¹ Non_R…²
   <chr>                     <chr>                   <dbl> <dbl>   <dbl>   <dbl>
 1 New South Wales Divisions New South Wales Divisi…    NA    NA      NA      NA
 2 New South Wales Divisions Banks                   37736 46343     247   20928
 3 New South Wales Divisions Barton                  37153 47984     226   24008
 4 New South Wales Divisions Bennelong               42943 43215     244   19973
 5 New South Wales Divisions Berowra                 48471 40369     212   16038
 6 New South Wales Divisions Blaxland                20406 57926     220   25883
 7 New South Wales Divisions Bradfield               53681 34927     202   17261
 8 New South Wales Divisions Calare                  54091 35779     285   25342
 9 New South Wales Divisions Chifley                 32871 46702     263   28180
10 New South Wales Divisions Cook                    47505 38804     229   18713
# … with 148 more rows, and abbreviated variable names ¹​Unclear_Response,
#   ²​Non_Response

This is nifty! I now have a column of districts, and a column of divisions, which I wanted. Looking at the tibble, I still have the pesky row where the Division is in the district column and there are no response data. To get rid of this, I can use filter() and str_detect(), specifying that I want to remove any row in which the District column contains “Divisions”.

Code

Aus_Marriage <- filter(Aus_Marriage, !str_detect(`District`, "Divisions"))

Aus_Marriage

# A tibble: 150 × 6
   Division                  District    Yes    No Unclear_Response Non_Response
   <chr>                     <chr>     <dbl> <dbl>            <dbl>        <dbl>
 1 New South Wales Divisions Banks     37736 46343              247        20928
 2 New South Wales Divisions Barton    37153 47984              226        24008
 3 New South Wales Divisions Bennelong 42943 43215              244        19973
 4 New South Wales Divisions Berowra   48471 40369              212        16038
 5 New South Wales Divisions Blaxland  20406 57926              220        25883
 6 New South Wales Divisions Bradfield 53681 34927              202        17261
 7 New South Wales Divisions Calare    54091 35779              285        25342
 8 New South Wales Divisions Chifley   32871 46702              263        28180
 9 New South Wales Divisions Cook      47505 38804              229        18713
10 New South Wales Divisions Cowper    57493 38317              315        25197
# … with 140 more rows
…
150 * 4

[1] 600

I therefor expect by pivoted data set to have dimensions of 600 rows by 4 columns.

Code

Aus_Marriage_tidy <-pivot_longer(Aus_Marriage, col = c("Yes", "No", "Unclear_Response", "Non_Response"),
                 names_to="Response_Type",
                 values_to = "Response_Count")

Aus_Marriage_tidy

# A tibble: 600 × 4
   Division                  District  Response_Type    Response_Count
   <chr>                     <chr>     <chr>                     <dbl>
 1 New South Wales Divisions Banks     Yes                       37736
 2 New South Wales Divisions Banks     No                        46343
 3 New South Wales Divisions Banks     Unclear_Response            247
 4 New South Wales Divisions Banks     Non_Response              20928
 5 New South Wales Divisions Barton    Yes                       37153
 6 New South Wales Divisions Barton    No                        47984
 7 New South Wales Divisions Barton    Unclear_Response            226
 8 New South Wales Divisions Barton    Non_Response              24008
 9 New South Wales Divisions Bennelong Yes                       42943
10 New South Wales Divisions Bennelong No                        43215
# … with 590 more rows
…
