DACSS 601: Data Science Fundamentals - FALL 2022 - Emma Narkewicz Challenge 4
…
Read in data

I read in the FedFundsRate.csv data set.

FedFundsRate.csv⭐⭐⭐

Code

library(tidyverse)

Fed_Rate_Data <- read_csv("_data/FedFundsRate.csv")

Fed_Rate_Data

# A tibble: 904 × 10
    Year Month   Day Federal F…¹ Feder…² Feder…³ Effec…⁴ Real …⁵ Unemp…⁶ Infla…⁷
   <dbl> <dbl> <dbl>       <dbl>   <dbl>   <dbl>   <dbl>   <dbl>   <dbl>   <dbl>
 1  1954     7     1          NA      NA      NA    0.8      4.6     5.8      NA
 2  1954     8     1          NA      NA      NA    1.22    NA       6        NA
 3  1954     9     1          NA      NA      NA    1.06    NA       6.1      NA
 4  1954    10     1          NA      NA      NA    0.85     8       5.7      NA
 5  1954    11     1          NA      NA      NA    0.83    NA       5.3      NA
 6  1954    12     1          NA      NA      NA    1.28    NA       5        NA
 7  1955     1     1          NA      NA      NA    1.39    11.9     4.9      NA
 8  1955     2     1          NA      NA      NA    1.29    NA       4.7      NA
 9  1955     3     1          NA      NA      NA    1.35    NA       4.6      NA
10  1955     4     1          NA      NA      NA    1.43     6.7     4.7      NA
# … with 894 more rows, and abbreviated variable names
#   ¹​`Federal Funds Target Rate`, ²​`Federal Funds Upper Target`,
#   ³​`Federal Funds Lower Target`, ⁴​`Effective Federal Funds Rate`,
#   ⁵​`Real GDP (Percent Change)`, ⁶​`Unemployment Rate`, ⁷​`Inflation Rate`
…
#Replace target rate = NA with the average of the upper and lower target, when present
Fed_Rate_Data_YMD <- Fed_Rate_Data_YMD %>%
  mutate(`Federal Funds Target Rate` = ifelse(is.na(`Federal Funds Target Rate`), (`Federal Funds Upper Target`+ `Federal Funds Lower Target`)/2, `Federal Funds Target Rate`))

#to hide the redundant Y, M, D and Upper and Lower column
Fed_Rate_Data_YMD <- Fed_Rate_Data_YMD %>%
   select(!starts_with("Year"))%>%
   select(!starts_with("Month")) %>%
   select(!starts_with("Day")) %>%
   select(!contains("Upper")) %>%
   select(!contains("Lower"))

Fed_Rate_Data_YMD

# A tibble: 904 × 6
   Date_YMD   `Federal Funds Target Rate` Effective Fe…¹ Real …² Unemp…³ Infla…⁴
   <date>                           <dbl>          <dbl>   <dbl>   <dbl>   <dbl>
 1 1954-07-01                          NA           0.8      4.6     5.8      NA
 2 1954-08-01                          NA           1.22    NA       6        NA
 3 1954-09-01                          NA           1.06    NA       6.1      NA
 4 1954-10-01                          NA           0.85     8       5.7      NA
 5 1954-11-01                          NA           0.83    NA       5.3      NA
 6 1954-12-01                          NA           1.28    NA       5        NA
 7 1955-01-01                          NA           1.39    11.9     4.9      NA
 8 1955-02-01                          NA           1.29    NA       4.7      NA
 9 1955-03-01                          NA           1.35    NA       4.6      NA
10 1955-04-01                          NA           1.43     6.7     4.7      NA
# … with 894 more rows, and abbreviated variable names
#   ¹​`Effective Federal Funds Rate`, ²​`Real GDP (Percent Change)`,
#   ³​`Unemployment Rate`, ⁴​`Inflation Rate`
…
The cases are the dates, which is n = 904 (each row is a date) and there are k=5 types of rates (columns), I expect 904 * 5 = 4,520 rows, and there are!!!

Code

#Pivot longer to a rate column!
Fed_Rate_Tidy <- Fed_Rate_Data_YMD %>%
  pivot_longer(col = c (`Federal Funds Target Rate`, `Effective Federal Funds Rate`, `Real GDP (Percent Change)`, `Unemployment Rate`, `Inflation Rate`),
               names_to = "Rate Type",
               values_to = "Rate in Percentage")
               
#Check number of rows  
Fed_Rate_Tidy

# A tibble: 4,520 × 3
   Date_YMD   `Rate Type`                  `Rate in Percentage`
   <date>     <chr>                                       <dbl>
 1 1954-07-01 Federal Funds Target Rate                   NA   
 2 1954-07-01 Effective Federal Funds Rate                 0.8 
 3 1954-07-01 Real GDP (Percent Change)                    4.6 
 4 1954-07-01 Unemployment Rate                            5.8 
 5 1954-07-01 Inflation Rate                              NA   
 6 1954-08-01 Federal Funds Target Rate                   NA   
 7 1954-08-01 Effective Federal Funds Rate                 1.22
 8 1954-08-01 Real GDP (Percent Change)                   NA   
 9 1954-08-01 Unemployment Rate                            6   
10 1954-08-01 Inflation Rate                              NA   
# … with 4,510 more rows
…
