DACSS 601: Data Science Fundamentals - FALL 2022 – challenge8_juliancastoro
…
MarineCorps_MaritalStatus%>%
  group_by(`payGrade`)%>%
  summarise(tot = n_distinct(`Marital Status`))

# A tibble: 24 × 2
   payGrade   tot
   <chr>    <int>
 1 E-1          4
 2 E-2          4
 3 E-3          4
 4 E-4          4
 5 E-5          4
 6 E-6          4
 7 E-7          4
 8 E-8          4
 9 E-9          4
10 O-1          4
# … with 14 more rows

Navy_MaritalStatus%>%
  group_by(`payGrade`)%>%
  summarise(tot = n_distinct(`Marital Status`))

# A tibble: 23 × 2
   payGrade   tot
   <chr>    <int>
 1 E-1          4
 2 E-2          4
 3 E-3          4
 4 E-4          4
 5 E-5          4
 6 E-6          4
 7 E-7          4
 8 E-8          4
 9 E-9          4
10 O-1          4
# … with 13 more rows

Army_MaritalStatus%>%
  group_by(`payGrade`)%>%
  summarise(tot = n_distinct(`Marital Status`))

# A tibble: 24 × 2
   payGrade   tot
   <chr>    <int>
 1 E-1          4
 2 E-2          4
 3 E-3          4
 4 E-4          4
 5 E-5          4
 6 E-6          4
 7 E-7          4
 8 E-8          4
 9 E-9          4
10 O-1          4
# … with 14 more rows
…
finalTable<-full_join(finalTable,Navy_MaritalStatus,by=c("payGrade"="payGrade","Sex"="Sex","Marital Status"="Marital Status"))

finalTable<-full_join(finalTable,Army_MaritalStatus,by=c("payGrade"="payGrade","Sex"="Sex","Marital Status"="Marital Status"))

finalTable%>%
  distinct((payGrade))%>%
  nrow()

[1] 24

finalTable%>%
  group_by(`payGrade`)%>%
  summarise(tot = n_distinct(`Marital Status`))

# A tibble: 24 × 2
   payGrade   tot
   <chr>    <int>
 1 E-1          4
 2 E-2          4
 3 E-3          4
 4 E-4          4
 5 E-5          4
 6 E-6          4
 7 E-7          4
 8 E-8          4
 9 E-9          4
10 O-1          4
# … with 14 more rows
…
