DACSS 601: Data Science Fundamentals - FALL 2022 - Challenge 6 Instructions
…
#imdb_rating <- read_csv()

# colnames(imdb_rating)[1] <- "titleId"
# imdb_rating

Then I joined bechdel_df and imdb_rating using titleId and named the new dataset as bechdel_imdb Again, you can see the below code to see how I joined two datasets.

# bechdel_imdb <- left_join(bechdel_df, imdb_rating, by="titleId" )
# 
# write.csv(bechdel_imdb, "~/DACSS/601/601_Fall_2022/posts/_data/bechdel_imdb.csv")
bechdel_imdb <- read_csv("~/DACSS/601/601_Fall_2022/posts/_data/bechdel_imdb.csv")
bechdel_imdb

# A tibble: 9,802 × 9
    ...1 title                 rating  year    id imdbid titleId avera…¹ numVo…²
   <dbl> <chr>                  <dbl> <dbl> <dbl> <chr>  <chr>     <dbl>   <dbl>
 1     1 inazuma eleven: the …      3  1010 10556 17947… tt1794…     6.8     284
 2     2 Passage de Venus           0  1874  9602 31557… tt3155…     6.9    1729
 3     3 La Rosace Magique          0  1877  9804 14495… tt1449…     6       150
 4     4 Sallie Gardner at a …      0  1878  9603 22214… tt2221…     7.4    3101
 5     5 Le singe musicien          0  1878  9806 12592… tt1259…     6.2     258
 6     6 Athlete Swinging a P…      0  1881  9816 78164… tt7816…     5.2     466
 7     7 Buffalo Running            0  1883  9831 54597… tt5459…     6.3    1029
 8     8 L&#39;homme machine        0  1885  9832 85883… tt8588…     5.3     398
 9     9 Man Walking Around t…      0  1887  9614 20752… tt2075…     5.2    1411
10    10 Cockatoo Flying            0  1887  9836 81331… tt8133…     5.3     207
# … with 9,792 more rows, and abbreviated variable names ¹​averageRating,
#   ²​numVotes
…
Also the column “…1” is not necessary because this colums only shows the row number, thus I removed the column “…1” as well.

bechdel_imdb <- bechdel_imdb %>% select(-c(id, imdbid, ...1))
colnames(bechdel_imdb)

[1] "title"         "rating"        "year"          "titleId"      
[5] "averageRating" "numVotes"     

Also I changed the name of columns to make them easier to understand.

colnames(bechdel_imdb) <- c("title", "rating", "year", "titleId", "averageRating", "numVotes")
bechdel_imdb

# A tibble: 9,802 × 6
   title                         rating  year titleId    averageRating numVotes
   <chr>                          <dbl> <dbl> <chr>              <dbl>    <dbl>
 1 inazuma eleven: the movie          3  1010 tt1794796            6.8      284
 2 Passage de Venus                   0  1874 tt3155794            6.9     1729
 3 La Rosace Magique                  0  1877 tt14495706           6        150
 4 Sallie Gardner at a Gallop         0  1878 tt2221420            7.4     3101
 5 Le singe musicien                  0  1878 tt12592084           6.2      258
 6 Athlete Swinging a Pick            0  1881 tt7816420            5.2      466
 7 Buffalo Running                    0  1883 tt5459794            6.3     1029
 8 L&#39;homme machine                0  1885 tt8588366            5.3      398
 9 Man Walking Around the Corner      0  1887 tt2075247            5.2     1411
10 Cockatoo Flying                    0  1887 tt8133192            5.3      207
# … with 9,792 more rows
…
