DACSS 601: Data Science Fundamentals - FALL 2022 - Challenge 8 Guanhua Tan
…
  select(CNT, STRATUM, OECD, SC155Q01HA,SC155Q02HA, SC155Q03HA, SC155Q04HA, SC155Q05HA,
         SC155Q06HA, SC155Q07HA, SC155Q08HA, SC155Q09HA, SC155Q10HA, SC155Q11HA)
pisa2018_joint$Accessiblity=rowMeans(pisa2018_joint[,c("SC155Q01HA","SC155Q02HA", "SC155Q03HA","SC155Q04HA")])
pisa2018_joint$Human_Resource_Support=rowMeans(pisa2018_joint[,c("SC155Q05HA","SC155Q06HA", "SC155Q07HA","SC155Q08HA","SC155Q09HA", "SC155Q10HA", "SC155Q11HA")])
pisa2018_joint_clean <-pisa2018_joint %>%
  select(CNT, STRATUM, OECD, Accessiblity, Human_Resource_Support) %>%
  group_by(CNT) %>%
  mutate(Accessiblity_Country_Ave=mean(Accessiblity, na.rm=T)) %>%
  mutate(Human_Resource_ave=mean(Human_Resource_Support, na.rm=T)) %>%
  select(CNT,OECD, Accessiblity_Country_Ave, Human_Resource_ave) %>%
  distinct() %>%
  arrange(desc(Accessiblity_Country_Ave))
pisa2018_joint_clean

# A tibble: 80 × 4
# Groups:   CNT [80]
   CNT    OECD Accessiblity_Country_Ave Human_Resource_ave
   <chr> <dbl>                    <dbl>              <dbl>
 1 SGP       0                     3.43               3.11
 2 SWE       1                     3.36               3.06
 3 QCI       0                     3.35               3.23
 4 QAT       0                     3.27               3.16
 5 DNK       1                     3.16               2.97
 6 USA       1                     3.16               2.87
 7 LTU       1                     3.15               3.04
 8 ARE       0                     3.15               3.11
 9 TAP       0                     3.14               2.98
10 SVN       1                     3.12               2.96
# … with 70 more rows
…
