DACSS 601: Data Science Fundamentals - FALL 2022 - Challenge 2
…
14   Flag Description   1. Aggregate, may include of      6488 (20.9%)           IIII                   30977      0        
     [character]        2. Data not available             1002 ( 3.2%)                                  (100.0%)   (0.0%)   
                        3. FAO data based on imputat      1213 ( 3.9%)                                                      
                        4. FAO estimate                  10007 (32.3%)           IIIIII                                     
                        5. Official data                 10773 (34.8%)           IIIIII                                     
                        6. Unofficial figure              1494 ( 4.8%)                                                      
----------------------------------------------------------------------------------------------------------------------------

Code

view(dfSummary(birds))
arrange(birds, desc(Value))

# A tibble: 30,977 × 14
   Domain Cod…¹ Domain Area …² Area  Eleme…³ Element Item …⁴ Item  Year …⁵  Year
   <chr>        <chr>    <dbl> <chr>   <dbl> <chr>     <dbl> <chr>   <dbl> <dbl>
 1 QA           Live …    5000 World    5112 Stocks     1057 Chic…    2018  2018
 2 QA           Live …    5000 World    5112 Stocks     1057 Chic…    2017  2017
 3 QA           Live …    5000 World    5112 Stocks     1057 Chic…    2016  2016
 4 QA           Live …    5000 World    5112 Stocks     1057 Chic…    2015  2015
 5 QA           Live …    5000 World    5112 Stocks     1057 Chic…    2014  2014
 6 QA           Live …    5000 World    5112 Stocks     1057 Chic…    2013  2013
 7 QA           Live …    5000 World    5112 Stocks     1057 Chic…    2012  2012
 8 QA           Live …    5000 World    5112 Stocks     1057 Chic…    2010  2010
 9 QA           Live …    5000 World    5112 Stocks     1057 Chic…    2011  2011
10 QA           Live …    5000 World    5112 Stocks     1057 Chic…    2009  2009
# … with 30,967 more rows, 4 more variables: Unit <chr>, Value <dbl>,
#   Flag <chr>, `Flag Description` <chr>, and abbreviated variable names
#   ¹​`Domain Code`, ²​`Area Code`, ³​`Element Code`, ⁴​`Item Code`, ⁵​`Year Code`
…
Data set gives information about number of stocks of 5 types of birds (Chickens; Ducks; Geese and guinea fowls; Pigeons, other birds; Turkeys). We have information about their existence and the quantity in different geographic areas (countries, continents, world) from 1961 to 2018. The data set contains 30977 rows, so we have 30977 cases. Each case contains the name of an animal (‘Item’), geographic region (‘Area’) and year (‘Year’). Columns ‘Unit’ and ‘Value’ give information about the number of certain type of birds. ‘Unit’ is 1000 heads and ‘Value’ contains numbers from 0 (min) to 23707134 (max, refers to world). We also observe columns ‘Flag’ and ‘Flag. Description’ which probably refer to data source or the way data was gathered.

Code

birds<-birds%>%
  filter(Flag == c("M", "Im", "F","*", "(Empty string)"))%>%
  filter(Item == 'Chickens')

birds%>%
  group_by(Year)%>%
  select("Value")%>%
  summarise(Median = median (Value, na.rm = TRUE), Mean = mean (Value, na.rm = TRUE), SD = sd (Value, na.rm = TRUE), Min = min (Value, na.rm = TRUE), Max = max (Value, na.rm = TRUE))

# A tibble: 58 × 6
    Year Median   Mean      SD   Min    Max
   <dbl>  <dbl>  <dbl>   <dbl> <dbl>  <dbl>
 1  1961   2000 31861. 120751.     2 530000
 2  1962   1525 13065.  32937.    35 170000
 3  1963   2650 39482. 161735.    10 780000
 4  1964   2500  8315.  22758.    42 106500
 5  1965   1095  3110    4125.     2  12000
 6  1966   2600 41534. 130255.     3 587000
 7  1967    970  8777.  26745.    27 138000
 8  1968   4100  7884.  10644.    10  44500
 9  1969   4250 58425. 208698.    75 912700
10  1970    575  3367.   5163.     2  16700
# … with 48 more rows

Code

birds%>%
  group_by(Year)%>%
  select("Value")%>%
  summarise(Quantile = quantile (Value, na.rm = TRUE))

# A tibble: 290 × 2
# Groups:   Year [58]
    Year Quantile
   <dbl>    <dbl>
 1  1961       2 
 2  1961     182.
 3  1961    2000 
 4  1961    6400 
 5  1961  530000 
 6  1962      35 
 7  1962     165 
 8  1962    1525 
 9  1962    5150 
10  1962  170000 
# … with 280 more rows

Code

birds%>%
  group_by(Area)%>%
  summarise(Median = median(Value, na.rm = TRUE), Mean = mean(Value, na.rm = TRUE), SD = sd (Value, na.rm = TRUE), Min = min (Value, na.rm = TRUE), Max = max (Value, na.rm = TRUE))

# A tibble: 181 × 6
   Area                Median    Mean      SD   Min    Max
   <chr>                <dbl>   <dbl>   <dbl> <dbl>  <dbl>
 1 Afghanistan           6300  6180     719.   5000   6800
 2 Albania               2800  2800      NA    2800   2800
 3 Algeria             101500 90265.  45927.   9100 135018
 4 American Samoa          39    42.8    15.9    25     80
 5 Angola                5700  5471.   1155.   3600   6940
 6 Antigua and Barbuda     90    92.8    34.6    50    150
 7 Argentina            82500 79125   21006.  38000 105000
 8 Armenia               3835  3835      49.5  3800   3870
 9 Aruba                   NA   NaN      NA     Inf   -Inf
10 Australia            21145 21145    1209.  20290  22000
# … with 171 more rows

Code

birds%>%
  group_by(Area)%>%
  select("Value")%>%
  summarise(Quantile = quantile (Value, na.rm = TRUE))

# A tibble: 905 × 2
# Groups:   Area [181]
   Area        Quantile
   <chr>          <dbl>
 1 Afghanistan     5000
 2 Afghanistan     6100
 3 Afghanistan     6300
 4 Afghanistan     6700
 5 Afghanistan     6800
 6 Albania         2800
 7 Albania         2800
 8 Albania         2800
 9 Albania         2800
10 Albania         2800
# … with 895 more rows
…
