DACSS 601: Data Science Fundamentals - FALL 2022 - Challenge 2
…
Read in the Data

I selected thebirds.csv for this Challenge set to push myself.

Code

#Making sure I have the right library open
library(tidyverse)
#Reading in my selected data set and remove codes, element, and domain columns
Birds <- read_csv("_data/birds.csv") %>%
  select(-c(contains("Code"), Element, Domain, Flag))

Birds

# A tibble: 30,977 × 6
   Area        Item      Year Unit      Value `Flag Description`
   <chr>       <chr>    <dbl> <chr>     <dbl> <chr>             
 1 Afghanistan Chickens  1961 1000 Head  4700 FAO estimate      
 2 Afghanistan Chickens  1962 1000 Head  4900 FAO estimate      
 3 Afghanistan Chickens  1963 1000 Head  5000 FAO estimate      
 4 Afghanistan Chickens  1964 1000 Head  5300 FAO estimate      
 5 Afghanistan Chickens  1965 1000 Head  5500 FAO estimate      
 6 Afghanistan Chickens  1966 1000 Head  5800 FAO estimate      
 7 Afghanistan Chickens  1967 1000 Head  6600 FAO estimate      
 8 Afghanistan Chickens  1968 1000 Head  6290 Official data     
 9 Afghanistan Chickens  1969 1000 Head  6300 FAO estimate      
10 Afghanistan Chickens  1970 1000 Head  6000 FAO estimate      
# … with 30,967 more rows

Code

#Replace value and unit columns with Number_of_Birds columns, creating Birds_Clean data set
Birds_Clean = transmute(Birds,
  Area = Area,
  Item = Item,
  Year = Year,
  Number_of_Birds = Value*1000,
  `Flag Description` = `Flag Description`
)  

Birds_Clean

# A tibble: 30,977 × 5
   Area        Item      Year Number_of_Birds `Flag Description`
   <chr>       <chr>    <dbl>           <dbl> <chr>             
 1 Afghanistan Chickens  1961         4700000 FAO estimate      
 2 Afghanistan Chickens  1962         4900000 FAO estimate      
 3 Afghanistan Chickens  1963         5000000 FAO estimate      
 4 Afghanistan Chickens  1964         5300000 FAO estimate      
 5 Afghanistan Chickens  1965         5500000 FAO estimate      
 6 Afghanistan Chickens  1966         5800000 FAO estimate      
 7 Afghanistan Chickens  1967         6600000 FAO estimate      
 8 Afghanistan Chickens  1968         6290000 Official data     
 9 Afghanistan Chickens  1969         6300000 FAO estimate      
10 Afghanistan Chickens  1970         6000000 FAO estimate      
# … with 30,967 more rows
…
Code

#Highest number of birds
Birds_Clean%>%
  arrange(desc(Number_of_Birds)) %>%
  select(Area, Item, Number_of_Birds, Year, `Flag Description`) %>%
  slice(1:100)

# A tibble: 100 × 5
   Area  Item     Number_of_Birds  Year `Flag Description`                      
   <chr> <chr>              <dbl> <dbl> <chr>                                   
 1 World Chickens     23707134000  2018 Aggregate, may include official, semi-o…
 2 World Chickens     23212565000  2017 Aggregate, may include official, semi-o…
 3 World Chickens     22826754000  2016 Aggregate, may include official, semi-o…
 4 World Chickens     21678753000  2015 Aggregate, may include official, semi-o…
 5 World Chickens     21118803000  2014 Aggregate, may include official, semi-o…
 6 World Chickens     20953583000  2013 Aggregate, may include official, semi-o…
 7 World Chickens     20489756000  2012 Aggregate, may include official, semi-o…
 8 World Chickens     20244638000  2010 Aggregate, may include official, semi-o…
 9 World Chickens     19950281000  2011 Aggregate, may include official, semi-o…
10 World Chickens     19720796000  2009 Aggregate, may include official, semi-o…
# … with 90 more rows

Code

#Fewest number of birds
Birds_Clean %>%
  arrange(Number_of_Birds)%>%
  select(Area, Item, Number_of_Birds, Year, `Flag Description`) %>%
  slice(1:100)

# A tibble: 100 × 5
   Area                 Item                   Number_of_Birds  Year Flag Desc…¹
   <chr>                <chr>                            <dbl> <dbl> <chr>      
 1 Aruba                Chickens                             0  1991 Official d…
 2 Aruba                Chickens                             0  1992 Official d…
 3 Bermuda              Ducks                                0  1976 Official d…
 4 Bermuda              Ducks                                0  1977 FAO estima…
 5 Bermuda              Ducks                                0  1978 FAO estima…
 6 Bermuda              Ducks                                0  1979 FAO estima…
 7 Bermuda              Ducks                                0  1980 Official d…
 8 Bermuda              Ducks                                0  1981 FAO estima…
 9 Bermuda              Ducks                                0  1982 FAO estima…
10 China, Hong Kong SAR Geese and guinea fowls               0  1993 Official d…
# … with 90 more rows, and abbreviated variable name ¹​`Flag Description`
…
Area and Total Number of Birds

After reading in, previewing, and describing the Birds_Clean data set, I decided it would be interesting to look at the relationship between Area and Number of Birds. When looking at tables of the largest and smallest bird-stocks, area seemed to significantly factor into size of bird stocks, so decided to look more closely at this.

Code

#Using group_by(), select(), summarize(), and arrange() to generate a table of Area of mean and median total number of birds descending by the median value
Birds_Clean %>%
  group_by(Area)%>%
  select(Area, Number_of_Birds) %>%
  summarise( mean_birds= mean(Number_of_Birds, na.rm=TRUE), median_birds = median(Number_of_Birds, na.rm = TRUE)) %>%
  arrange(desc(median_birds))

# A tibble: 248 × 3
   Area                      mean_birds median_birds
   <chr>                          <dbl>        <dbl>
 1 World                    2565908193.    328049000
 2 China, mainland           981424759.    320500000
 3 USSR                      413426790.    247250000
 4 United States of America  536970356.    240219000
 5 Nigeria                   104694569.    116370000
 6 Asia                     1246442041.    103030000
 7 Eastern Asia              679408245.     96090000
 8 India                     177719707.     68307500
 9 Americas                  856355944.     66923500
10 Indonesia                 368163560.     60005500
# … with 238 more rows
…
Descending, the 10 lowest median values by area were Liechtenstein, Papua New Guinea, Saint Helena, Ascension and Tristan da Cunha, Jordan, Cayman Islands, Saint Pierre and Miquelon, Nauru, Tokelau, Falkland Islands (Malvinas), and Aruba. It follows earlier patterns observed from the lowest 50 values that islands comprised the majority of area with low values, as the climate of small islands is likely not conducive for poultry-stock. Liechtenstein and Jordan do not follow this pattern, as a small German town and a West-African country, and it would be interesting to learn why they are on this list. These ten areas with the lowest median values ranged from 0-12,000 birds which means these areas likely need to rely heavily on poultry imports or other protein sources.

Code

#Using group_by(), select(), summarize(), and arrange() to generate a table of Area of min, max, sd, IQR, and range of number of birds,  descending by range/

Birds_Clean %>%
  group_by(Area)%>%
  select(Area, Number_of_Birds)%>%
  summarise(min_birds = min(Number_of_Birds, na.rm = TRUE), max_birds = max(Number_of_Birds, na.rm =TRUE), range_birds = max_birds-min_birds, sd_birds= sd(Number_of_Birds, na.rm=TRUE), IQR_birds = IQR(Number_of_Birds, na.rm = TRUE)) %>%
   arrange(desc(range_birds))

# A tibble: 248 × 6
   Area               min_birds   max_birds range_birds    sd_birds IQR_birds
   <chr>                  <dbl>       <dbl>       <dbl>       <dbl>     <dbl>
 1 World               12068000 23707134000 23695066000 5297664399. 985833500
 2 Asia                 3408000 13630958000 13627550000 2776107770. 926803250
 3 Eastern Asia           93000  5884748000  5884655000 1372882881. 665932250
 4 Americas              553000  5796289000  5795736000 1539315549. 545152000
 5 China, mainland     15000000  5274475000  5259475000 1436610595. 599500000
 6 South-eastern Asia     42000  3862039000  3861997000  680622395. 157789500
 7 Southern Asia         350000  2786706000  2786356000  565733859. 103088000
 8 South America         199000  2611687000  2611488000  615392924. 112260000
 9 Europe               2417000  2486932000  2484515000  777666805.  97111000
10 Indonesia            5300000  2384147000  2378847000  579077970. 488042250
# … with 238 more rows
…
Year and Total Number of Birds

Using the piping, group_by(), and summarise() functions, I created a table of the mean and median of the total number of birds grouped by year. I sorted the table descending by mean number of birds to get average data for each year.

Code

#Create table of number of birds by year

Birds_Clean %>%
  group_by(Year)%>%
  summarise(avg_birds = mean(Number_of_Birds, na.rm = TRUE), med_birds = median(Number_of_Birds, na.rm = TRUE))%>%
   arrange(desc(avg_birds))

# A tibble: 58 × 3
    Year  avg_birds med_birds
   <dbl>      <dbl>     <dbl>
 1  2018 182869178.   2830500
 2  2017 179185690.   2764000
 3  2016 176522797.   2798000
 4  2015 168025068.   2734500
 5  2014 163800537.   2687500
 6  2013 162940899.   2574000
 7  2012 159889568.   2352000
 8  2010 158516613.   2200000
 9  2011 155450242.   2367000
10  2009 154204552.   2207000
# … with 48 more rows
…
