DACSS 601: Data Science Fundamentals - FALL 2022 - Challenge 8 Solutions
…
knitr::opts_chunk$set(echo = TRUE, warning=FALSE, message=FALSE)

Read in data:

I will be using the ‘birds’ data set and the ‘FAOstat Regions’ data set.

*Please note that I added ‘print(head())’ to each data frame to shorten the output, but the codes are not rendering.*

# read in data sets:

birds <- read_csv("_data/birds.csv")
  select(birds, -contains("Code"))

# A tibble: 30,977 × 9
   Domain       Area        Element Item      Year Unit      Value Flag  Flag …¹
   <chr>        <chr>       <chr>   <chr>    <dbl> <chr>     <dbl> <chr> <chr>  
 1 Live Animals Afghanistan Stocks  Chickens  1961 1000 Head  4700 F     FAO es…
 2 Live Animals Afghanistan Stocks  Chickens  1962 1000 Head  4900 F     FAO es…
 3 Live Animals Afghanistan Stocks  Chickens  1963 1000 Head  5000 F     FAO es…
 4 Live Animals Afghanistan Stocks  Chickens  1964 1000 Head  5300 F     FAO es…
 5 Live Animals Afghanistan Stocks  Chickens  1965 1000 Head  5500 F     FAO es…
 6 Live Animals Afghanistan Stocks  Chickens  1966 1000 Head  5800 F     FAO es…
 7 Live Animals Afghanistan Stocks  Chickens  1967 1000 Head  6600 F     FAO es…
 8 Live Animals Afghanistan Stocks  Chickens  1968 1000 Head  6290 <NA>  Offici…
 9 Live Animals Afghanistan Stocks  Chickens  1969 1000 Head  6300 F     FAO es…
10 Live Animals Afghanistan Stocks  Chickens  1970 1000 Head  6000 F     FAO es…
# … with 30,967 more rows, and abbreviated variable name ¹​`Flag Description`
…
# test:

FAO_region_country%>%
  filter(country_group == "Africa")

# A tibble: 63 × 2
   country_group Country                 
   <chr>         <chr>                   
 1 Africa        Algeria                 
 2 Africa        Angola                  
 3 Africa        Benin                   
 4 Africa        Botswana                
 5 Africa        Burkina Faso            
 6 Africa        Burundi                 
 7 Africa        Cabo Verde              
 8 Africa        Cameroon                
 9 Africa        Central African Republic
10 Africa        Chad                    
# … with 53 more rows
…
# remove "World" group

FAO_region_cln <- FAO_region_country%>%
  filter(country_group!="World")

# create kable:

FAO_region_cln%>%
  group_by(country_group)%>%
  summarize(n=n())%>%
  arrange(desc(n))

# A tibble: 57 × 2
   country_group                               n
   <chr>                                   <int>
 1 Non-Annex I countries                     161
 2 Net Food Importing Developing Countries    81
 3 Annex I countries                          78
 4 High-income economies                      64
 5 Africa                                     63
 6 Europe                                     63
 7 Americas                                   61
 8 Small Island Developing States             58
 9 Upper-middle-income economies              56
10 Low Income Food Deficit Countries          55
# … with 47 more rows
…
