DACSS 601: Data Science Fundamentals - FALL 2022 - Challenge 4 Kristin Abijaoude
…
library(tidyverse)
library(dplyr)
library(summarytools)

knitr::opts_chunk$set(echo = TRUE, warning=FALSE, message=FALSE)

Read in data

Code

fedfunds <- read_csv("_data/FedFundsRate.csv")
fedfunds

# A tibble: 904 × 10
    Year Month   Day Federal F…¹ Feder…² Feder…³ Effec…⁴ Real …⁵ Unemp…⁶ Infla…⁷
   <dbl> <dbl> <dbl>       <dbl>   <dbl>   <dbl>   <dbl>   <dbl>   <dbl>   <dbl>
 1  1954     7     1          NA      NA      NA    0.8      4.6     5.8      NA
 2  1954     8     1          NA      NA      NA    1.22    NA       6        NA
 3  1954     9     1          NA      NA      NA    1.06    NA       6.1      NA
 4  1954    10     1          NA      NA      NA    0.85     8       5.7      NA
 5  1954    11     1          NA      NA      NA    0.83    NA       5.3      NA
 6  1954    12     1          NA      NA      NA    1.28    NA       5        NA
 7  1955     1     1          NA      NA      NA    1.39    11.9     4.9      NA
 8  1955     2     1          NA      NA      NA    1.29    NA       4.7      NA
 9  1955     3     1          NA      NA      NA    1.35    NA       4.6      NA
10  1955     4     1          NA      NA      NA    1.43     6.7     4.7      NA
# … with 894 more rows, and abbreviated variable names
#   ¹​`Federal Funds Target Rate`, ²​`Federal Funds Upper Target`,
#   ³​`Federal Funds Lower Target`, ⁴​`Effective Federal Funds Rate`,
#   ⁵​`Real GDP (Percent Change)`, ⁶​`Unemployment Rate`, ⁷​`Inflation Rate`
…
Generated by summarytools 1.0.1 (R version 4.2.1)
2022-12-20

Tidy Data (as needed)

Create the date variable with ‘unite()’ command

Code

#unite year, month, and day column to create a single column for date
fedfunds <- unite(fedfunds, `Year`, `Month`, `Day`, col = "Date YYYY/MM/DD", sep = "/")
fedfunds

# A tibble: 904 × 8
   `Date YYYY/MM/DD` Federal F…¹ Feder…² Feder…³ Effec…⁴ Real …⁵ Unemp…⁶ Infla…⁷
   <chr>                   <dbl>   <dbl>   <dbl>   <dbl>   <dbl>   <dbl>   <dbl>
 1 1954/7/1                   NA      NA      NA    0.8      4.6     5.8      NA
 2 1954/8/1                   NA      NA      NA    1.22    NA       6        NA
 3 1954/9/1                   NA      NA      NA    1.06    NA       6.1      NA
 4 1954/10/1                  NA      NA      NA    0.85     8       5.7      NA
 5 1954/11/1                  NA      NA      NA    0.83    NA       5.3      NA
 6 1954/12/1                  NA      NA      NA    1.28    NA       5        NA
 7 1955/1/1                   NA      NA      NA    1.39    11.9     4.9      NA
 8 1955/2/1                   NA      NA      NA    1.29    NA       4.7      NA
 9 1955/3/1                   NA      NA      NA    1.35    NA       4.6      NA
10 1955/4/1                   NA      NA      NA    1.43     6.7     4.7      NA
# … with 894 more rows, and abbreviated variable names
#   ¹​`Federal Funds Target Rate`, ²​`Federal Funds Upper Target`,
#   ³​`Federal Funds Lower Target`, ⁴​`Effective Federal Funds Rate`,
#   ⁵​`Real GDP (Percent Change)`, ⁶​`Unemployment Rate`, ⁷​`Inflation Rate`
…
[1] 3.73338

Code

#3.73338 %

#replae NAs in inflation with mean
fedfunds$`Inflation Rate`[is.na(fedfunds$`Inflation Rate`)] <- mean.inflation

#sanity check!
fedfunds

# A tibble: 904 × 8
   `Date YYYY/MM/DD` Federal F…¹ Feder…² Feder…³ Effec…⁴ Real …⁵ Unemp…⁶ Infla…⁷
   <chr>                   <dbl>   <dbl>   <dbl>   <dbl>   <dbl>   <dbl>   <dbl>
 1 1954/7/1                 5.66       1       0    0.8      4.6     5.8    3.73
 2 1954/8/1                 5.66       1       0    1.22     0       6      3.73
 3 1954/9/1                 5.66       1       0    1.06     0       6.1    3.73
 4 1954/10/1                5.66       1       0    0.85     8       5.7    3.73
 5 1954/11/1                5.66       1       0    0.83     0       5.3    3.73
 6 1954/12/1                5.66       1       0    1.28     0       5      3.73
 7 1955/1/1                 5.66       1       0    1.39    11.9     4.9    3.73
 8 1955/2/1                 5.66       1       0    1.29     0       4.7    3.73
 9 1955/3/1                 5.66       1       0    1.35     0       4.6    3.73
10 1955/4/1                 5.66       1       0    1.43     6.7     4.7    3.73
# … with 894 more rows, and abbreviated variable names
#   ¹​`Federal Funds Target Rate`, ²​`Federal Funds Upper Target`,
#   ³​`Federal Funds Lower Target`, ⁴​`Effective Federal Funds Rate`,
#   ⁵​`Real GDP (Percent Change)`, ⁶​`Unemployment Rate`, ⁷​`Inflation Rate`

Code

fedfundrates <-fedfunds %>% pivot_longer(cols=c(`Effective Federal Funds Rate`, `Real GDP (Percent Change)`,`Inflation Rate`, `Unemployment Rate`),
                    names_to='Factor',
                    values_to='Rate in percentage')%>%
  select(-c(`Federal Funds Target Rate`, `Federal Funds Upper Target`, `Federal Funds Lower Target`))

fedfundrates

# A tibble: 3,616 × 3
   `Date YYYY/MM/DD` Factor                       `Rate in percentage`
   <chr>             <chr>                                       <dbl>
 1 1954/7/1          Effective Federal Funds Rate                 0.8 
 2 1954/7/1          Real GDP (Percent Change)                    4.6 
 3 1954/7/1          Inflation Rate                               3.73
 4 1954/7/1          Unemployment Rate                            5.8 
 5 1954/8/1          Effective Federal Funds Rate                 1.22
 6 1954/8/1          Real GDP (Percent Change)                    0   
 7 1954/8/1          Inflation Rate                               3.73
 8 1954/8/1          Unemployment Rate                            6   
 9 1954/9/1          Effective Federal Funds Rate                 1.06
10 1954/9/1          Real GDP (Percent Change)                    0   
# … with 3,606 more rows
…
