DACSS 601: Data Science Fundamentals - FALL 2022 - Challenge 5 - Darron Bunt
…
If I wanted to be able to plot sodium and sugar onto the same bar, I am going to need that information to be in one column instead of two. Accordingly, I’m going to need to pivot the data.

cereal_grams <- cereal_sodium %>%
  pivot_longer(col =c("Sodium", "sugar"),
               names_to="Sodium_Sugar",
               values_to="Amount")
cereal_grams

# A tibble: 40 × 4
   cereal_name         Type  Sodium_Sugar Amount
   <chr>               <chr> <chr>         <dbl>
 1 Frosted Mini Wheats A     Sodium         0   
 2 Frosted Mini Wheats A     sugar         11   
 3 Raisin Bran         A     Sodium         0.34
 4 Raisin Bran         A     sugar         18   
 5 All Bran            A     Sodium         0.07
 6 All Bran            A     sugar          5   
 7 Apple Jacks         C     Sodium         0.14
 8 Apple Jacks         C     sugar         14   
 9 Captain Crunch      C     Sodium         0.2 
10 Captain Crunch      C     sugar         12   
# … with 30 more rows
…
