DACSS 601: Data Science Fundamentals - FALL 2022 - Challenge 6 Instructions
…
Briefly describe the data

The data contains the different federal fund rates starting from 1954-2017. It also contains other growth informants such as GDP percent change, unemployment rate, etc. Each case in this data can be uniquely identified by the Year, Month, Day combination, which I have used to create a new “Date” column.

Tidy Data (as needed)

Is your data already tidy, or is there work to be done? Be sure to anticipate your end result to provide a sanity check, and document your work here.

# Transform the Year, Month, Day columns into a single Date column
data$Date <- as.Date(with(data,paste(Year,Month,Day,sep="-")),"%Y-%m-%d")

data

# A tibble: 904 × 11
    Year Month   Day Federal F…¹ Feder…² Feder…³ Effec…⁴ Real …⁵ Unemp…⁶ Infla…⁷
   <dbl> <dbl> <dbl>       <dbl>   <dbl>   <dbl>   <dbl>   <dbl>   <dbl>   <dbl>
 1  1954     7     1          NA      NA      NA    0.8      4.6     5.8      NA
 2  1954     8     1          NA      NA      NA    1.22    NA       6        NA
 3  1954     9     1          NA      NA      NA    1.06    NA       6.1      NA
 4  1954    10     1          NA      NA      NA    0.85     8       5.7      NA
 5  1954    11     1          NA      NA      NA    0.83    NA       5.3      NA
 6  1954    12     1          NA      NA      NA    1.28    NA       5        NA
 7  1955     1     1          NA      NA      NA    1.39    11.9     4.9      NA
 8  1955     2     1          NA      NA      NA    1.29    NA       4.7      NA
 9  1955     3     1          NA      NA      NA    1.35    NA       4.6      NA
10  1955     4     1          NA      NA      NA    1.43     6.7     4.7      NA
# … with 894 more rows, 1 more variable: Date <date>, and abbreviated variable
#   names ¹​`Federal Funds Target Rate`, ²​`Federal Funds Upper Target`,
#   ³​`Federal Funds Lower Target`, ⁴​`Effective Federal Funds Rate`,
#   ⁵​`Real GDP (Percent Change)`, ⁶​`Unemployment Rate`, ⁷​`Inflation Rate`

Are there any variables that require mutation to be usable in your analysis stream? For example, do you need to calculate new values in order to graph them? Can string values be represented numerically? Do you need to turn any variables into factors and reorder for ease of graphics and visualization?

Document your work here.

Time Dependent Visualization

# Select the columns for whom time-dependent visualization will be constructed
select(data, c('Date','Effective Federal Funds Rate'))

# A tibble: 904 × 2
   Date       `Effective Federal Funds Rate`
   <date>                              <dbl>
 1 1954-07-01                           0.8 
 2 1954-08-01                           1.22
 3 1954-09-01                           1.06
 4 1954-10-01                           0.85
 5 1954-11-01                           0.83
 6 1954-12-01                           1.28
 7 1955-01-01                           1.39
 8 1955-02-01                           1.29
 9 1955-03-01                           1.35
10 1955-04-01                           1.43
# … with 894 more rows
…
