DACSS 601: Data Science Fundamentals - FALL 2022 - Challenge 2
…
Grouped Summary Statistics

Below we can see two tables, one showing the mean number of each kind of bird in each area. The second sorts these numbers in order to show that the largest count of birds in any one country is Chickens with 1.5 Million in total.

Code

bird_type <- data %>%
  group_by(`Area`,`Item`) %>%
  replace_na(list(`Value` = 0))%>%
  summarise(mean(`Value`))

bird_type

# A tibble: 601 × 3
# Groups:   Area [248]
   Area        Item                   `mean(Value)`
   <chr>       <chr>                          <dbl>
 1 Afghanistan Chickens                       8099.
 2 Africa      Chickens                     936779.
 3 Africa      Ducks                         13639.
 4 Africa      Geese and guinea fowls        12164.
 5 Africa      Pigeons, other birds          11222.
 6 Africa      Turkeys                        9004.
 7 Albania     Chickens                       4055.
 8 Albania     Ducks                           173.
 9 Albania     Geese and guinea fowls          123 
10 Albania     Turkeys                         323.
# … with 591 more rows

Code

bird_type %>%
  arrange(desc(`mean(Value)`))

# A tibble: 601 × 3
# Groups:   Area [248]
   Area                     Item     `mean(Value)`
   <chr>                    <chr>            <dbl>
 1 World                    Chickens     11624407.
 2 Asia                     Chickens      5498104.
 3 Americas                 Chickens      3163543.
 4 Eastern Asia             Chickens      2843125.
 5 China, mainland          Chickens      2417047.
 6 Europe                   Chickens      1945862.
 7 Northern America         Chickens      1518820.
 8 United States of America Chickens      1398810.
 9 South-eastern Asia       Chickens      1261959.
10 South America            Chickens      1150118.
# … with 591 more rows
…
