DACSS 601: Data Science Fundamentals - FALL 2022 - Emma Narkewicz Final Project
…
Below is the Perkins V CTE data set after read in:

Code

CTE_DF

# A tibble: 520 × 8
   State  Year      Education_Level Demographics     Total…¹ Healt…² IT    STEM 
   <chr>  <chr>     <chr>           <chr>            <chr>   <chr>   <chr> <chr>
 1 Alaska 2020-2021 Secondary       Grand Total      8249    1956    1528  1406 
 2 Alaska 2020-2021 Secondary       Female           3400    1074    627   590  
 3 Alaska 2020-2021 Secondary       American Indian… 1366    334     150   172  
 4 Alaska 2020-2021 Secondary       Asian            495     73      105   54   
 5 Alaska 2020-2021 Secondary       Black or Africa… 164     38      27    18   
 6 Alaska 2020-2021 Secondary       Hispanic/Latino  590     118     116   89   
 7 Alaska 2020-2021 Secondary       Native Hawaiian… 205     18      22    14   
 8 Alaska 2020-2021 Secondary       White            4421    1153    931   880  
 9 Alaska 2020-2021 Secondary       Two or More Rac… 1008    222     177   179  
10 Alaska 2020-2021 Secondary       Individuals Wit… 989     233     201   175  
# … with 510 more rows, and abbreviated variable names ¹​Total_CTE_Students,
#   ²​Health_Science
…
Tidy_CTE_DF

# A tibble: 208 × 12
   State    Career…¹ Grand…² Female Ameri…³ Asian Black…⁴ Hispa…⁵ Nativ…⁶  White
   <chr>    <chr>      <dbl>  <dbl>   <dbl> <dbl>   <dbl>   <dbl>   <dbl>  <dbl>
 1 Alaska   Total_C…    8249   3400    1366   495     164     590     205   4421
 2 Alaska   Health_…    1956   1074     334    73      38     118      18   1153
 3 Alaska   IT          1528    627     150   105      27     116      22    931
 4 Alaska   STEM        1406    590     172    54      18      89      14    880
 5 Alabama  Total_C…  351521 191867    8864  4556  109087   31279     661 189561
 6 Alabama  Health_…   26687  15305     802   511    7421    2150      63  15043
 7 Alabama  IT          6635   2115      80   272    2000     552      19   3491
 8 Alabama  STEM        4037    824     129   130     745     380      17   2507
 9 Arkansas Total_C…  113868  55174     713  1789   20747   14869     906  71771
10 Arkansas Health_…   23917  15685     146   494    4147    3161     161  15126
# … with 198 more rows, 2 more variables: `Two or More Races` <dbl>,
#   `Individuals With Disabilities (ESEA/IDEA)` <dbl>, and abbreviated variable
#   names ¹​`Career Cluster`, ²​`Grand Total`,
#   ³​`American Indian or Alaskan Native`, ⁴​`Black or African American`,
#   ⁵​`Hispanic/Latino`, ⁶​`Native Hawaiian or Other Pacific Islander`
…
