DACSS 601: Data Science Fundamentals - FALL 2022 - Final Project Erika Nagai
…
colnames(movie)[4] <- "movielens_id"

Cleaning data in JSON nested list format

The values in some certain columns such as “genres”, “production_companies”, “production_countries”,“spoken_languages” are in a JSON list format for example:

” [{‘id’: XXXX, ‘content(name/genre/title)’: XXX}, {‘id’: XXXX, ’content(name/genre/title): XXX}] ”

Code

movie %>% select(c("genres", "production_companies", "production_countries", "spoken_languages"))

# A tibble: 45,466 × 4
   genres                                                produ…¹ produ…² spoke…³
   <chr>                                                 <chr>   <chr>   <chr>  
 1 [{'id': 16, 'name': 'Animation'}, {'id': 35, 'name':… [{'nam… [{'iso… [{'iso…
 2 [{'id': 12, 'name': 'Adventure'}, {'id': 14, 'name':… [{'nam… [{'iso… [{'iso…
 3 [{'id': 10749, 'name': 'Romance'}, {'id': 35, 'name'… [{'nam… [{'iso… [{'iso…
 4 [{'id': 35, 'name': 'Comedy'}, {'id': 18, 'name': 'D… [{'nam… [{'iso… [{'iso…
 5 [{'id': 35, 'name': 'Comedy'}]                        [{'nam… [{'iso… [{'iso…
 6 [{'id': 28, 'name': 'Action'}, {'id': 80, 'name': 'C… [{'nam… [{'iso… [{'iso…
 7 [{'id': 35, 'name': 'Comedy'}, {'id': 10749, 'name':… [{'nam… [{'iso… [{'iso…
 8 [{'id': 28, 'name': 'Action'}, {'id': 12, 'name': 'A… [{'nam… [{'iso… [{'iso…
 9 [{'id': 28, 'name': 'Action'}, {'id': 12, 'name': 'A… [{'nam… [{'iso… [{'iso…
10 [{'id': 12, 'name': 'Adventure'}, {'id': 28, 'name':… [{'nam… [{'iso… [{'iso…
# … with 45,456 more rows, and abbreviated variable names
#   ¹​production_companies, ²​production_countries, ³​spoken_languages
…
# Remove unnecessary symbols from each columns

movie$genre1 <- remove_symbols(movie$genre1)
movie$genre2 <- remove_symbols(movie$genre2)
movie$genre3 <- remove_symbols(movie$genre3)
movie$genre4 <- remove_symbols(movie$genre4)
movie$genre5 <- remove_symbols(movie$genre5)
movie$genre6 <- remove_symbols(movie$genre6)
movie$genre7 <- remove_symbols(movie$genre7)
movie$genre8 <- remove_symbols(movie$genre8)

movie %>% 
  select(matches("[1-9]"))

# A tibble: 45,466 × 8
   genre1       genre2       genre3       genre4     genre5 genre6 genre7 genre8
   <chr>        <chr>        <chr>        <chr>      <chr>  <chr>  <chr>  <chr> 
 1 16Animation  35Comedy     10751Family  <NA>       <NA>   <NA>   <NA>   <NA>  
 2 12Adventure  14Fantasy    10751Family  <NA>       <NA>   <NA>   <NA>   <NA>  
 3 10749Romance 35Comedy     <NA>         <NA>       <NA>   <NA>   <NA>   <NA>  
 4 35Comedy     18Drama      10749Romance <NA>       <NA>   <NA>   <NA>   <NA>  
 5 35Comedy     <NA>         <NA>         <NA>       <NA>   <NA>   <NA>   <NA>  
 6 28Action     80Crime      18Drama      53Thriller <NA>   <NA>   <NA>   <NA>  
 7 35Comedy     10749Romance <NA>         <NA>       <NA>   <NA>   <NA>   <NA>  
 8 28Action     12Adventure  18Drama      10751Fami… <NA>   <NA>   <NA>   <NA>  
 9 28Action     12Adventure  53Thriller   <NA>       <NA>   <NA>   <NA>   <NA>  
10 12Adventure  28Action     53Thriller   <NA>       <NA>   <NA>   <NA>   <NA>  
# … with 45,456 more rows

I managed to separate the genre information above. Now all values in genre 1 - 8 has a value in the format of “number + name of genre” (example: 35Comedy)

However, there are 2,445 observations whose genre value doesn’t fit the above format. Most of them don’t have any genre assigned so their genre1 values are empty or blank, which means they don’t have any genre assigned to them.

Code

movie %>% filter(!str_detect(genre1, "^[0-9]")) %>% select(starts_with("genre"))

# A tibble: 2,445 × 9
   genres genre1 genre2 genre3 genre4 genre5 genre6 genre7 genre8
   <chr>  <chr>  <chr>  <chr>  <chr>  <chr>  <chr>  <chr>  <chr> 
 1 []     ""     <NA>   <NA>   <NA>   <NA>   <NA>   <NA>   <NA>  
 2 []     ""     <NA>   <NA>   <NA>   <NA>   <NA>   <NA>   <NA>  
 3 []     ""     <NA>   <NA>   <NA>   <NA>   <NA>   <NA>   <NA>  
 4 []     ""     <NA>   <NA>   <NA>   <NA>   <NA>   <NA>   <NA>  
 5 []     ""     <NA>   <NA>   <NA>   <NA>   <NA>   <NA>   <NA>  
 6 []     ""     <NA>   <NA>   <NA>   <NA>   <NA>   <NA>   <NA>  
 7 []     ""     <NA>   <NA>   <NA>   <NA>   <NA>   <NA>   <NA>  
 8 []     ""     <NA>   <NA>   <NA>   <NA>   <NA>   <NA>   <NA>  
 9 []     ""     <NA>   <NA>   <NA>   <NA>   <NA>   <NA>   <NA>  
10 []     ""     <NA>   <NA>   <NA>   <NA>   <NA>   <NA>   <NA>  
# … with 2,435 more rows
…
The values in production_countries are written in the following way.

[{‘iso_3166_1’: ‘abbreviation of country’,‘name’: ‘full country name’}]

When there is more than one country in the value, I took the first country in account for this analysis.

Code

movie_clean1$production_countries <- remove_symbols(movie_clean1$production_countries)
movie_clean1$production_countries <- str_extract(movie_clean1$production_countries,"(?<=_1)\\w{2}")

movie_clean1 %>% select(production_countries)

# A tibble: 42,991 × 1
   production_countries
   <chr>               
 1 GB                  
 2 IN                  
 3 US                  
 4 <NA>                
 5 US                  
 6 US                  
 7 FR                  
 8 JP                  
 9 <NA>                
10 US                  
# … with 42,981 more rows
…
Code

movie_clean1$production_companies <-str_remove_all(movie_clean1$production_companies, "'id': [0-9]*|'name':|\\[|\\]|'|\\{|,") %>%
  str_replace_all("\\},", ",") %>%
  str_replace_all(" \\} ", ",")%>%
  str_remove(" \\}")

movie_clean1$spoken_languages <-str_remove_all(movie_clean1$spoken_languages, "'iso_639_1':|'name': '\\w+'|\\[|\\]|'|\\{|,") %>%
  str_replace_all(" \\} ", ",") %>%
  str_remove_all(" \\}")

movie_clean1 %>% select(production_companies, spoken_languages)

# A tibble: 42,991 × 2
   production_companies                                                  spoke…¹
   <chr>                                                                 <chr>  
 1 " Screen Yorkshire, British Film Institute (BFI), Creative Scotland,… " en"  
 2 ""                                                                    " hi"  
 3 " Sebastian Films Limited"                                            " en"  
 4 " Lorimar Pictures"                                                   " en"  
 5 " Lone Star Production, Monogram Pictures"                            " en, …
 6 ""                                                                    " en"  
 7 " Barnholtz Entertainment"                                            " en, …
 8 ""                                                                    " zh"  
 9 ""                                                                    " fr"  
10 " Disney Channel"                                                     " en"  
# … with 42,981 more rows, and abbreviated variable name ¹​spoken_languages
…
