DACSS 601: Data Science Fundamentals - FALL 2022 - Final Project
…
#separate dates into respective date and time column
TwitterUse2 <- separate(FlagshipTwitterUse, Date, into = c("Date", "Time"), sep = " ")
TwitterUse2$Date <- parse_date(TwitterUse2$Date, format = "%m/%d/%Y")
TwitterUse2$Time <- parse_time(TwitterUse2$Time, format = "%H:%M")
#add weekdays column
TwitterUse2$Weekday <- weekdays(TwitterUse2$Date)
#create the version you're going to build from for this project
TW_Enr_Full <- TwitterUse2 %>%
  left_join(TWAuthor2School, by = "Author") %>%
 left_join(EnrollmentData, by = "SchoolName")
TW_Enr_Full$SizeSetting <- str_replace_all(TW_Enr_Full$SizeSetting, c("Four-year, large, primarily residential" ="LargePriRez", "Four-year, large, highly residential" = "LargeHighRez", "Four-year, large, primarily nonresidential" = "LargeNonRez", "Four-year, medium, primarily nonresidential" = "MedNonRez", "Four-year, medium, primarily nonresidential" = "MedPriRez", "Four-year, small, highly residential" = "SmallHighRez", "Four-year, medium, primarily residential" = "MedPriRez"))
TW_Enr_Full %>%
  select(SchoolName, TWFollowers, F20Enrollment, SizeSetting, Date, Time, Weekday, EngType, Impressions, Reach, TWLikes, TWRetweets, TWReply, Sentiment, Tweet) 

# A tibble: 5,658 × 15
   SchoolName   TWFol…¹ F20En…² SizeS…³ Date       Time  Weekday EngType Impre…⁴
   <chr>          <dbl>   <dbl> <chr>   <date>     <tim> <chr>   <chr>     <dbl>
 1 The Univers…  189187   37840 LargeP… 2022-11-30 23:55 Wednes… OG       189187
 2 University …   33885   18025 LargeP… 2022-11-30 23:50 Wednes… RETWEET   33885
 3 University …   90003   37437 LargeP… 2022-11-30 23:47 Wednes… RETWEET   90003
 4 University …  143148   30092 LargeH… 2022-11-30 23:30 Wednes… RETWEET  143148
 5 University …   31394   20722 LargeN… 2022-11-30 23:30 Wednes… OG        33378
 6 University …   33887   18025 LargeP… 2022-11-30 23:24 Wednes… OG        33887
 7 University …  168145   31115 LargeN… 2022-11-30 23:10 Wednes… OG       233177
 8 University …   72683    8899 MedNon… 2022-11-30 23:03 Wednes… RETWEET   72683
 9 University …   72683    8899 MedNon… 2022-11-30 23:02 Wednes… REPLY     72683
10 University …  126437   33081 LargeP… 2022-11-30 23:00 Wednes… RETWEET  126437
# … with 5,648 more rows, 6 more variables: Reach <dbl>, TWLikes <dbl>,
#   TWRetweets <dbl>, TWReply <dbl>, Sentiment <chr>, Tweet <chr>, and
#   abbreviated variable names ¹​TWFollowers, ²​F20Enrollment, ³​SizeSetting,
#   ⁴​Impressions
…
As a primarily qualitative researcher who performs a lot of content analysis, I’m particularly interested in diving deeper into what is being shared in each of the college’s tweets; I’m very interested in exploring how variables like topics, themes, and word choices impact engagement, and what kinds of similarities and differences exist across institutions of different sizes and regions.

To gain some experience and explore what I might be able to do with textual analysis in R, I started experimenting with some ways in which I might be able to examine tweet text.

Counting the number of characters in each Twitter post

While tweets are (currently) limited to only 280 characters, This could potentially be useful in determining whether post length contributes to or detracts from engagement.

#count the number of characters in each Twitter post
TwitterUse2$TweetCharCount = str_length(TwitterUse2$Tweet)
TwitterUse2 %>%
  select(Author, TweetCharCount, Tweet) 

# A tibble: 5,658 × 3
   Author      TweetCharCount Tweet                                             
   <chr>                <int> <chr>                                             
 1 UofAlabama             302 "Juggling, snakes and cooking - oh my! ICYMI: the…
 2 uhmanoa                218 "RT @ManoaGrad Summer and Fall 2022 candidates - …
 3 CUBoulder              255 "RT @CU_PTS We are thrilled to welcome two new el…
 4 UNC                    221 "RT @ChapelHillFD #CHtraffic Alert: Country Club …
 5 unevadareno            301 "Save the date! @unevadareno will hold the 2022 W…
 6 uhmanoa                289 "$3.4 million to grow Native Hawaiian physicians …
 7 uarizona               176 "University of Arizona researchers are teaming up…
 8 UArkansas              295 "RT @ArkansasPBS LIVESTREAMING: Join @HillaryClin…
 9 UArkansas               51 "@prehistormic Your No. 1 song of the year, we ho…
10 UUtah                  262 "RT @UofUIT If you haven’t already, check out @Ma…
# … with 5,648 more rows

#find average number of characters in each college's posts
TweetAvgCharacters <- TwitterUse2 %>%
  group_by(Author) %>%
  summarize(
    AvgTweetCharCount = mean(TweetCharCount, na.rm = TRUE))
TweetAvgCharacters

# A tibble: 50 × 2
   Author      AvgTweetCharCount
   <chr>                   <dbl>
 1 CUBoulder                230.
 2 IndianaUniv              234.
 3 LSU                      214.
 4 Mizzou                   189.
 5 OhioState                140.
 6 OleMiss                  168.
 7 penn_state               221.
 8 RutgersU                 213.
 9 uafairbanks              219.
10 uarizona                 240.
# … with 40 more rows

Athletics content on the flagship Twitter accounts

The use of athletics content to drive engagement is another topic that I have a particular interest in, and I was curious just how many of November’s 5,638 used seven keywords that would indicate with (near) certainty that the posts were about sports and sporting events.

#number of posts from November that were about athletics
DissectPosts <- TwitterUse2 %>%
  select(Author, TWFollowers, Tweet, EngType, TweetCharCount, Reach, TWLikes, TWRetweets, TWReply)
DissectPostsAthletics <- DissectPosts %>%
  filter(str_detect(Tweet, "FB|(?i)football|basketball|MBB|WBB|athletics|NCAA"))
  DissectPostsAthletics

# A tibble: 764 × 9
   Author        TWFollowers Tweet EngType Tweet…¹ Reach TWLikes TWRet…² TWReply
   <chr>               <dbl> <chr> <chr>     <int> <dbl>   <dbl>   <dbl>   <dbl>
 1 WestVirginiaU      197557 "RT … RETWEET     102 21844       0       0       0
 2 UUtah              126435 "RT … RETWEET     246 17988       0       0       0
 3 UMassAmherst        57996 "Wha… OG          255 13263       5       1       0
 4 Mizzou             137999 "RT … RETWEET     302 18695       0       0       0
 5 UNLincoln           50787 "RT … RETWEET     140 11842       0       0       0
 6 UUtah              126436 "RT … RETWEET     304 17988       0       0       0
 7 RutgersU           141602 "RT … RETWEET     140 18907       0       0       0
 8 uarizona           168142 "RT … RETWEET     275 20377       0       0       0
 9 WestVirginiaU      197557 "We’… OG          106 48002     239      41       9
10 UTAustin           239275 "RT … RETWEET     315 23706       0       0       0
# … with 754 more rows, and abbreviated variable names ¹​TweetCharCount,
#   ²​TWRetweets

#determine how many athletics posts were made by each college
AthleticsPostsByCollege <- DissectPostsAthletics %>%
  group_by(Author) %>%
  summarize(Count=n()) %>%
left_join(post_types_by_college, by = "Author") %>%
select(Author, Count, Total_Posts) %>%
 mutate(AthAvg = Count/Total_Posts*100) %>%
  arrange(desc(AthAvg))
AthleticsPostsByCollege

# A tibble: 42 × 4
   Author         Count Total_Posts AthAvg
   <chr>          <int>       <int>  <dbl>
 1 OhioState         29          69   42.0
 2 UofSC             24          74   32.4
 3 RutgersU          97         337   28.8
 4 UTAustin          41         158   25.9
 5 UUtah             78         311   25.1
 6 UofIllinois       26         108   24.1
 7 UofOklahoma       48         203   23.6
 8 umontana           8          34   23.5
 9 UofAlabama        54         242   22.3
10 universityofga    39         189   20.6
# … with 32 more rows
…
