DACSS 601: Data Science Fundamentals - FALL 2022 - Final Project
…
Rows: 13504 Columns: 17
── Column specification ────────────────────────────────────────────────────────
Delimiter: ","
chr (7): schedule_date, schedule_week, team_home, team_away, team_favorite_i...
dbl (8): schedule_season, score_home, score_away, spread_favorite, over_unde...
lgl (2): schedule_playoff, stadium_neutral

ℹ Use `spec()` to retrieve the full column specification for this data.
ℹ Specify the column types or set `show_col_types = FALSE` to quiet this message.

Code

spreadspoke_scores

# A tibble: 13,504 × 17
   schedule_date sched…¹ sched…² sched…³ team_…⁴ score…⁵ score…⁶ team_…⁷ team_…⁸
   <chr>           <dbl> <chr>   <lgl>   <chr>     <dbl>   <dbl> <chr>   <chr>  
 1 9/2/1966         1966 1       FALSE   Miami …      14      23 Oaklan… <NA>   
 2 9/3/1966         1966 1       FALSE   Housto…      45       7 Denver… <NA>   
 3 9/4/1966         1966 1       FALSE   San Di…      27       7 Buffal… <NA>   
 4 9/9/1966         1966 2       FALSE   Miami …      14      19 New Yo… <NA>   
 5 9/10/1966        1966 1       FALSE   Green …      24       3 Baltim… <NA>   
 6 9/10/1966        1966 2       FALSE   Housto…      31       0 Oaklan… <NA>   
 7 9/10/1966        1966 2       FALSE   San Di…      24       0 New En… <NA>   
 8 9/11/1966        1966 1       FALSE   Atlant…      14      19 Los An… <NA>   
 9 9/11/1966        1966 2       FALSE   Buffal…      20      42 Kansas… <NA>   
10 9/11/1966        1966 1       FALSE   Detroi…      14       3 Chicag… <NA>   
# … with 13,494 more rows, 8 more variables: spread_favorite <dbl>,
#   over_under_line <dbl>, stadium <chr>, stadium_neutral <lgl>,
#   weather_temperature <dbl>, weather_wind_mph <dbl>, weather_humidity <dbl>,
#   weather_detail <chr>, and abbreviated variable names ¹​schedule_season,
#   ²​schedule_week, ³​schedule_playoff, ⁴​team_home, ⁵​score_home, ⁶​score_away,
#   ⁷​team_away, ⁸​team_favorite_id
…
Rows: 118 Columns: 15
── Column specification ────────────────────────────────────────────────────────
Delimiter: ","
chr (9): stadium_name, stadium_location, stadium_type, stadium_address, stad...
dbl (5): stadium_open, stadium_close, LATITUDE, LONGITUDE, ELEVATION
num (1): stadium_capacity

ℹ Use `spec()` to retrieve the full column specification for this data.
ℹ Specify the column types or set `show_col_types = FALSE` to quiet this message.

Code

stadiums

# A tibble: 118 × 15
   stadium_name  stadi…¹ stadi…² stadi…³ stadi…⁴ stadi…⁵ stadi…⁶ stadi…⁷ stadi…⁸
   <chr>         <chr>     <dbl>   <dbl> <chr>   <chr>   <chr>   <chr>     <dbl>
 1 Acrisure Sta… Pittsb…    2001      NA outdoor 100 Ar… 15212   cold      65500
 2 Alamo Dome    San An…      NA      NA indoor  100 Mo… 78203   dome      72000
 3 Allegiant St… Paradi…    2020      NA indoor  <NA>    <NA>    dome      65000
 4 Allianz Arena Munich…      NA      NA outdoor <NA>    <NA>    modera…   75024
 5 Alltel Stadi… Jackso…      NA      NA <NA>    <NA>    <NA>    <NA>         NA
 6 Alumni Stadi… Chestn…      NA      NA outdoor Perime… 2467    cold         NA
 7 Anaheim Stad… Anahei…    1980    1994 outdoor 2000 E… 92806   warm         NA
 8 Arrowhead St… Kansas…    1972      NA outdoor 1 Arro… 64129   cold      76416
 9 AT&T Stadium  Arling…    2009      NA retrac… 1 AT&T… 76011   dome      80000
10 Atlanta-Fult… Atlant…    1966    1991 outdoor 521 Ca… 30312   warm         NA
# … with 108 more rows, 6 more variables: stadium_surface <chr>, STATION <chr>,
#   NAME <chr>, LATITUDE <dbl>, LONGITUDE <dbl>, ELEVATION <dbl>, and
#   abbreviated variable names ¹​stadium_location, ²​stadium_open,
#   ³​stadium_close, ⁴​stadium_type, ⁵​stadium_address,
#   ⁶​stadium_weather_station_code, ⁷​stadium_weather_type, ⁸​stadium_capacity
…
teams <- read_csv("_data/nfl_data/nfl_teams.csv")

Rows: 44 Columns: 8
── Column specification ────────────────────────────────────────────────────────
Delimiter: ","
chr (8): team_name, team_name_short, team_id, team_id_pfr, team_conference, ...

ℹ Use `spec()` to retrieve the full column specification for this data.
ℹ Specify the column types or set `show_col_types = FALSE` to quiet this message.

Code

teams

# A tibble: 44 × 8
   team_name          team_nam…¹ team_id team_…² team_…³ team_…⁴ team_…⁵ team_…⁶
   <chr>              <chr>      <chr>   <chr>   <chr>   <chr>   <chr>   <chr>  
 1 Arizona Cardinals  Cardinals  ARI     CRD     NFC     NFC We… NFC     NFC We…
 2 Atlanta Falcons    Falcons    ATL     ATL     NFC     NFC So… NFC     NFC We…
 3 Baltimore Colts    Colts      IND     CLT     AFC     <NA>    AFC     AFC Ea…
 4 Baltimore Ravens   Ravens     BAL     RAV     AFC     AFC No… AFC     AFC Ce…
 5 Boston Patriots    Patriots   NE      NWE     AFC     <NA>    AFC     <NA>   
 6 Buffalo Bills      Bills      BUF     BUF     AFC     AFC Ea… AFC     AFC Ea…
 7 Carolina Panthers  Panthers   CAR     CAR     NFC     NFC So… NFC     NFC We…
 8 Chicago Bears      Bears      CHI     CHI     NFC     NFC No… NFC     NFC Ce…
 9 Cincinnati Bengals Bengals    CIN     CIN     AFC     AFC No… AFC     AFC Ce…
10 Cleveland Browns   Browns     CLE     CLE     AFC     AFC No… AFC     AFC Ce…
# … with 34 more rows, and abbreviated variable names ¹​team_name_short,
#   ²​team_id_pfr, ³​team_conference, ⁴​team_division, ⁵​team_conference_pre2002,
#   ⁶​team_division_pre2002
…
#in case I messed up the data
full_scores <- scores

#joins

full_scores <- full_join(x = scores, y = new_teams, by = "team_home")
full_scores <- full_join(x = full_scores,y = stadiums, by = "stadium_name")

full_scores

# A tibble: 13,505 × 37
   schedule_date sched…¹ sched…² sched…³ team_…⁴ score…⁵ score…⁶ team_…⁷ team_…⁸
   <chr>           <dbl> <chr>   <lgl>   <chr>     <dbl>   <dbl> <chr>   <chr>  
 1 9/2/1966         1966 1       FALSE   Miami …      14      23 Oaklan… <NA>   
 2 9/3/1966         1966 1       FALSE   Housto…      45       7 Denver… <NA>   
 3 9/4/1966         1966 1       FALSE   San Di…      27       7 Buffal… <NA>   
 4 9/9/1966         1966 2       FALSE   Miami …      14      19 New Yo… <NA>   
 5 9/10/1966        1966 1       FALSE   Green …      24       3 Baltim… <NA>   
 6 9/10/1966        1966 2       FALSE   Housto…      31       0 Oaklan… <NA>   
 7 9/10/1966        1966 2       FALSE   San Di…      24       0 New En… <NA>   
 8 9/11/1966        1966 1       FALSE   Atlant…      14      19 Los An… <NA>   
 9 9/11/1966        1966 2       FALSE   Buffal…      20      42 Kansas… <NA>   
10 9/11/1966        1966 1       FALSE   Detroi…      14       3 Chicag… <NA>   
# … with 13,495 more rows, 28 more variables: spread_favorite <dbl>,
#   over_under_line <dbl>, stadium_name <chr>, stadium_neutral <lgl>,
#   weather_temperature <dbl>, weather_wind_mph <dbl>, weather_humidity <dbl>,
#   weather_detail <chr>, team_name <chr>, team_id <chr>,
#   team_name_short <chr>, team_conference <chr>, team_division <chr>,
#   team_division_pre2002 <chr>, stadium_location <chr>, stadium_open <dbl>,
#   stadium_close <dbl>, stadium_type <chr>, stadium_address <chr>, …
…
#select and filter the data  
full_scores <- full_scores%>%
  select(schedule_season,schedule_week,team_home,score_home,score_away,team_away,favorite,spread,favorite_covers,stadium_name,stadium_type,weather_temperature,weather_wind_mph)%>%
  filter(schedule_season > 1978 | schedule_week == "Superbowl",
         spread > 0)

full_scores

# A tibble: 10,781 × 13
   schedule_sea…¹ sched…² team_…³ score…⁴ score…⁵ team_…⁶ favor…⁷ spread favor…⁸
            <dbl> <chr>   <chr>     <dbl>   <dbl> <chr>   <chr>    <dbl> <chr>  
 1           1966 Superb… Green …      35      10 Kansas… Green …   14   Cover  
 2           1967 Superb… Green …      33      14 Oaklan… Green …   13.5 Cover  
 3           1968 Superb… Baltim…       7      16 New Yo… Baltim…   18   Not Co…
 4           1969 Superb… Kansas…      23       7 Minnes… Minnes…   12   Not Co…
 5           1970 Superb… Baltim…      16      13 Dallas… Baltim…    2.5 Cover  
 6           1971 Superb… Dallas…      24       3 Miami … Dallas…    6   Cover  
 7           1972 Superb… Miami …      14       7 Washin… Miami …    1   Cover  
 8           1973 Superb… Miami …      24       7 Minnes… Miami …    6.5 Cover  
 9           1974 Superb… Minnes…       6      16 Pittsb… Pittsb…    3   Cover  
10           1975 Superb… Dallas…      17      21 Pittsb… Pittsb…    7   Not Co…
# … with 10,771 more rows, 4 more variables: stadium_name <chr>,
#   stadium_type <chr>, weather_temperature <dbl>, weather_wind_mph <dbl>, and
#   abbreviated variable names ¹​schedule_season, ²​schedule_week, ³​team_home,
#   ⁴​score_home, ⁵​score_away, ⁶​team_away, ⁷​favorite, ⁸​favorite_covers
…
In addition to using the counts to show my data, I made some tables to represent stadium covers, wind speed covers, and temperature covers. The stadium table breaks down stadium covers by week. The wind speed table breaks it down wind speed covers by week, with a filter to show the covers when the wind speed is more than 10 mph. The temperature covers table represents temperature covers by week. The coldest temperature for game that the spread was covered was -3 degrees.

Code

stadium_covers <- full_scores%>%
  select(schedule_season, schedule_week,stadium_name, favorite_covers)%>%
  filter(schedule_season > 1978,favorite_covers == "Cover")%>%
  count(stadium_name, favorite_covers, schedule_week,sort = TRUE)

  #ggplot(aes(y = stadium_name, x = schedule_week, fill = favorite_covers), geom_bar())

stadium_covers

# A tibble: 1,232 × 4
   stadium_name     favorite_covers schedule_week     n
   <chr>            <chr>           <chr>         <int>
 1 Giants Stadium   Cover           16               17
 2 Giants Stadium   Cover           1                16
 3 Giants Stadium   Cover           3                16
 4 Lambeau Field    Cover           2                16
 5 Texas Stadium    Cover           12               16
 6 Giants Stadium   Cover           10               15
 7 Giants Stadium   Cover           7                15
 8 Lambeau Field    Cover           11               15
 9 Lambeau Field    Cover           13               15
10 Qualcomm Stadium Cover           14               15
# … with 1,222 more rows

Code

stadium_covers_total <- full_scores%>%
  select(schedule_season, schedule_week,stadium_name, favorite_covers)%>%
  filter(schedule_season > 1978,favorite_covers == "Cover")%>%
  count(stadium_name, favorite_covers,sort = TRUE)

stadium_covers_total

# A tibble: 94 × 3
   stadium_name         favorite_covers     n
   <chr>                <chr>           <int>
 1 Giants Stadium       Cover             223
 2 Lambeau Field        Cover             191
 3 Soldier Field        Cover             164
 4 Arrowhead Stadium    Cover             150
 5 Ralph Wilson Stadium Cover             148
 6 Candlestick Park     Cover             146
 7 Qualcomm Stadium     Cover             146
 8 Louisiana Superdome  Cover             132
 9 Texas Stadium        Cover             125
10 Oakland Coliseum     Cover             107
# … with 84 more rows
…
Code

wind_covers <- full_scores%>%
  filter(schedule_season > 1978,favorite_covers == "Cover")%>%
  count(weather_wind_mph, favorite_covers,sort = TRUE)

  #ggplot(aes(x= schedule_week, y = weather_wind_mph, fill = mean(weather_wind_mph)),geom_histogram())

wind_covers

# A tibble: 31 × 3
   weather_wind_mph favorite_covers     n
              <dbl> <chr>           <int>
 1                0 Cover            1129
 2               NA Cover             451
 3                8 Cover             369
 4                6 Cover             325
 5                9 Cover             325
 6                7 Cover             294
 7               10 Cover             294
 8               11 Cover             268
 9               12 Cover             232
10                5 Cover             209
# … with 21 more rows
…
