DACSS 601: Data Science Fundamentals - FALL 2022 - HW 2
…
knitr::opts_chunk$set(echo = TRUE, warning=FALSE, message=FALSE)

What are we looking at today?

Today, we are looking at Voter ID laws by country, as well as US States. I downloaded the dataset from Mr. Tom Barton PhD of the Department of Politics, International Relations, and Philosophy in the University of London, Royal Holloway, courtesy of archival website called Data is Plural.

To open the CSV dataset, we will use read_csv() command, as demonstrated below in the chunk.

Code

Voter_ID <- read_csv("_data/dataverse_files/cvil_22_09_08.csv")
Voter_ID

# A tibble: 249 × 16
   cntry     cntry…¹ id_type id_ty…² num_id exhaust min_id law_yr cmp_vt cmp_enf
   <chr>     <chr>     <dbl> <chr>    <dbl>   <dbl>  <dbl>  <dbl>  <dbl>   <dbl>
 1 Afghanis… AFG           3 Photo …    1         1      1   2016      0       0
 2 Albania   ALB           3 Photo …    2         1      1   2012      0       0
 3 Algeria   DZA           3 Photo …    1.5       0      1   2012      0       0
 4 Andorra   AND           3 Photo …    1.5       0      1   2014      0       0
 5 Angola    AGO           2 Non Ph…    1         1      1   2004      0       0
 6 Anguilla  AIA           1 Basic …    0         1      0   2019      0       0
 7 Antigua … ATG           3 Photo …    1         1      1   2001      0       0
 8 Argentina ARG           3 Photo …    5         1      1   2012      1       1
 9 Armenia   ARM           3 Photo …    3         1      1   2016      0       0
10 Aruba     ABW           3 Photo …    4         1      2   1987      0       0
# … with 239 more rows, 6 more variables: us_dum <dbl>, reg_dev <dbl>,
#   reg_law <dbl>, reg_lab <chr>, continent <dbl>, cmp_id <chr>, and
#   abbreviated variable names ¹​cntry_cd, ²​id_type_lab
…
  rename("Country Name" = cntry,
         "Country ID" = cntry_cd,
         "Voter ID Law Type" = id_type,
         "Number of Different IDs Allowed to Prove Identity" = num_id,
         "Does the electoral law provide an exhaustive list of different IDs voters can present?" = exhaust,
         "Minimum Number of IDs Required by Law" = min_id,
         "Year of Current Law Enforced" = law_yr,
         "Does the country have compulsory voting?" = cmp_vt,
         "Does the country enforce compulsory voting?" = cmp_enf,
         "Does the country have compulsory national ID cards?" = cmp_id,
         "Registration Type Law" = reg_law,
         "Continent" = continent)
Voter_ID

# A tibble: 249 × 16
   Country Nam…¹ Count…² Voter…³ id_ty…⁴ Numbe…⁵ Does …⁶ Minim…⁷ Year …⁸ Does …⁹
   <chr>         <chr>     <dbl> <chr>     <dbl>   <dbl>   <dbl>   <dbl>   <dbl>
 1 Afghanistan   AFG           3 Photo …     1         1       1    2016       0
 2 Albania       ALB           3 Photo …     2         1       1    2012       0
 3 Algeria       DZA           3 Photo …     1.5       0       1    2012       0
 4 Andorra       AND           3 Photo …     1.5       0       1    2014       0
 5 Angola        AGO           2 Non Ph…     1         1       1    2004       0
 6 Anguilla      AIA           1 Basic …     0         1       0    2019       0
 7 Antigua and … ATG           3 Photo …     1         1       1    2001       0
 8 Argentina     ARG           3 Photo …     5         1       1    2012       1
 9 Armenia       ARM           3 Photo …     3         1       1    2016       0
10 Aruba         ABW           3 Photo …     4         1       2    1987       0
# … with 239 more rows, 7 more variables:
#   `Does the country enforce compulsory voting?` <dbl>, us_dum <dbl>,
#   reg_dev <dbl>, `Registration Type Law` <dbl>, reg_lab <chr>,
#   Continent <dbl>,
#   `Does the country have compulsory national ID cards?` <chr>, and
#   abbreviated variable names ¹​`Country Name`, ²​`Country ID`,
#   ³​`Voter ID Law Type`, ⁴​id_type_lab, …

Now, notice that I did not rename every variable because some are mere repeats of other variables. Therefore, I will remove them because they’re unnecessary to keep. The command I will use is ‘select()’, with another command ‘-c()’ inside the ‘select()’ command, and type in the variables that I will remove.

Remove Unneeded Variables

Code

Voter_ID <- Voter_ID %>%
  select(-c(id_type_lab, us_dum, reg_dev, reg_lab))
Voter_ID

# A tibble: 249 × 12
   Country Nam…¹ Count…² Voter…³ Numbe…⁴ Does …⁵ Minim…⁶ Year …⁷ Does …⁸ Does …⁹
   <chr>         <chr>     <dbl>   <dbl>   <dbl>   <dbl>   <dbl>   <dbl>   <dbl>
 1 Afghanistan   AFG           3     1         1       1    2016       0       0
 2 Albania       ALB           3     2         1       1    2012       0       0
 3 Algeria       DZA           3     1.5       0       1    2012       0       0
 4 Andorra       AND           3     1.5       0       1    2014       0       0
 5 Angola        AGO           2     1         1       1    2004       0       0
 6 Anguilla      AIA           1     0         1       0    2019       0       0
 7 Antigua and … ATG           3     1         1       1    2001       0       0
 8 Argentina     ARG           3     5         1       1    2012       1       1
 9 Armenia       ARM           3     3         1       1    2016       0       0
10 Aruba         ABW           3     4         1       2    1987       0       0
# … with 239 more rows, 3 more variables: `Registration Type Law` <dbl>,
#   Continent <dbl>,
#   `Does the country have compulsory national ID cards?` <chr>, and
#   abbreviated variable names ¹​`Country Name`, ²​`Country ID`,
#   ³​`Voter ID Law Type`, ⁴​`Number of Different IDs Allowed to Prove Identity`,
#   ⁵​`Does the electoral law provide an exhaustive list of different IDs voters can present?`,
#   ⁶​`Minimum Number of IDs Required by Law`, …
…
Recode Continent

Code

Voter_ID <- Voter_ID %>%
  mutate(Continent=recode(Continent, 
                            `1` = "Africa",
                            `2` = "Americas",
                            `3` = "Asia",
                            `4` = "Europe",
                            `5` = "Oceania"))
Voter_ID

# A tibble: 249 × 12
   Country Nam…¹ Count…² Voter…³ Numbe…⁴ Does …⁵ Minim…⁶ Year …⁷ Does …⁸ Does …⁹
   <chr>         <chr>     <dbl>   <dbl>   <dbl>   <dbl>   <dbl>   <dbl>   <dbl>
 1 Afghanistan   AFG           3     1         1       1    2016       0       0
 2 Albania       ALB           3     2         1       1    2012       0       0
 3 Algeria       DZA           3     1.5       0       1    2012       0       0
 4 Andorra       AND           3     1.5       0       1    2014       0       0
 5 Angola        AGO           2     1         1       1    2004       0       0
 6 Anguilla      AIA           1     0         1       0    2019       0       0
 7 Antigua and … ATG           3     1         1       1    2001       0       0
 8 Argentina     ARG           3     5         1       1    2012       1       1
 9 Armenia       ARM           3     3         1       1    2016       0       0
10 Aruba         ABW           3     4         1       2    1987       0       0
# … with 239 more rows, 3 more variables: `Registration Type Law` <dbl>,
#   Continent <chr>,
#   `Does the country have compulsory national ID cards?` <chr>, and
#   abbreviated variable names ¹​`Country Name`, ²​`Country ID`,
#   ³​`Voter ID Law Type`, ⁴​`Number of Different IDs Allowed to Prove Identity`,
#   ⁵​`Does the electoral law provide an exhaustive list of different IDs voters can present?`,
#   ⁶​`Minimum Number of IDs Required by Law`, …
Next, we will recode the values in compulsory voting laws.

Is Voting compulsory in your country? Does you country enforce compulsory?

Code

Voter_ID <- Voter_ID %>%
  mutate(Voter_ID, `Does the country have compulsory voting?` = recode(`Does the country have compulsory voting?`, `0` = "No", `1` = "Yes"))

Voter_ID <- Voter_ID %>%
  mutate(Voter_ID, `Does the country enforce compulsory voting?` = recode(`Does the country enforce compulsory voting?`, `0` = "No", `1`="Yes"))
  
Voter_ID

# A tibble: 249 × 12
   Country Nam…¹ Count…² Voter…³ Numbe…⁴ Does …⁵ Minim…⁶ Year …⁷ Does …⁸ Does …⁹
   <chr>         <chr>     <dbl>   <dbl>   <dbl>   <dbl>   <dbl> <chr>   <chr>  
 1 Afghanistan   AFG           3     1         1       1    2016 No      No     
 2 Albania       ALB           3     2         1       1    2012 No      No     
 3 Algeria       DZA           3     1.5       0       1    2012 No      No     
 4 Andorra       AND           3     1.5       0       1    2014 No      No     
 5 Angola        AGO           2     1         1       1    2004 No      No     
 6 Anguilla      AIA           1     0         1       0    2019 No      No     
 7 Antigua and … ATG           3     1         1       1    2001 No      No     
 8 Argentina     ARG           3     5         1       1    2012 Yes     Yes    
 9 Armenia       ARM           3     3         1       1    2016 No      No     
10 Aruba         ABW           3     4         1       2    1987 No      No     
# … with 239 more rows, 3 more variables: `Registration Type Law` <dbl>,
#   Continent <chr>,
#   `Does the country have compulsory national ID cards?` <chr>, and
#   abbreviated variable names ¹​`Country Name`, ²​`Country ID`,
#   ³​`Voter ID Law Type`, ⁴​`Number of Different IDs Allowed to Prove Identity`,
#   ⁵​`Does the electoral law provide an exhaustive list of different IDs voters can present?`,
#   ⁶​`Minimum Number of IDs Required by Law`, …
…
Recode Voter ID Type laws

Code

Voter_ID <- Voter_ID %>%
  mutate(Voter_ID, `Voter ID Law Type` 
         = recode(`Voter ID Law Type`,
                  `1` = "Basic Personal Details",
                  `2` = "Non-Photo ID Required or Requested",
                  `3` = "Photo ID Required"))

Voter_ID

# A tibble: 249 × 12
   Country Nam…¹ Count…² Voter…³ Numbe…⁴ Does …⁵ Minim…⁶ Year …⁷ Does …⁸ Does …⁹
   <chr>         <chr>   <chr>     <dbl>   <dbl>   <dbl>   <dbl> <chr>   <chr>  
 1 Afghanistan   AFG     Photo …     1         1       1    2016 No      No     
 2 Albania       ALB     Photo …     2         1       1    2012 No      No     
 3 Algeria       DZA     Photo …     1.5       0       1    2012 No      No     
 4 Andorra       AND     Photo …     1.5       0       1    2014 No      No     
 5 Angola        AGO     Non-Ph…     1         1       1    2004 No      No     
 6 Anguilla      AIA     Basic …     0         1       0    2019 No      No     
 7 Antigua and … ATG     Photo …     1         1       1    2001 No      No     
 8 Argentina     ARG     Photo …     5         1       1    2012 Yes     Yes    
 9 Armenia       ARM     Photo …     3         1       1    2016 No      No     
10 Aruba         ABW     Photo …     4         1       2    1987 No      No     
# … with 239 more rows, 3 more variables: `Registration Type Law` <dbl>,
#   Continent <chr>,
#   `Does the country have compulsory national ID cards?` <chr>, and
#   abbreviated variable names ¹​`Country Name`, ²​`Country ID`,
#   ³​`Voter ID Law Type`, ⁴​`Number of Different IDs Allowed to Prove Identity`,
#   ⁵​`Does the electoral law provide an exhaustive list of different IDs voters can present?`,
#   ⁶​`Minimum Number of IDs Required by Law`, …

Another question regarding voting ID is whether a country provides an exhaustive, or a really comprehensive, list of types of ID to prove one’s identity. In other words, can you use just about anything to prove your identity in order to vote?

Code

Voter_ID <- Voter_ID %>%
  mutate(Voter_ID, `Does the electoral law provide an exhaustive list of different IDs voters can present?`
         = recode(`Does the electoral law provide an exhaustive list of different IDs voters can present?`,
                  `0` = "No",
                  `1` = "Yes"))

Voter_ID

# A tibble: 249 × 12
   Country Nam…¹ Count…² Voter…³ Numbe…⁴ Does …⁵ Minim…⁶ Year …⁷ Does …⁸ Does …⁹
   <chr>         <chr>   <chr>     <dbl> <chr>     <dbl>   <dbl> <chr>   <chr>  
 1 Afghanistan   AFG     Photo …     1   Yes           1    2016 No      No     
 2 Albania       ALB     Photo …     2   Yes           1    2012 No      No     
 3 Algeria       DZA     Photo …     1.5 No            1    2012 No      No     
 4 Andorra       AND     Photo …     1.5 No            1    2014 No      No     
 5 Angola        AGO     Non-Ph…     1   Yes           1    2004 No      No     
 6 Anguilla      AIA     Basic …     0   Yes           0    2019 No      No     
 7 Antigua and … ATG     Photo …     1   Yes           1    2001 No      No     
 8 Argentina     ARG     Photo …     5   Yes           1    2012 Yes     Yes    
 9 Armenia       ARM     Photo …     3   Yes           1    2016 No      No     
10 Aruba         ABW     Photo …     4   Yes           2    1987 No      No     
# … with 239 more rows, 3 more variables: `Registration Type Law` <dbl>,
#   Continent <chr>,
#   `Does the country have compulsory national ID cards?` <chr>, and
#   abbreviated variable names ¹​`Country Name`, ²​`Country ID`,
#   ³​`Voter ID Law Type`, ⁴​`Number of Different IDs Allowed to Prove Identity`,
#   ⁵​`Does the electoral law provide an exhaustive list of different IDs voters can present?`,
#   ⁶​`Minimum Number of IDs Required by Law`, …

Next, does the country have compulsory national ID laws? In countries where you must show some form of ID, some provide national ID cards that can be used when showing up at the booth.

Code

Voter_ID <- Voter_ID %>%
  mutate(Voter_ID, `Does the country have compulsory national ID cards?`
         = recode(`Does the country have compulsory national ID cards?`,
                  `0` = "No",
                  `1` = "Yes",
                  "#N/A" = "No Data"))

Voter_ID

# A tibble: 249 × 12
   Country Nam…¹ Count…² Voter…³ Numbe…⁴ Does …⁵ Minim…⁶ Year …⁷ Does …⁸ Does …⁹
   <chr>         <chr>   <chr>     <dbl> <chr>     <dbl>   <dbl> <chr>   <chr>  
 1 Afghanistan   AFG     Photo …     1   Yes           1    2016 No      No     
 2 Albania       ALB     Photo …     2   Yes           1    2012 No      No     
 3 Algeria       DZA     Photo …     1.5 No            1    2012 No      No     
 4 Andorra       AND     Photo …     1.5 No            1    2014 No      No     
 5 Angola        AGO     Non-Ph…     1   Yes           1    2004 No      No     
 6 Anguilla      AIA     Basic …     0   Yes           0    2019 No      No     
 7 Antigua and … ATG     Photo …     1   Yes           1    2001 No      No     
 8 Argentina     ARG     Photo …     5   Yes           1    2012 Yes     Yes    
 9 Armenia       ARM     Photo …     3   Yes           1    2016 No      No     
10 Aruba         ABW     Photo …     4   Yes           2    1987 No      No     
# … with 239 more rows, 3 more variables: `Registration Type Law` <dbl>,
#   Continent <chr>,
#   `Does the country have compulsory national ID cards?` <chr>, and
#   abbreviated variable names ¹​`Country Name`, ²​`Country ID`,
#   ³​`Voter ID Law Type`, ⁴​`Number of Different IDs Allowed to Prove Identity`,
#   ⁵​`Does the electoral law provide an exhaustive list of different IDs voters can present?`,
#   ⁶​`Minimum Number of IDs Required by Law`, …
…
Types of voter registration

Code

Voter_ID <- Voter_ID %>%
  mutate(Voter_ID, `Registration Type Law`
         = recode(`Registration Type Law`,
                  `1` = "Laissez-Faire Registration",
                  `2` = "Assisted Registration",
                  `3` = "Automatic Registration"))

# Sanity Check
Voter_ID

# A tibble: 249 × 12
   Country Nam…¹ Count…² Voter…³ Numbe…⁴ Does …⁵ Minim…⁶ Year …⁷ Does …⁸ Does …⁹
   <chr>         <chr>   <chr>     <dbl> <chr>     <dbl>   <dbl> <chr>   <chr>  
 1 Afghanistan   AFG     Photo …     1   Yes           1    2016 No      No     
 2 Albania       ALB     Photo …     2   Yes           1    2012 No      No     
 3 Algeria       DZA     Photo …     1.5 No            1    2012 No      No     
 4 Andorra       AND     Photo …     1.5 No            1    2014 No      No     
 5 Angola        AGO     Non-Ph…     1   Yes           1    2004 No      No     
 6 Anguilla      AIA     Basic …     0   Yes           0    2019 No      No     
 7 Antigua and … ATG     Photo …     1   Yes           1    2001 No      No     
 8 Argentina     ARG     Photo …     5   Yes           1    2012 Yes     Yes    
 9 Armenia       ARM     Photo …     3   Yes           1    2016 No      No     
10 Aruba         ABW     Photo …     4   Yes           2    1987 No      No     
# … with 239 more rows, 3 more variables: `Registration Type Law` <chr>,
#   Continent <chr>,
#   `Does the country have compulsory national ID cards?` <chr>, and
#   abbreviated variable names ¹​`Country Name`, ²​`Country ID`,
#   ³​`Voter ID Law Type`, ⁴​`Number of Different IDs Allowed to Prove Identity`,
#   ⁵​`Does the electoral law provide an exhaustive list of different IDs voters can present?`,
#   ⁶​`Minimum Number of IDs Required by Law`, …
…
Voter_ID$`Number of Different IDs Allowed to Prove Identity`[is.na(Voter_ID$`Number of Different IDs Allowed to Prove Identity`)] <-no_data

Voter_ID$`Does the electoral law provide an exhaustive list of different IDs voters can present?`[is.na(Voter_ID$`Does the electoral law provide an exhaustive list of different IDs voters can present?`)] <- no_data

Voter_ID$`Minimum Number of IDs Required by Law`[is.na(Voter_ID$`Minimum Number of IDs Required by Law`)] <- no_data

Voter_ID$`Year of Current Law Enforced`[is.na(Voter_ID$`Year of Current Law Enforced`)] <- no_data

Voter_ID$`Registration Type Law`[is.na(Voter_ID$`Registration Type Law`)] <-no_data

Voter_ID

# A tibble: 249 × 12
   Country Nam…¹ Count…² Voter…³ Numbe…⁴ Does …⁵ Minim…⁶ Year …⁷ Does …⁸ Does …⁹
   <chr>         <chr>   <chr>   <chr>   <chr>   <chr>   <chr>   <chr>   <chr>  
 1 Afghanistan   AFG     Photo … 1       Yes     1       2016    No      No     
 2 Albania       ALB     Photo … 2       Yes     1       2012    No      No     
 3 Algeria       DZA     Photo … 1.5     No      1       2012    No      No     
 4 Andorra       AND     Photo … 1.5     No      1       2014    No      No     
 5 Angola        AGO     Non-Ph… 1       Yes     1       2004    No      No     
 6 Anguilla      AIA     Basic … 0       Yes     0       2019    No      No     
 7 Antigua and … ATG     Photo … 1       Yes     1       2001    No      No     
 8 Argentina     ARG     Photo … 5       Yes     1       2012    Yes     Yes    
 9 Armenia       ARM     Photo … 3       Yes     1       2016    No      No     
10 Aruba         ABW     Photo … 4       Yes     2       1987    No      No     
# … with 239 more rows, 3 more variables: `Registration Type Law` <chr>,
#   Continent <chr>,
#   `Does the country have compulsory national ID cards?` <chr>, and
#   abbreviated variable names ¹​`Country Name`, ²​`Country ID`,
#   ³​`Voter ID Law Type`, ⁴​`Number of Different IDs Allowed to Prove Identity`,
#   ⁵​`Does the electoral law provide an exhaustive list of different IDs voters can present?`,
#   ⁶​`Minimum Number of IDs Required by Law`, …
…
