DACSS 601: Data Science Fundamentals - FALL 2022 - Olympic Analysis
…
knitr::opts_chunk$set(echo = TRUE, warning=FALSE, message=FALSE)

Data Description

I choose to investigate a dataset containing information about the Olympic Games between 1896 and 2016. The data set is read in and displayed using the code below.

# Read in the data set
athletes <- read_csv('./Data/athlete_events.csv')
noc <- read_csv('./Data/noc_regions.csv')

# Display the athlete data set
athletes

# A tibble: 271,116 × 15
      ID Name     Sex     Age Height Weight Team  NOC   Games  Year Season City 
   <dbl> <chr>    <chr> <dbl>  <dbl>  <dbl> <chr> <chr> <chr> <dbl> <chr>  <chr>
 1     1 A Dijia… M        24    180     80 China CHN   1992…  1992 Summer Barc…
 2     2 A Lamusi M        23    170     60 China CHN   2012…  2012 Summer Lond…
 3     3 Gunnar … M        24     NA     NA Denm… DEN   1920…  1920 Summer Antw…
 4     4 Edgar L… M        34     NA     NA Denm… DEN   1900…  1900 Summer Paris
 5     5 Christi… F        21    185     82 Neth… NED   1988…  1988 Winter Calg…
 6     5 Christi… F        21    185     82 Neth… NED   1988…  1988 Winter Calg…
 7     5 Christi… F        25    185     82 Neth… NED   1992…  1992 Winter Albe…
 8     5 Christi… F        25    185     82 Neth… NED   1992…  1992 Winter Albe…
 9     5 Christi… F        27    185     82 Neth… NED   1994…  1994 Winter Lill…
10     5 Christi… F        27    185     82 Neth… NED   1994…  1994 Winter Lill…
# … with 271,106 more rows, and 3 more variables: Sport <chr>, Event <chr>,
#   Medal <chr>

# Display the noc data set
noc

# A tibble: 230 × 3
   NOC   region      notes               
   <chr> <chr>       <chr>               
 1 AFG   Afghanistan <NA>                
 2 AHO   Curacao     Netherlands Antilles
 3 ALB   Albania     <NA>                
 4 ALG   Algeria     <NA>                
 5 AND   Andorra     <NA>                
 6 ANG   Angola      <NA>                
 7 ANT   Antigua     Antigua and Barbuda 
 8 ANZ   Australia   Australasia         
 9 ARG   Argentina   <NA>                
10 ARM   Armenia     <NA>                
# … with 220 more rows

The dataset comes as a set of two csv files: ‘athlete_events’ and ‘noc_regions’ where each file represents a table in a relational database. The ‘athlete_events’ table contains most of the information that I am interested in. Each row in this table contains information about an athlete who competed in an Olympic event. Note that athletes can occur in the table more than once if they competed in multiple events or games. A good example of this is Michael Phelps who appears in the athletes table many times.

# Find all the rows containing information about Michael Phelps
filter(athletes, str_detect(Name, "Michael") & str_detect(Name, "Phelps")) %>%
  select(-c(ID, NOC, Sex, Height, Weight, Season))

# A tibble: 30 × 9
   Name                      Age Team        Games  Year City  Sport Event Medal
   <chr>                   <dbl> <chr>       <chr> <dbl> <chr> <chr> <chr> <chr>
 1 Michael Fred Phelps, II    15 United Sta… 2000…  2000 Sydn… Swim… Swim… <NA> 
 2 Michael Fred Phelps, II    19 United Sta… 2004…  2004 Athi… Swim… Swim… Bron…
 3 Michael Fred Phelps, II    19 United Sta… 2004…  2004 Athi… Swim… Swim… Bron…
 4 Michael Fred Phelps, II    19 United Sta… 2004…  2004 Athi… Swim… Swim… Gold 
 5 Michael Fred Phelps, II    19 United Sta… 2004…  2004 Athi… Swim… Swim… Gold 
 6 Michael Fred Phelps, II    19 United Sta… 2004…  2004 Athi… Swim… Swim… Gold 
 7 Michael Fred Phelps, II    19 United Sta… 2004…  2004 Athi… Swim… Swim… Gold 
 8 Michael Fred Phelps, II    19 United Sta… 2004…  2004 Athi… Swim… Swim… Gold 
 9 Michael Fred Phelps, II    19 United Sta… 2004…  2004 Athi… Swim… Swim… Gold 
10 Michael Fred Phelps, II    23 United Sta… 2008…  2008 Beij… Swim… Swim… Gold 
# … with 20 more rows

Each row in the athletes table contains the National Olympic Committee that they are competing for which is stored as a three letter code in the ‘NOC’ column. The ‘NOC’ column serves as a foreign key to the ‘noc_regions’ table. The ‘noc_regions’ table maps the National Olympic Committee code to its corresponding country and provides additional notes about the committee. For example, consider this row in ‘noc_regions’: (HKG, China, Hong Kong). This tells us that the code HKG corresponds Hong Kong Olympic Committee in China.

In the majority of the cases, the ‘notes’ column of the ‘noc_regions’ table is empty. The case I gave in the previous example is an outlier case in which it is present. In cases where it is present, it often provides another way besides the NOC code to distinguish between two committees from the same region. The code chunk below display all the entries in the ‘noc_regions’ table that have notes associated with it. Notice that many of the rows in the table have the same region.

# List the countries have non-null values in 'notes' column
noc %>%
  filter(!is.na(notes)) %>%
  arrange(region)

# A tibble: 21 × 3
   NOC   region                      notes                      
   <chr> <chr>                       <chr>                      
 1 ANT   Antigua                     Antigua and Barbuda        
 2 ANZ   Australia                   Australasia                
 3 NFL   Canada                      Newfoundland               
 4 HKG   China                       Hong Kong                  
 5 AHO   Curacao                     Netherlands Antilles       
 6 BOH   Czech Republic              Bohemia                    
 7 CRT   Greece                      Crete                      
 8 IOA   Individual Olympic Athletes Individual Olympic Athletes
 9 NBO   Malaysia                    North Borneo               
10 SKN   Saint Kitts                 Turks and Caicos Islands   
# … with 11 more rows
…
Let’s handle the missing values in the ‘Age’, ‘Height’, and ‘Weight’ columns next. Suppose we find a missing value in the ‘Age’ column. I think a reasonable idea would be to replace the missing value with the average age during the Olympic games that occurred in that year. We know that ‘Year’ column of the data set does not contain any missing values. Therefore, if we find a missing value in the ‘Age’ column, we can extract the value of the ‘Year’ column in that row and we know it will not be missing. Then we can calculate the average age during that year and replace the missing value with the average value. Using this approach, we can replace all the missing values in these columns.

First, let’s calculate the average age, height, and weight for each year in the data set. This is calculated and stored in the tibble using the code chunk below.

# Compute average age, height, and weight by years
AverageValues <- athletes %>%
                 group_by(Year) %>%
                 summarise(AverageAge = round(mean(Age, na.rm = TRUE), digits = 0),
                           AverageHeight = round(mean(Height, na.rm = TRUE), digits = 0),
                           AverageWeight = round(mean(Weight, na.rm = TRUE), digits = 1))
# Display the results
AverageValues

# A tibble: 35 × 4
    Year AverageAge AverageHeight AverageWeight
   <dbl>      <dbl>         <dbl>         <dbl>
 1  1896         24           173          71.4
 2  1900         29           177          74.6
 3  1904         27           176          72.2
 4  1906         27           178          75.9
 5  1908         27           178          75.4
 6  1912         28           177          73.1
 7  1920         29           176          73.1
 8  1924         28           175          71.7
 9  1928         29           175          71  
10  1932         33           174          70.5
# … with 25 more rows
…
Saving Cleaned Data

Some of the operations that were required to clean the data set took some time to complete. To save time later, let’s save the clean data set in a new csv file so we don’t have to repeat all of the cleaning operations.

# Save cleaned data set
write_csv(athletes, './Data/athletes_clean.csv')

Finally, let’s read in the new csv file and present the cleaned data.

# Read in saved data set and display
athletes <- read_csv('./Data/athletes_clean.csv')
athletes

# A tibble: 270,767 × 15
      ID Name    Team  NOC   Region Sex     Age Height Weight  Year Season City 
   <dbl> <chr>   <chr> <chr> <chr>  <chr> <dbl>  <dbl>  <dbl> <dbl> <chr>  <chr>
 1  1724 "Arist… Gree… GRE   Greece M        24    173   71.4  1896 Summer Athi…
 2  1724 "Arist… Gree… GRE   Greece M        24    173   71.4  1896 Summer Athi…
 3  1725 "Konst… Gree… GRE   Greece M        24    173   71.4  1896 Summer Athi…
 4  1725 "Konst… Gree… GRE   Greece M        24    173   71.4  1896 Summer Athi…
 5  4113 "Anast… Gree… GRE   Greece M        24    173   71.4  1896 Summer Athi…
 6  4116 "Ioann… Gree… GRE   Greece M        24    173   71.4  1896 Summer Athi…
 7  4189 "Nikol… Gree… GRE   Greece M        24    173   71.4  1896 Summer Athi…
 8  4431 "Georg… Gree… GRE   Greece M        24    173   71.4  1896 Summer Athi…
 9  4493 "Antel… Gree… GRE   Greece M        24    173   71.4  1896 Summer Athi…
10  5660 "Georg… Gree… GRE   Greece M        24    173   71.4  1896 Summer Athi…
# … with 270,757 more rows, and 3 more variables: Sport <chr>, Event <chr>,
#   Medal <chr>
…
