DACSS 601: Data Science Fundamentals - FALL 2022 - Olympic Analysis
…
      November 7, 2022

library(tidyverse)
library(gridExtra)

knitr::opts_chunk$set(echo = TRUE, warning=FALSE, message=FALSE)

Read Clean Data

In the previous homework assignment, I cleaned the Olympic data set and saved the cleaned data set in a new csv file. To avoid duplicating code, I am going to read in the cleaned data set instead of the original one.

df <- read_csv('./Data/athletes_clean.csv')
df

# A tibble: 270,767 × 15
      ID Name    Team  NOC   Region Sex     Age Height Weight  Year Season City 
   <dbl> <chr>   <chr> <chr> <chr>  <chr> <dbl>  <dbl>  <dbl> <dbl> <chr>  <chr>
 1  1724 "Arist… Gree… GRE   Greece M        24    173   71.4  1896 Summer Athi…
 2  1724 "Arist… Gree… GRE   Greece M        24    173   71.4  1896 Summer Athi…
 3  1725 "Konst… Gree… GRE   Greece M        24    173   71.4  1896 Summer Athi…
 4  1725 "Konst… Gree… GRE   Greece M        24    173   71.4  1896 Summer Athi…
 5  4113 "Anast… Gree… GRE   Greece M        24    173   71.4  1896 Summer Athi…
 6  4116 "Ioann… Gree… GRE   Greece M        24    173   71.4  1896 Summer Athi…
 7  4189 "Nikol… Gree… GRE   Greece M        24    173   71.4  1896 Summer Athi…
 8  4431 "Georg… Gree… GRE   Greece M        24    173   71.4  1896 Summer Athi…
 9  4493 "Antel… Gree… GRE   Greece M        24    173   71.4  1896 Summer Athi…
10  5660 "Georg… Gree… GRE   Greece M        24    173   71.4  1896 Summer Athi…
# … with 270,757 more rows, and 3 more variables: Sport <chr>, Event <chr>,
#   Medal <chr>
…
Investigating Medals By Country

To start investigating how medals relates to country, let’s find out how many medals of each type each country has and how many total medals each country has. This has been done with the following chunk of R Code.

countryMedal <- df %>%
                group_by(Region) %>%
                count(Medal) %>%
                pivot_wider(names_from = Medal, values_from = n) %>%
                relocate(Bronze, .after = None) %>%
                relocate(Silver, .after = Bronze) %>% 
                arrange(desc(Gold)) %>%
                mutate(TotalMedals = sum(Bronze,Silver,Gold, na.rm = TRUE))
countryMedal

# A tibble: 208 × 6
# Groups:   Region [208]
   Region   None Bronze Silver  Gold TotalMedals
   <chr>   <int>  <int>  <int> <int>       <int>
 1 USA     13216   1358   1641  2638        5637
 2 Russia   7745   1178   1170  1599        3947
 3 Germany 12127   1260   1195  1301        3756
 4 UK      10188    651    739   678        2068
 5 Italy    9078    531    531   575        1637
 6 France  10981    666    610   501        1777
 7 Sweden   6803    535    522   479        1536
 8 Canada   8382    451    438   463        1352
 9 Hungary  5472    371    332   432        1135
10 Norway   3927    294    361   378        1033
# … with 198 more rows
…
Instead of looking at the countries with the most medals, let’s look at the athletes who have won the most medals. The following chunk of R code find the athletes that have won the most medals and shows the number of each type of medal earned by the athlete.

# Medal count by athlete
bestAthletes <- df %>%
                filter(Medal != "None") %>%
                group_by(Name) %>%
                count(Medal) %>%
                pivot_wider(names_from = Medal, values_from = n) %>%
                mutate(TotalMedals = Bronze + Silver + Gold) %>%
                arrange(desc(TotalMedals))

bestAthletes

# A tibble: 28,197 × 5
# Groups:   Name [28,197]
   Name                                               Gold Bronze Silver Total…¹
   <chr>                                             <int>  <int>  <int>   <int>
 1 "Michael Fred Phelps, II"                            23      2      3      28
 2 "Larysa Semenivna Latynina (Diriy-)"                  9      4      5      18
 3 "Nikolay Yefimovich Andrianov"                        7      3      5      15
 4 "Borys Anfiyanovych Shakhlin"                         7      2      4      13
 5 "Edoardo Mangiarotti"                                 6      2      5      13
 6 "Ole Einar Bjrndalen"                                 8      1      4      13
 7 "Takashi Ono"                                         5      4      4      13
 8 "Aleksey Yuryevich Nemov"                             4      6      2      12
 9 "Dara Grace Torres (-Hoffman, -Minas)"                4      4      4      12
10 "Jennifer Elisabeth \"Jenny\" Thompson (-Cumpeli…     8      1      3      12
# … with 28,187 more rows, and abbreviated variable name ¹​TotalMedals
…
