DACSS 601: Data Science Fundamentals - FALL 2022 - Challenge 3
…
eggs_tidy.csv ⭐⭐ or organiceggpoultry.xls ⭐⭐⭐

australian_marriage*.xls ⭐⭐⭐

USA Households*.xlsx ⭐⭐⭐⭐

sce_labor_chart_data_public.xlsx 🌟🌟🌟🌟🌟

Code

eggs_tidy <- read_csv('_data/eggs_tidy.csv')
eggs_tidy

# A tibble: 120 × 6
   month      year large_half_dozen large_dozen extra_large_half_dozen extra_l…¹
   <chr>     <dbl>            <dbl>       <dbl>                  <dbl>     <dbl>
 1 January    2004             126         230                    132       230 
 2 February   2004             128.        226.                   134.      230 
 3 March      2004             131         225                    137       230 
 4 April      2004             131         225                    137       234.
 5 May        2004             131         225                    137       236 
 6 June       2004             134.        231.                   137       241 
 7 July       2004             134.        234.                   137       241 
 8 August     2004             134.        234.                   137       241 
 9 September  2004             130.        234.                   136.      241 
10 October    2004             128.        234.                   136.      241 
# … with 110 more rows, and abbreviated variable name ¹​extra_large_dozen
…
Challenge: Pivot the Chosen Data

As expected, the resulting data is 4 times longer (from 120 -> 480). The number of columns has been reduced by 1 from 6 -> 5. Now, we have a single record of one egg size and quantity per row and helps in easy understanding of data for future analysis.

Code

eggs_longer <- eggs_tidy%>%
  pivot_longer(cols=contains("large"),
               names_to = c("Size", "Quantity"),
               names_sep="_",
               values_to = "Cost"
  )
eggs_longer

# A tibble: 480 × 5
   month     year Size  Quantity  Cost
   <chr>    <dbl> <chr> <chr>    <dbl>
 1 January   2004 large half      126 
 2 January   2004 large dozen     230 
 3 January   2004 extra large     132 
 4 January   2004 extra large     230 
 5 February  2004 large half      128.
 6 February  2004 large dozen     226.
 7 February  2004 extra large     134.
 8 February  2004 extra large     230 
 9 March     2004 large half      131 
10 March     2004 large dozen     225 
# … with 470 more rows
…
