DACSS 601: Data Science Fundamentals - FALL 2022 - 601 Fall Final Project- A study on the crime data of Massachusetts state
…
Code

df_crime_rate <- County_crime_total %>%
  left_join(ma_population,by= "County")%>%
  mutate(across(c(2:9),
           .fns = ~./(Population/100000)))%>%
  pivot_longer(cols = (ends_with("am") | ends_with("pm")) | ends_with("noon"), names_to = "Time", values_to = "Crime_Rate")
df_crime_rate$Crime_Rate <- round(df_crime_rate$Crime_Rate)
df_crime_rate$Time<- factor(df_crime_rate$Time,                 # Relevel group factor
                         levels = c("12am-3am", "3am-6am", "6am-9am", "9am-12pm", "12pm-3pm", "3pm-6pm", "6pm-9pm","9pm-12am"))
df_crime_rate <- df_crime_rate %>%
  group_by(County)
df_crime_rate

# A tibble: 112 × 6
# Groups:   County [14]
   Location           County     Year  Population Time     Crime_Rate
   <chr>              <chr>      <chr>      <dbl> <fct>         <dbl>
 1 All Location Types Barnstable 2021      213505 12am-3am        201
 2 All Location Types Barnstable 2021      213505 3am-6am          89
 3 All Location Types Barnstable 2021      213505 6am-9am         284
 4 All Location Types Barnstable 2021      213505 9pm-12am        310
 5 All Location Types Barnstable 2021      213505 9am-12pm        615
 6 All Location Types Barnstable 2021      213505 12pm-3pm        666
 7 All Location Types Barnstable 2021      213505 3pm-6pm         592
 8 All Location Types Barnstable 2021      213505 6pm-9pm         454
 9 All Location Types Berkshire  2021      125927 12am-3am        195
10 All Location Types Berkshire  2021      125927 3am-6am         137
# … with 102 more rows
…
