DACSS 601: Data Science Fundamentals - FALL 2022 - Challenge 3
…
australian_marriage*.xls ⭐⭐⭐

USA Households*.xlsx ⭐⭐⭐⭐

sce_labor_chart_data_public.xlsx 🌟🌟🌟🌟🌟

Code

library(readr)
eggs <- read_csv("_data/eggs_tidy.csv")
  
eggs

# A tibble: 120 × 6
   month      year large_half_dozen large_dozen extra_large_half_dozen extra_l…¹
   <chr>     <dbl>            <dbl>       <dbl>                  <dbl>     <dbl>
 1 January    2004             126         230                    132       230 
 2 February   2004             128.        226.                   134.      230 
 3 March      2004             131         225                    137       230 
 4 April      2004             131         225                    137       234.
 5 May        2004             131         225                    137       236 
 6 June       2004             134.        231.                   137       241 
 7 July       2004             134.        234.                   137       241 
 8 August     2004             134.        234.                   137       241 
 9 September  2004             130.        234.                   136.      241 
10 October    2004             128.        234.                   136.      241 
# … with 110 more rows, and abbreviated variable name ¹​extra_large_dozen
…
#expected columns
2+4

[1] 6

Code

#pivoting data
pivot_longer(eggs, cols = c("large_half_dozen","large_dozen","extra_large_half_dozen","extra_large_dozen"),
               names_to = "l/xl_half/whole_dozens",
               values_to = "dozens_quantity"
               )

# A tibble: 480 × 4
   month     year `l/xl_half/whole_dozens` dozens_quantity
   <chr>    <dbl> <chr>                              <dbl>
 1 January   2004 large_half_dozen                    126 
 2 January   2004 large_dozen                         230 
 3 January   2004 extra_large_half_dozen              132 
 4 January   2004 extra_large_dozen                   230 
 5 February  2004 large_half_dozen                    128.
 6 February  2004 large_dozen                         226.
 7 February  2004 extra_large_half_dozen              134.
 8 February  2004 extra_large_dozen                   230 
 9 March     2004 large_half_dozen                    131 
10 March     2004 large_dozen                         225 
# … with 470 more rows

Code

eggs

# A tibble: 120 × 6
   month      year large_half_dozen large_dozen extra_large_half_dozen extra_l…¹
   <chr>     <dbl>            <dbl>       <dbl>                  <dbl>     <dbl>
 1 January    2004             126         230                    132       230 
 2 February   2004             128.        226.                   134.      230 
 3 March      2004             131         225                    137       230 
 4 April      2004             131         225                    137       234.
 5 May        2004             131         225                    137       236 
 6 June       2004             134.        231.                   137       241 
 7 July       2004             134.        234.                   137       241 
 8 August     2004             134.        234.                   137       241 
 9 September  2004             130.        234.                   136.      241 
10 October    2004             128.        234.                   136.      241 
# … with 110 more rows, and abbreviated variable name ¹​extra_large_dozen
…
