DACSS 601: Data Science Fundamentals - FALL 2022 - Final Project
…
We know that maximum number of crimes have taken place in the year 2017 so let us check at what time these top 10 crime categories have taken place in 2017.

crime_when <- boston_crime %>% 
  filter(OFFENSE_DESCRIPTION %in% top10_crimes, YEAR == "2017") %>% 
  group_by(OFFENSE_DESCRIPTION, Hour_category) %>% 
  summarise(Total = n())

crime_when

# A tibble: 30 × 3
# Groups:   OFFENSE_DESCRIPTION [10]
   OFFENSE_DESCRIPTION      Hour_category Total
   <chr>                    <fct>         <int>
 1 ASSAULT SIMPLE - BATTERY 12am to 8am     994
 2 ASSAULT SIMPLE - BATTERY 4pm to 12am    2079
 3 ASSAULT SIMPLE - BATTERY 8am to 4pm     1566
 4 INVESTIGATE PERSON       12am to 8am     926
 5 INVESTIGATE PERSON       4pm to 12am    2946
 6 INVESTIGATE PERSON       8am to 4pm     2796
 7 INVESTIGATE PROPERTY     12am to 8am     869
 8 INVESTIGATE PROPERTY     4pm to 12am    1702
 9 INVESTIGATE PROPERTY     8am to 4pm     1413
10 LARCENY SHOPLIFTING      12am to 8am     137
# … with 20 more rows
…
Interpretation

I have chosen a bar graph as it conveys the relational information more easily and quickly. Each of the bars display the value of the particular crime category. I have used geom_col() instead of geom_bar() because I want the height of the bars to represent/show the values. From the above graph we can understand very clearly of which time period each of the crime has taken place. Like, INVESTIGATE PERSON crime category has taken place mostly during the evenings or during the business working hours than compared to the late night. In the similar way, we can observe that the LARENCY SHOPLIFTING has taken place mostly during the business working hours of 8am to 4pm than late in the night. This may be because the shops/malls are generally closed during the night. In the similar fashion we can draw conclusions for all of the crime categories and this graph gives us an in-depth analysis of the time frame of the crime.

Let us now check if we will observe similar observations for the year 2021 which has has the least numer of crimes.

crime_when <- boston_crime %>% 
  filter(OFFENSE_DESCRIPTION %in% top10_crimes, YEAR == "2021") %>% 
  group_by(OFFENSE_DESCRIPTION, Hour_category) %>% 
  summarise(Total = n())

crime_when

# A tibble: 27 × 3
# Groups:   OFFENSE_DESCRIPTION [9]
   OFFENSE_DESCRIPTION                   Hour_category Total
   <chr>                                 <fct>         <int>
 1 INVESTIGATE PERSON                    12am to 8am    1290
 2 INVESTIGATE PERSON                    4pm to 12am    2836
 3 INVESTIGATE PERSON                    8am to 4pm     2715
 4 INVESTIGATE PROPERTY                  12am to 8am     918
 5 INVESTIGATE PROPERTY                  4pm to 12am    1416
 6 INVESTIGATE PROPERTY                  8am to 4pm     1197
 7 LARCENY SHOPLIFTING                   12am to 8am     111
 8 LARCENY SHOPLIFTING                   4pm to 12am     961
 9 LARCENY SHOPLIFTING                   8am to 4pm     1244
10 LARCENY THEFT FROM MV - NON-ACCESSORY 12am to 8am     452
# … with 17 more rows
…
