DACSS 601: Data Science Fundamentals - FALL 2022 - Challenge 6
…
library(lubridate)
debt$Date <-  debt$Date %>% 
mdy() 

#Reorganizing columns
 col_order <- c(10, 2, 1, 3:9)
debt<-debt[, col_order]
  print((debt))

# A tibble: 74 × 10
   Year  Quarter Date       Mortgage HE Re…¹ Auto …² Credi…³ Stude…⁴ Other Total
   <chr> <chr>   <date>        <dbl>   <dbl>   <dbl>   <dbl>   <dbl> <dbl> <dbl>
 1 2003  Q1      2003-03-31     4.94   0.242   0.641   0.688   0.241 0.478  7.23
 2 2003  Q2      2003-06-30     5.08   0.26    0.622   0.693   0.243 0.486  7.38
 3 2003  Q3      2003-09-30     5.18   0.269   0.684   0.693   0.249 0.477  7.56
 4 2003  Q4      2003-12-31     5.66   0.302   0.704   0.698   0.253 0.449  8.07
 5 2004  Q1      2004-03-31     5.84   0.328   0.72    0.695   0.260 0.446  8.29
 6 2004  Q2      2004-06-30     5.97   0.367   0.743   0.697   0.263 0.423  8.46
 7 2004  Q3      2004-09-30     6.21   0.426   0.751   0.706   0.33  0.41   8.83
 8 2004  Q4      2004-12-31     6.36   0.468   0.728   0.717   0.346 0.423  9.04
 9 2005  Q1      2005-03-31     6.51   0.502   0.725   0.71    0.364 0.394  9.21
10 2005  Q2      2005-06-30     6.70   0.528   0.774   0.717   0.374 0.402  9.49
# … with 64 more rows, and abbreviated variable names ¹​`HE Revolving`,
#   ²​`Auto Loan`, ³​`Credit Card`, ⁴​`Student Loan`
…
