DACSS 601: Data Science Fundamentals - FALL 2022 - Challenge 8 Instructions
…
railroads ⭐⭐⭐

fed_rate ⭐⭐⭐

debt ⭐⭐⭐

us_hh ⭐⭐⭐⭐

snl ⭐⭐⭐⭐⭐

data_1 <- read_csv('_data/FAOSTAT_livestock.csv')
data_2 <- read_csv('_data/FedFundsRate.csv')
data_1

# A tibble: 82,116 × 14
   Domain Cod…¹ Domain Area …² Area  Eleme…³ Element Item …⁴ Item  Year …⁵  Year
   <chr>        <chr>    <dbl> <chr>   <dbl> <chr>     <dbl> <chr>   <dbl> <dbl>
 1 QA           Live …       2 Afgh…    5111 Stocks     1107 Asses    1961  1961
 2 QA           Live …       2 Afgh…    5111 Stocks     1107 Asses    1962  1962
 3 QA           Live …       2 Afgh…    5111 Stocks     1107 Asses    1963  1963
 4 QA           Live …       2 Afgh…    5111 Stocks     1107 Asses    1964  1964
 5 QA           Live …       2 Afgh…    5111 Stocks     1107 Asses    1965  1965
 6 QA           Live …       2 Afgh…    5111 Stocks     1107 Asses    1966  1966
 7 QA           Live …       2 Afgh…    5111 Stocks     1107 Asses    1967  1967
 8 QA           Live …       2 Afgh…    5111 Stocks     1107 Asses    1968  1968
 9 QA           Live …       2 Afgh…    5111 Stocks     1107 Asses    1969  1969
10 QA           Live …       2 Afgh…    5111 Stocks     1107 Asses    1970  1970
# … with 82,106 more rows, 4 more variables: Unit <chr>, Value <dbl>,
#   Flag <chr>, `Flag Description` <chr>, and abbreviated variable names
#   ¹​`Domain Code`, ²​`Area Code`, ³​`Element Code`, ⁴​`Item Code`, ⁵​`Year Code`

data_2

# A tibble: 904 × 10
    Year Month   Day Federal F…¹ Feder…² Feder…³ Effec…⁴ Real …⁵ Unemp…⁶ Infla…⁷
   <dbl> <dbl> <dbl>       <dbl>   <dbl>   <dbl>   <dbl>   <dbl>   <dbl>   <dbl>
 1  1954     7     1          NA      NA      NA    0.8      4.6     5.8      NA
 2  1954     8     1          NA      NA      NA    1.22    NA       6        NA
 3  1954     9     1          NA      NA      NA    1.06    NA       6.1      NA
 4  1954    10     1          NA      NA      NA    0.85     8       5.7      NA
 5  1954    11     1          NA      NA      NA    0.83    NA       5.3      NA
 6  1954    12     1          NA      NA      NA    1.28    NA       5        NA
 7  1955     1     1          NA      NA      NA    1.39    11.9     4.9      NA
 8  1955     2     1          NA      NA      NA    1.29    NA       4.7      NA
 9  1955     3     1          NA      NA      NA    1.35    NA       4.6      NA
10  1955     4     1          NA      NA      NA    1.43     6.7     4.7      NA
# … with 894 more rows, and abbreviated variable names
#   ¹​`Federal Funds Target Rate`, ²​`Federal Funds Upper Target`,
#   ³​`Federal Funds Lower Target`, ⁴​`Effective Federal Funds Rate`,
#   ⁵​`Real GDP (Percent Change)`, ⁶​`Unemployment Rate`, ⁷​`Inflation Rate`
…
