DACSS 601: Data Science Fundamentals - FALL 2022 - Challenge 2
…
Read in one (or more) of the following data sets, available in the posts/_data folder, using the correct R package and command.

railroad*.csv or StateCounty2012.xls ⭐

FAOstat*.csv or birds.csv ⭐⭐⭐

hotel_bookings.csv ⭐⭐⭐⭐

Code

hotel1 <- read_csv("_data/hotel_bookings.csv")
hotel1

# A tibble: 119,390 × 32
   hotel  is_ca…¹ lead_…² arriv…³ arriv…⁴ arriv…⁵ arriv…⁶ stays…⁷ stays…⁸ adults
   <chr>    <dbl>   <dbl>   <dbl> <chr>     <dbl>   <dbl>   <dbl>   <dbl>  <dbl>
 1 Resor…       0     342    2015 July         27       1       0       0      2
 2 Resor…       0     737    2015 July         27       1       0       0      2
 3 Resor…       0       7    2015 July         27       1       0       1      1
 4 Resor…       0      13    2015 July         27       1       0       1      1
 5 Resor…       0      14    2015 July         27       1       0       2      2
 6 Resor…       0      14    2015 July         27       1       0       2      2
 7 Resor…       0       0    2015 July         27       1       0       2      2
 8 Resor…       0       9    2015 July         27       1       0       2      2
 9 Resor…       1      85    2015 July         27       1       0       3      2
10 Resor…       1      75    2015 July         27       1       0       3      2
# … with 119,380 more rows, 22 more variables: children <dbl>, babies <dbl>,
#   meal <chr>, country <chr>, market_segment <chr>,
#   distribution_channel <chr>, is_repeated_guest <dbl>,
#   previous_cancellations <dbl>, previous_bookings_not_canceled <dbl>,
#   reserved_room_type <chr>, assigned_room_type <chr>, booking_changes <dbl>,
#   deposit_type <chr>, agent <chr>, company <chr>, days_in_waiting_list <dbl>,
#   customer_type <chr>, adr <dbl>, required_car_parking_spaces <dbl>, …
…
Provide Grouped Summary Statistics

Conduct some exploratory data analysis, using dplyr commands such as group_by(), select(), filter(), and summarise(). Find the central tendency (mean, median, mode) and dispersion (standard deviation, mix/max/quantile) for different subgroups within the data set.

Code

hotel2 <- hotel1 %>% group_by(hotel, arrival_date_month, arrival_date_year)
hotel3 <- hotel2 %>% summarise(Babies = sum(babies), Children = sum(children, na.rm = TRUE), Adults = sum(adults))
hotel3

# A tibble: 52 × 6
# Groups:   hotel, arrival_date_month [24]
   hotel      arrival_date_month arrival_date_year Babies Children Adults
   <chr>      <chr>                          <dbl>  <dbl>    <dbl>  <dbl>
 1 City Hotel April                           2016     11      339   6671
 2 City Hotel April                           2017     13      448   7619
 3 City Hotel August                          2015     16      165   4697
 4 City Hotel August                          2016     26      730   6904
 5 City Hotel August                          2017     19      604   6240
 6 City Hotel December                        2015     23      120   2907
 7 City Hotel December                        2016     15      378   4702
 8 City Hotel February                        2016     13      194   4124
 9 City Hotel February                        2017     18      305   4722
10 City Hotel January                         2016     16       69   2200
# … with 42 more rows
…
