DACSS 601: Data Science Fundamentals - FALL 2022 - Sarah McAlpine - Challenge 2
…
# A tibble: 1 × 4
  avg_Tonnes_Milk med_Tonnes_Milk max_Tonnes_Milk min_Tonnes_Milk
            <dbl>           <dbl>           <dbl>           <dbl>
1         412549.           28014        25270000               7

Code

 #Counts of unique occurences
 distinct(clean.dairy, Year)

# A tibble: 58 × 1
    Year
   <dbl>
 1  1961
 2  1962
 3  1963
 4  1964
 5  1965
 6  1966
 7  1967
 8  1968
 9  1969
10  1970
# … with 48 more rows

Code

  distinct(clean.dairy, Area)

# A tibble: 232 × 1
   Area               
   <chr>              
 1 Afghanistan        
 2 Albania            
 3 Algeria            
 4 American Samoa     
 5 Angola             
 6 Antigua and Barbuda
 7 Argentina          
 8 Armenia            
 9 Australia          
10 Austria            
# … with 222 more rows
…
