DACSS 601: Data Science Fundamentals - FALL 2022 - Sarah McAlpine - Challenge 3
…
In considering this data set, I can expect one observation to include a month, a year, an egg size, and a quantity of eggs. Arranging the data in this way will allow analysis of price changes throughout the year and over time for both large and extra large eggs, as well as whether they are sold in dozens or half dozens.

I expect the resulting data set to be four times as long since each size-quantity pairing will appear in its own row (rather than the initial 4 columns after month and year). I expect the total number of columns to reduce by one, since I will remove the 4 size-quantity columns names and replace them with a column each for size, quantity, and average price. See below for this newly rearranged data.

Code

eggs_longer <- eggs %>%
   pivot_longer(cols = contains("large"),
               names_to = c("size", "quantity"),
               names_sep = "_",
               values_to = "avg_price")

eggs_longer

# A tibble: 480 × 5
   month     year size   quantity  avg_price
   <chr>    <dbl> <chr>  <chr>         <dbl>
 1 January   2004 large  halfdozen      126 
 2 January   2004 large  dozen          230 
 3 January   2004 xlarge halfdozen      132 
 4 January   2004 xlarge dozen          230 
 5 February  2004 large  halfdozen      128.
 6 February  2004 large  dozen          226.
 7 February  2004 xlarge halfdozen      134.
 8 February  2004 xlarge dozen          230 
 9 March     2004 large  halfdozen      131 
10 March     2004 large  dozen          225 
# … with 470 more rows

Conclusion

As I predicted, I now have four times as many rows (120 became 480), and one column fewer (6 became 5). Now I have a single observation per row and am ready to begin analysis. I may wish to mutate the cents into dollars depending on the nature of my analysis or if there are other tables to bring in at some point. The preview tibble below rounds to whole cents, but the data retains the precise decimals.

Code

eggs_USD <- mutate(eggs_longer, 
       avg_USD = avg_price / 100
       )%>%
  select(!contains ("price"))
eggs_USD

# A tibble: 480 × 5
   month     year size   quantity  avg_USD
   <chr>    <dbl> <chr>  <chr>       <dbl>
 1 January   2004 large  halfdozen    1.26
 2 January   2004 large  dozen        2.3 
 3 January   2004 xlarge halfdozen    1.32
 4 January   2004 xlarge dozen        2.3 
 5 February  2004 large  halfdozen    1.28
 6 February  2004 large  dozen        2.26
 7 February  2004 xlarge halfdozen    1.34
 8 February  2004 xlarge dozen        2.3 
 9 March     2004 large  halfdozen    1.31
10 March     2004 large  dozen        2.25
# … with 470 more rows
…
