DACSS 601: Data Science Fundamentals - FALL 2022 - Challenge 3
…
Read in one (or more) of the following datasets, using the correct R package and command.

eggs_tidy.csv ⭐⭐ organiceggpoultry.xls⭐⭐⭐

Rows: 120
Columns: 6
$ month                  <chr> "January", "February", "March", "April", "May",…
$ year                   <dbl> 2004, 2004, 2004, 2004, 2004, 2004, 2004, 2004,…
$ large_half_dozen       <dbl> 126.00, 128.50, 131.00, 131.00, 131.00, 133.50,…
$ large_dozen            <dbl> 230.000, 226.250, 225.000, 225.000, 225.000, 23…
$ extra_large_half_dozen <dbl> 132.000, 134.500, 137.000, 137.000, 137.000, 13…
$ extra_large_dozen      <dbl> 230.0, 230.0, 230.0, 234.5, 236.0, 241.0, 241.0…

# A tibble: 120 × 2
   month      year
   <chr>     <dbl>
 1 January    2004
 2 February   2004
 3 March      2004
 4 April      2004
 5 May        2004
 6 June       2004
 7 July       2004
 8 August     2004
 9 September  2004
10 October    2004
# … with 110 more rows
…
