DACSS 601: Data Science Fundamentals - FALL 2022 - Challenge 3
…
identify what needs to be done to tidy the current data

anticipate the shape of pivoted data

pivot the data into tidy format using pivot_longer

Read in data

Code

dataset <- read_csv("_data/eggs_tidy.csv")
dataset

# A tibble: 120 × 6
   month      year large_half_dozen large_dozen extra_large_half_dozen extra_l…¹
   <chr>     <dbl>            <dbl>       <dbl>                  <dbl>     <dbl>
 1 January    2004             126         230                    132       230 
 2 February   2004             128.        226.                   134.      230 
 3 March      2004             131         225                    137       230 
 4 April      2004             131         225                    137       234.
 5 May        2004             131         225                    137       236 
 6 June       2004             134.        231.                   137       241 
 7 July       2004             134.        234.                   137       241 
 8 August     2004             134.        234.                   137       241 
 9 September  2004             130.        234.                   136.      241 
10 October    2004             128.        234.                   136.      241 
# … with 110 more rows, and abbreviated variable name ¹​extra_large_dozen
…
Now we will pivot the data, and compare our pivoted data dimensions to the dimensions calculated above as a “sanity” check.

Example

Code

dataset_long <- dataset%>%
  pivot_longer(cols=contains("large"),
               names_to = c("size", "quantity"),
               names_sep="_",
               values_to = "cost"
  )
dataset_long

# A tibble: 480 × 5
   month     year size  quantity  cost
   <chr>    <dbl> <chr> <chr>    <dbl>
 1 January   2004 large half      126 
 2 January   2004 large dozen     230 
 3 January   2004 extra large     132 
 4 January   2004 extra large     230 
 5 February  2004 large half      128.
 6 February  2004 large dozen     226.
 7 February  2004 extra large     134.
 8 February  2004 extra large     230 
 9 March     2004 large half      131 
10 March     2004 large dozen     225 
# … with 470 more rows
…
