DACSS 601: Data Science Fundamentals - FALL 2022 - Challenge 7
…
If we observe the country names, in the first column there is a country null.Now we should observe the attributes present, so that we will validate if we need data in null or not.

filter(hotel_bookings,country == "NULL")

# A tibble: 488 × 32
   hotel  is_ca…¹ lead_…² arriv…³ arriv…⁴ arriv…⁵ arriv…⁶ stays…⁷ stays…⁸ adults
   <chr>    <dbl>   <dbl>   <dbl> <chr>     <dbl>   <dbl>   <dbl>   <dbl>  <dbl>
 1 Resor…       0     118    2015 July         27       1       4      10      1
 2 Resor…       1       0    2016 Februa…       8      15       0       0      0
 3 Resor…       1       8    2016 July         30      21       0       1      1
 4 Resor…       1      39    2016 August       36      30       0       5      2
 5 Resor…       1       0    2016 October      42      13       0       1      1
 6 Resor…       1       0    2016 Novemb…      48      21       0       0      0
 7 Resor…       1       4    2016 Decemb…      52      20       0       1      1
 8 Resor…       1       4    2016 Decemb…      52      20       0       1      1
 9 Resor…       1      87    2017 April        18      30       2       3      2
10 Resor…       1      87    2017 April        18      30       2       3      2
# … with 478 more rows, 22 more variables: children <dbl>, babies <dbl>,
#   meal <chr>, country <chr>, market_segment <chr>,
#   distribution_channel <chr>, is_repeated_guest <dbl>,
#   previous_cancellations <dbl>, previous_bookings_not_canceled <dbl>,
#   reserved_room_type <chr>, assigned_room_type <chr>, booking_changes <dbl>,
#   deposit_type <chr>, agent <chr>, company <chr>, days_in_waiting_list <dbl>,
#   customer_type <chr>, adr <dbl>, required_car_parking_spaces <dbl>, …
…
