DACSS 601: Data Science Fundamentals - FALL 2022 - Challenge 1
…
    state              county          total_employees  
 Length:2930        Length:2930        Min.   :   1.00  
 Class :character   Class :character   1st Qu.:   7.00  
 Mode  :character   Mode  :character   Median :  21.00  
                                       Mean   :  87.18  
                                       3rd Qu.:  65.00  
                                       Max.   :8207.00  

Code

  Railroad

# A tibble: 2,930 × 3
   state county               total_employees
   <chr> <chr>                          <dbl>
 1 AE    APO                                2
 2 AK    ANCHORAGE                          7
 3 AK    FAIRBANKS NORTH STAR               2
 4 AK    JUNEAU                             3
 5 AK    MATANUSKA-SUSITNA                  2
 6 AK    SITKA                              1
 7 AK    SKAGWAY MUNICIPALITY              88
 8 AL    AUTAUGA                          102
 9 AL    BALDWIN                          143
10 AL    BARBOUR                            1
# … with 2,920 more rows
…
Code

#| label: railroad wrangling and finding the number of unique states

Describe the data

The Railroad data set consists of 2930 observations of three variables: state, county, and total_employees of type character, character, and double respectively. The minimum number of employees is 1, at several counties and the maximum is 8207 in Cook county Illinois.

Code

  #Overview of Railroad
  arrange(Railroad, desc(total_employees))

# A tibble: 2,930 × 3
   state county           total_employees
   <chr> <chr>                      <dbl>
 1 IL    COOK                        8207
 2 TX    TARRANT                     4235
 3 NE    DOUGLAS                     3797
 4 NY    SUFFOLK                     3685
 5 VA    INDEPENDENT CITY            3249
 6 FL    DUVAL                       3073
 7 CA    SAN BERNARDINO              2888
 8 CA    LOS ANGELES                 2545
 9 TX    HARRIS                      2535
10 NE    LINCOLN                     2289
# … with 2,920 more rows

Code

  arrange(Railroad, total_employees)

# A tibble: 2,930 × 3
   state county   total_employees
   <chr> <chr>              <dbl>
 1 AK    SITKA                  1
 2 AL    BARBOUR                1
 3 AL    HENRY                  1
 4 AP    APO                    1
 5 AR    NEWTON                 1
 6 CA    MONO                   1
 7 CO    BENT                   1
 8 CO    CHEYENNE               1
 9 CO    COSTILLA               1
10 CO    DOLORES                1
# … with 2,920 more rows
…
  #Finding the number of unique states
  States <-select(Railroad, state)
  Num_States <-unique(States)
  summary(Num_States)

    state          
 Length:53         
 Class :character  
 Mode  :character  

Code

  Num_States

# A tibble: 53 × 1
   state
   <chr>
 1 AE   
 2 AK   
 3 AL   
 4 AP   
 5 AR   
 6 AZ   
 7 CA   
 8 CO   
 9 CT   
10 DC   
# … with 43 more rows
…
Code

#| label: Domains info

Area consists of 248 entries. Notably, the entries with values less than 5000 represent Countries of the world. The numeric codes correspond with the the Alphabetical order of the country names. When the area code has a value of 5000, it represents the entire world and when the code is greater than 5000, it then corresponds to regions of the world rather than a specific country. In these cases, regions with numbers closer in value have closer geographic proximity. It should be noted that there is a value for Europe as well as a value for Easter Europe and Western Europe, so there are regions that are represented in multiple cases of these entries.

Code

  Areas <-select(Birds, "Area Code", Area)
  Num_Areas <-unique(Areas)
  Num_Areas

# A tibble: 248 × 2
   `Area Code` Area               
         <dbl> <chr>              
 1           2 Afghanistan        
 2           3 Albania            
 3           4 Algeria            
 4           5 American Samoa     
 5           7 Angola             
 6           8 Antigua and Barbuda
 7           9 Argentina          
 8           1 Armenia            
 9          22 Aruba              
10          10 Australia          
# … with 238 more rows

Code

  arrange(Num_Areas, `Area Code`)

# A tibble: 248 × 2
   `Area Code` Area               
         <dbl> <chr>              
 1           1 Armenia            
 2           2 Afghanistan        
 3           3 Albania            
 4           4 Algeria            
 5           5 American Samoa     
 6           7 Angola             
 7           8 Antigua and Barbuda
 8           9 Argentina          
 9          10 Australia          
10          11 Austria            
# … with 238 more rows

Code

  arrange(Num_Areas, desc(`Area Code`))

# A tibble: 248 × 2
   `Area Code` Area                     
         <dbl> <chr>                    
 1        5504 Polynesia                
 2        5503 Micronesia               
 3        5502 Melanesia                
 4        5501 Australia and New Zealand
 5        5500 Oceania                  
 6        5404 Western Europe           
 7        5403 Southern Europe          
 8        5402 Northern Europe          
 9        5401 Eastern Europe           
10        5400 Europe                   
# … with 238 more rows

Code

  World_Region <- filter(Num_Areas, `Area Code` >= 5000)
  arrange(World_Region, `Area Code`)

# A tibble: 28 × 2
   `Area Code` Area            
         <dbl> <chr>           
 1        5000 World           
 2        5100 Africa          
 3        5101 Eastern Africa  
 4        5102 Middle Africa   
 5        5103 Northern Africa 
 6        5104 Southern Africa 
 7        5105 Western Africa  
 8        5200 Americas        
 9        5203 Northern America
10        5204 Central America 
# … with 18 more rows
…
      Year          Unit               Value         
 Min.   :1961   Length:30977       Min.   :       0  
 1st Qu.:1976   Class :character   1st Qu.:     171  
 Median :1992   Mode  :character   Median :    1800  
 Mean   :1991                      Mean   :   99411  
 3rd Qu.:2005                      3rd Qu.:   15404  
 Max.   :2018                      Max.   :23707134  
                                   NA's   :1036      

Code

  Years_Values

# A tibble: 30,977 × 3
    Year Unit      Value
   <dbl> <chr>     <dbl>
 1  1961 1000 Head  4700
 2  1962 1000 Head  4900
 3  1963 1000 Head  5000
 4  1964 1000 Head  5300
 5  1965 1000 Head  5500
 6  1966 1000 Head  5800
 7  1967 1000 Head  6600
 8  1968 1000 Head  6290
 9  1969 1000 Head  6300
10  1970 1000 Head  6000
# … with 30,967 more rows
…
