DACSS 601: Data Science Fundamentals - FALL 2022 - Challenge 2 Solutions
…
railroad*.csv or StateCounty2012.xls ⭐

FAOstat*.csv or birds.csv ⭐⭐⭐

hotel_bookings.csv ⭐⭐⭐⭐

For this challenge I will be working with the “hotel_bookings” data set. It is a publicly available data set containing booking transactions from a city hotel and a resort hotel in Portugal.

Code

# Reading the hotel_bookings.csv data set and storing in a data frame
hotel_data <- read_csv("_data/hotel_bookings.csv")
print(hotel_data)

# A tibble: 119,390 × 32
   hotel  is_ca…¹ lead_…² arriv…³ arriv…⁴ arriv…⁵ arriv…⁶ stays…⁷ stays…⁸ adults
   <chr>    <dbl>   <dbl>   <dbl> <chr>     <dbl>   <dbl>   <dbl>   <dbl>  <dbl>
 1 Resor…       0     342    2015 July         27       1       0       0      2
 2 Resor…       0     737    2015 July         27       1       0       0      2
 3 Resor…       0       7    2015 July         27       1       0       1      1
 4 Resor…       0      13    2015 July         27       1       0       1      1
 5 Resor…       0      14    2015 July         27       1       0       2      2
 6 Resor…       0      14    2015 July         27       1       0       2      2
 7 Resor…       0       0    2015 July         27       1       0       2      2
 8 Resor…       0       9    2015 July         27       1       0       2      2
 9 Resor…       1      85    2015 July         27       1       0       3      2
10 Resor…       1      75    2015 July         27       1       0       3      2
# … with 119,380 more rows, 22 more variables: children <dbl>, babies <dbl>,
#   meal <chr>, country <chr>, market_segment <chr>,
#   distribution_channel <chr>, is_repeated_guest <dbl>,
#   previous_cancellations <dbl>, previous_bookings_not_canceled <dbl>,
#   reserved_room_type <chr>, assigned_room_type <chr>, booking_changes <dbl>,
#   deposit_type <chr>, agent <chr>, company <chr>, days_in_waiting_list <dbl>,
#   customer_type <chr>, adr <dbl>, required_car_parking_spaces <dbl>, …
…
[1] 4

Code

sum(is.null(hotel_data))

[1] 0

Code

#Check for the period of hotel booking dates
hotel_data%>%
  select(hotel, arrival_date_year, arrival_date_month)%>%distinct()

# A tibble: 52 × 3
   hotel        arrival_date_year arrival_date_month
   <chr>                    <dbl> <chr>             
 1 Resort Hotel              2015 July              
 2 Resort Hotel              2015 August            
 3 Resort Hotel              2015 September         
 4 Resort Hotel              2015 October           
 5 Resort Hotel              2015 November          
 6 Resort Hotel              2015 December          
 7 Resort Hotel              2016 January           
 8 Resort Hotel              2016 February          
 9 Resort Hotel              2016 March             
10 Resort Hotel              2016 April             
# … with 42 more rows
…
Code

# Finding the total number of adults, children and babies for each hotel, year, month

hotel_data%>%
  select(hotel, arrival_date_year, arrival_date_month, adults, children, babies)%>%
  group_by(hotel, arrival_date_year, arrival_date_month)%>%
  summarise(total = sum(adults+children+babies, na.rm = TRUE), total_adults = sum(adults), total_children = sum(children, na.rm = TRUE), total_babies = sum(babies))

# A tibble: 52 × 7
# Groups:   hotel, arrival_date_year [6]
   hotel      arrival_date_year arrival_date_month total total…¹ total…² total…³
   <chr>                  <dbl> <chr>              <dbl>   <dbl>   <dbl>   <dbl>
 1 City Hotel              2015 August              4869    4697     165      16
 2 City Hotel              2015 December            3050    2907     120      23
 3 City Hotel              2015 July                2687    2671      14       2
 4 City Hotel              2015 November            1951    1918      25       8
 5 City Hotel              2015 October             6029    5910      98      21
 6 City Hotel              2015 September           6386    6282      90      14
 7 City Hotel              2016 April               7021    6671     339      11
 8 City Hotel              2016 August              7660    6904     730      26
 9 City Hotel              2016 December            5095    4702     378      15
10 City Hotel              2016 February            4331    4124     194      13
# … with 42 more rows, and abbreviated variable names ¹​total_adults,
#   ²​total_children, ³​total_babies
…
Code

# Finding the mean of adr, adults, children and babies for each hotel, year, month

hotel_data%>%
  select(hotel, adr, arrival_date_year, arrival_date_month, adults, children, babies)%>%
  group_by(hotel, arrival_date_year, arrival_date_month)%>%
  summarise(avg_adr = mean(adr), avg_adults = mean(adults), avg_children = mean(children, na.rm = TRUE), avg_babies = mean(babies))

# A tibble: 52 × 7
# Groups:   hotel, arrival_date_year [6]
   hotel      arrival_date_year arrival_date_m…¹ avg_adr avg_a…² avg_c…³ avg_b…⁴
   <chr>                  <dbl> <chr>              <dbl>   <dbl>   <dbl>   <dbl>
 1 City Hotel              2015 August              77.7    1.89  0.0666 0.00645
 2 City Hotel              2015 December            81.1    1.76  0.0726 0.0139 
 3 City Hotel              2015 July                69.8    1.91  0.0100 0.00143
 4 City Hotel              2015 November            73.5    1.55  0.0202 0.00648
 5 City Hotel              2015 October             89.4    1.75  0.0289 0.00620
 6 City Hotel              2015 September          101.     1.78  0.0255 0.00397
 7 City Hotel              2016 April               99.5    1.87  0.0952 0.00309
 8 City Hotel              2016 August             119.     2.04  0.216  0.00770
 9 City Hotel              2016 December            94.0    1.90  0.153  0.00605
10 City Hotel              2016 February            80.0    1.74  0.0818 0.00548
# … with 42 more rows, and abbreviated variable names ¹​arrival_date_month,
#   ²​avg_adults, ³​avg_children, ⁴​avg_babies

Code

# Finding the median of adr, adults, children and babies for each hotel, year, month

hotel_data%>%
  select(hotel, adr, arrival_date_year, arrival_date_month, adults, children, babies)%>%
  group_by(hotel, arrival_date_year, arrival_date_month)%>%
  summarise(median_adr = median(adr),  median_adults = median(adults), median_children = median(children, na.rm = TRUE), median_babies = median(babies))

# A tibble: 52 × 7
# Groups:   hotel, arrival_date_year [6]
   hotel      arrival_date_year arrival_date_m…¹ media…² media…³ media…⁴ media…⁵
   <chr>                  <dbl> <chr>              <dbl>   <dbl>   <dbl>   <dbl>
 1 City Hotel              2015 August              75         2       0       0
 2 City Hotel              2015 December            77.4       2       0       0
 3 City Hotel              2015 July                62.8       2       0       0
 4 City Hotel              2015 November            72.2       2       0       0
 5 City Hotel              2015 October             87.8       2       0       0
 6 City Hotel              2015 September           95         2       0       0
 7 City Hotel              2016 April               96.3       2       0       0
 8 City Hotel              2016 August             115.        2       0       0
 9 City Hotel              2016 December            88         2       0       0
10 City Hotel              2016 February            79         2       0       0
# … with 42 more rows, and abbreviated variable names ¹​arrival_date_month,
#   ²​median_adr, ³​median_adults, ⁴​median_children, ⁵​median_babies

Code

# Finding the sd of adr, adults, children and babies for each hotel, year, month

hotel_data%>%
  select(hotel, adr, arrival_date_year, arrival_date_month, adults, children, babies)%>%
  group_by(hotel, arrival_date_year, arrival_date_month)%>%
  summarise(sd_adr = sd(adr), sd_adults = sd(adults), sd_children = sd(children, na.rm = TRUE), sd_babies = sd(babies))

# A tibble: 52 × 7
# Groups:   hotel, arrival_date_year [6]
   hotel      arrival_date_year arrival_date_mo…¹ sd_adr sd_ad…² sd_ch…³ sd_ba…⁴
   <chr>                  <dbl> <chr>              <dbl>   <dbl>   <dbl>   <dbl>
 1 City Hotel              2015 August              26.9   0.365   0.340  0.0801
 2 City Hotel              2015 December            32.1   0.504   0.340  0.117 
 3 City Hotel              2015 July                19.4   0.365   0.107  0.0378
 4 City Hotel              2015 November            20.7   0.512   0.177  0.0803
 5 City Hotel              2015 October             30.7   0.463   0.221  0.166 
 6 City Hotel              2015 September           43.7   0.440   0.209  0.0629
 7 City Hotel              2016 April               30.5   0.478   0.381  0.0555
 8 City Hotel              2016 August              39.8   0.499   0.544  0.0874
 9 City Hotel              2016 December            36.0   0.538   0.466  0.0776
10 City Hotel              2016 February            24.7   0.535   0.355  0.0845
# … with 42 more rows, and abbreviated variable names ¹​arrival_date_month,
#   ²​sd_adults, ³​sd_children, ⁴​sd_babies

Code

# Finding the max of adr, adults, children and babies for each hotel, year, month

hotel_data%>%
  select(hotel, adr, arrival_date_year, arrival_date_month, adults, children, babies)%>%
  group_by(hotel, arrival_date_year, arrival_date_month)%>%
  summarise(max_adr = max(adr), max_adults = max(adults), max_children = max(children, na.rm = TRUE), max_babies = max(babies))%>%
  arrange(desc(max_adr))

# A tibble: 52 × 7
# Groups:   hotel, arrival_date_year [6]
   hotel        arrival_date_year arrival_date…¹ max_adr max_a…² max_c…³ max_b…⁴
   <chr>                    <dbl> <chr>            <dbl>   <dbl>   <dbl>   <dbl>
 1 City Hotel                2016 March            5400        3       2       1
 2 City Hotel                2017 May               510        4       3       1
 3 Resort Hotel              2015 July              508        4      10       2
 4 City Hotel                2016 December          452.       4       3       1
 5 Resort Hotel              2017 August            450        4       3       2
 6 Resort Hotel              2017 July              397.       4       2       1
 7 Resort Hotel              2016 December          384        3       3       2
 8 City Hotel                2017 August            372.       4       3       1
 9 Resort Hotel              2016 August            369        4       3       1
10 City Hotel                2016 July              365        4       3       2
# … with 42 more rows, and abbreviated variable names ¹​arrival_date_month,
#   ²​max_adults, ³​max_children, ⁴​max_babies

Code

# Finding the min of adr, adults, children and babies for each hotel, year, month

hotel_data%>%
  select(hotel, adr, arrival_date_year, arrival_date_month, adults, children, babies)%>%
  group_by(hotel, arrival_date_year, arrival_date_month)%>%
  summarise(min_adr = min(adr), min_total = min(adults+children+babies, na.rm = TRUE), min_adults = min(adults), min_children = min(children, na.rm = TRUE), min_babies = min(babies))

# A tibble: 52 × 8
# Groups:   hotel, arrival_date_year [6]
   hotel      arrival_date_year arriva…¹ min_adr min_t…² min_a…³ min_c…⁴ min_b…⁵
   <chr>                  <dbl> <chr>      <dbl>   <dbl>   <dbl>   <dbl>   <dbl>
 1 City Hotel              2015 August         0       0       0       0       0
 2 City Hotel              2015 December       0       0       0       0       0
 3 City Hotel              2015 July           0       0       0       0       0
 4 City Hotel              2015 November       0       0       0       0       0
 5 City Hotel              2015 October        0       0       0       0       0
 6 City Hotel              2015 Septemb…       0       0       0       0       0
 7 City Hotel              2016 April          0       0       0       0       0
 8 City Hotel              2016 August         0       0       0       0       0
 9 City Hotel              2016 December       0       0       0       0       0
10 City Hotel              2016 February       0       0       0       0       0
# … with 42 more rows, and abbreviated variable names ¹​arrival_date_month,
#   ²​min_total, ³​min_adults, ⁴​min_children, ⁵​min_babies
…
