DACSS 601: Data Science Fundamentals - FALL 2022 - Homework 2
…
Code

# Reading the "athlete_events.csv" and "noc_regions.csv" files

athlete_data <- read_csv("_data/athlete_events.csv")
noc_data <- read_csv("_data/noc_regions.csv")

Code

# Displaying athlete_data dataset

athlete_data

# A tibble: 271,116 × 15
      ID Name     Sex     Age Height Weight Team  NOC   Games  Year Season City 
   <dbl> <chr>    <chr> <dbl>  <dbl>  <dbl> <chr> <chr> <chr> <dbl> <chr>  <chr>
 1     1 A Dijia… M        24    180     80 China CHN   1992…  1992 Summer Barc…
 2     2 A Lamusi M        23    170     60 China CHN   2012…  2012 Summer Lond…
 3     3 Gunnar … M        24     NA     NA Denm… DEN   1920…  1920 Summer Antw…
 4     4 Edgar L… M        34     NA     NA Denm… DEN   1900…  1900 Summer Paris
 5     5 Christi… F        21    185     82 Neth… NED   1988…  1988 Winter Calg…
 6     5 Christi… F        21    185     82 Neth… NED   1988…  1988 Winter Calg…
 7     5 Christi… F        25    185     82 Neth… NED   1992…  1992 Winter Albe…
 8     5 Christi… F        25    185     82 Neth… NED   1992…  1992 Winter Albe…
 9     5 Christi… F        27    185     82 Neth… NED   1994…  1994 Winter Lill…
10     5 Christi… F        27    185     82 Neth… NED   1994…  1994 Winter Lill…
# … with 271,106 more rows, and 3 more variables: Sport <chr>, Event <chr>,
#   Medal <chr>

Code

# Displaying noc_data dataset

noc_data

# A tibble: 230 × 3
   NOC   region      notes               
   <chr> <chr>       <chr>               
 1 AFG   Afghanistan <NA>                
 2 AHO   Curacao     Netherlands Antilles
 3 ALB   Albania     <NA>                
 4 ALG   Algeria     <NA>                
 5 AND   Andorra     <NA>                
 6 ANG   Angola      <NA>                
 7 ANT   Antigua     Antigua and Barbuda 
 8 ANZ   Australia   Australasia         
 9 ARG   Argentina   <NA>                
10 ARM   Armenia     <NA>                
# … with 220 more rows
…
Looking into duplicate data

Code

# Displaying the duplicate observations in "athlete_events.csv" file

duplicate_athlete_data <- athlete_data[duplicated(athlete_data),]
duplicate_athlete_data

# A tibble: 1,385 × 15
      ID Name     Sex     Age Height Weight Team  NOC   Games  Year Season City 
   <dbl> <chr>    <chr> <dbl>  <dbl>  <dbl> <chr> <chr> <chr> <dbl> <chr>  <chr>
 1   704 Dsir An… M        27     NA     NA Belg… BEL   1932…  1932 Summer Los …
 2  2449 William… M        48     NA     NA Unit… USA   1928…  1928 Summer Amst…
 3  2449 William… M        48     NA     NA Unit… USA   1928…  1928 Summer Amst…
 4  2777 Hermann… M        43     NA     NA Germ… GER   1928…  1928 Summer Amst…
 5  2777 Hermann… M        43     NA     NA Germ… GER   1928…  1928 Summer Amst…
 6  2777 Hermann… M        51     NA     NA Germ… GER   1936…  1936 Summer Berl…
 7  2903 Lucien … M        46     NA     NA Fran… FRA   1924…  1924 Summer Paris
 8  2903 Lucien … M        46     NA     NA Fran… FRA   1924…  1924 Summer Paris
 9  4319 Ludwig … M        41     NA     NA Germ… GER   1932…  1932 Summer Los …
10  4319 Ludwig … M        41     NA     NA Germ… GER   1932…  1932 Summer Los …
# … with 1,375 more rows, and 3 more variables: Sport <chr>, Event <chr>,
#   Medal <chr>
…
The ‘notes’ variable in noc_data has missing values for 209 observations. Since, this is more than 90% I decided to drop the ‘notes’ variable. After dropping the ‘notes’ variable from the noc_data, it is left with 230 observations and 2 variables.

Code

# Dropping the 'notes' variable from noc_data
noc_data <- noc_data%>%
  select(-c(3))

# Displaying the noc_data after tidying

noc_data

# A tibble: 230 × 2
   NOC   region     
   <chr> <chr>      
 1 AFG   Afghanistan
 2 AHO   Curacao    
 3 ALB   Albania    
 4 ALG   Algeria    
 5 AND   Andorra    
 6 ANG   Angola     
 7 ANT   Antigua    
 8 ANZ   Australia  
 9 ARG   Argentina  
10 ARM   Armenia    
# … with 220 more rows
…
The cleaned_athlete_data is left with 269731 observations and 14 variables after cleaning.

Join Data

As the next step after tidying the datasets, I joined the cleaned_athlete_data and noc_data using ‘NOC’ as the key, into a single dataset. The joined dataset has 269731 observations and 15 variables which makes sense as the cleaned_athlete_data had 269731 observations and cleaned_athlete_data and noc_data datasets had 14 and 2 attributes respectively. Since, the “NOC” attribute is common in both datasets we count it only once.

Code

# performed left join for cleaned_athlete_data and noc_data datasets.
olympic_data = merge(x=cleaned_athlete_data, y=noc_data, by="NOC", all.x=TRUE)
olympic_data <- tibble(olympic_data)
olympic_data

# A tibble: 269,731 × 15
   NOC   Sex   Season  Year Event       ID Name    Age Height Weight Team  City 
   <chr> <chr> <chr>  <dbl> <chr>    <dbl> <chr> <dbl>  <dbl>  <dbl> <chr> <chr>
 1 AFG   M     Summer  1988 Wrestl…  84618 Ahma…    24    161   53.6 Afgh… Seoul
 2 AFG   F     Summer  2012 Athlet…  61961 Tahm…    23    160   52   Afgh… Lond…
 3 AFG   M     Summer  1964 Wrestl…  86829 Nour…    20    162   58.8 Afgh… Tokyo
 4 AFG   M     Summer  1936 Hockey…   5841 Saye…    22    174   82   Afgh… Berl…
 5 AFG   M     Summer  1960 Wrestl… 116125 Niza…    34    168  111   Afgh… Roma 
 6 AFG   M     Summer  1948 Hockey…   5844 Moha…    28    176   74.1 Afgh… Lond…
 7 AFG   M     Summer  1956 Hockey…  87372 Din …    27    177   72.6 Afgh… Melb…
 8 AFG   M     Summer  1960 Wrestl…  58364 Moha…    20    166   62   Afgh… Roma 
 9 AFG   M     Summer  2012 Judo M…  33817 Ajma…    25    173   66   Afgh… Lond…
10 AFG   M     Summer  1972 Wrestl…  28855 Ahma…    24    165   52   Afgh… Muni…
# … with 269,721 more rows, and 3 more variables: Sport <chr>, Medal <chr>,
#   region <chr>
…
