DACSS 601: Data Science Fundamentals - FALL 2022 - Challenge 3 Solutions
…
sce_labor_chart_data_public.xlsx 🌟🌟🌟🌟🌟

For this challenge I will be working with the “USA Households*.xlsx” data set.

Code

library(readxl)

# Reading the USA Households\*.xlsx data set and storing in a data frame

column_names = c("Year", "Household_Number_Thousands", "Total_Percent_Distribution", "Under $15,000", "$15,000 to $24,999", "$25,000 to $34,999", "35,000 to $49,999", "$50,000 to $74,999", "$75,000 to $99,999", "$100,000 to $149,999", "$150,000 to $199,999", "$200,000 and over", "Median_Income_Estimate", "Median_Income_MOE", "Mean_Income_Estimate", "Mean_Income_MOE")
usa_data <- read_excel("_data/USA Households by Total Money Income, Race, and Hispanic Origin of Householder 1967 to 2019.xlsx", col_names = column_names, skip = 5)
print(usa_data)

# A tibble: 383 × 16
   Year  House…¹ Total…² Under…³ $15,0…⁴ $25,0…⁵ 35,00…⁶ $50,0…⁷ $75,0…⁸ $100,…⁹
   <chr> <chr>     <dbl>   <dbl>   <dbl>   <dbl>   <dbl>   <dbl>   <dbl>   <dbl>
 1 ALL … <NA>         NA    NA      NA      NA      NA      NA      NA      NA  
 2 2019  128451      100     9.1     8       8.3    11.7    16.5    12.3    15.5
 3 2018  128579      100    10.1     8.8     8.7    12      17      12.5    15  
 4 2017… 127669      100    10       9.1     9.2    12      16.4    12.4    14.7
 5 2017  127586      100    10.1     9.1     9.2    11.9    16.3    12.6    14.8
 6 2016  126224      100    10.4     9       9.2    12.3    16.7    12.2    15  
 7 2015  125819      100    10.6    10       9.6    12.1    16.1    12.4    14.9
 8 2014  124587      100    11.4    10.5     9.6    12.6    16.4    12.1    14  
 9 2013… 123931      100    11.4    10.3     9.5    12.5    16.8    12      13.9
10 2013… 122952      100    11.3    10.4     9.7    13.1    17      12.5    13.6
# … with 373 more rows, 6 more variables: `$150,000 to $199,999` <dbl>,
#   `$200,000 and over` <dbl>, Median_Income_Estimate <dbl>,
#   Median_Income_MOE <dbl>, Mean_Income_Estimate <chr>, Mean_Income_MOE <chr>,
#   and abbreviated variable names ¹​Household_Number_Thousands,
#   ²​Total_Percent_Distribution, ³​`Under $15,000`, ⁴​`$15,000 to $24,999`,
#   ⁵​`$25,000 to $34,999`, ⁶​`35,000 to $49,999`, ⁷​`$50,000 to $74,999`,
#   ⁸​`$75,000 to $99,999`, ⁹​`$100,000 to $149,999`

Since the “USA Households*.xlsx” data set is in Excel format, I am using the ‘readxl’ package for reading the data. After reading, the data is stored in a dataframe “usa_data”. The first three rows in the dataframe contains description about the data and the 4th and 5th row contains the column headings. I resolve this issue by skipping the first 5 rows while reading the data set and storing in dataframe with the renamed column names.

Data Cleaning

Code

# Removing the last 31 rows as they are just footnotes and not observations
usa_data <- head(usa_data,-31)
print(usa_data)

# A tibble: 352 × 16
   Year  House…¹ Total…² Under…³ $15,0…⁴ $25,0…⁵ 35,00…⁶ $50,0…⁷ $75,0…⁸ $100,…⁹
   <chr> <chr>     <dbl>   <dbl>   <dbl>   <dbl>   <dbl>   <dbl>   <dbl>   <dbl>
 1 ALL … <NA>         NA    NA      NA      NA      NA      NA      NA      NA  
 2 2019  128451      100     9.1     8       8.3    11.7    16.5    12.3    15.5
 3 2018  128579      100    10.1     8.8     8.7    12      17      12.5    15  
 4 2017… 127669      100    10       9.1     9.2    12      16.4    12.4    14.7
 5 2017  127586      100    10.1     9.1     9.2    11.9    16.3    12.6    14.8
 6 2016  126224      100    10.4     9       9.2    12.3    16.7    12.2    15  
 7 2015  125819      100    10.6    10       9.6    12.1    16.1    12.4    14.9
 8 2014  124587      100    11.4    10.5     9.6    12.6    16.4    12.1    14  
 9 2013… 123931      100    11.4    10.3     9.5    12.5    16.8    12      13.9
10 2013… 122952      100    11.3    10.4     9.7    13.1    17      12.5    13.6
# … with 342 more rows, 6 more variables: `$150,000 to $199,999` <dbl>,
#   `$200,000 and over` <dbl>, Median_Income_Estimate <dbl>,
#   Median_Income_MOE <dbl>, Mean_Income_Estimate <chr>, Mean_Income_MOE <chr>,
#   and abbreviated variable names ¹​Household_Number_Thousands,
#   ²​Total_Percent_Distribution, ³​`Under $15,000`, ⁴​`$15,000 to $24,999`,
#   ⁵​`$25,000 to $34,999`, ⁶​`35,000 to $49,999`, ⁷​`$50,000 to $74,999`,
#   ⁸​`$75,000 to $99,999`, ⁹​`$100,000 to $149,999`
…
# Creating new column for Race and filling the empty values for Race with the previous value in that column

usa_data <- usa_data%>%
  mutate(Race = case_when(str_detect(Year,("([A-Z])")) ~ Year))%>%
  fill(Race, .direction = "down")

# Removing the rows from usa_data which has non-numerical values in Year column (these rows have Race value in the Year column and were inserted as separators for different Race groups)

usa_data <- usa_data%>%
  filter(!str_detect(Year,("([A-Z])")))

print(usa_data)

# A tibble: 340 × 17
   Year  House…¹ Total…² Under…³ $15,0…⁴ $25,0…⁵ 35,00…⁶ $50,0…⁷ $75,0…⁸ $100,…⁹
   <chr> <chr>     <dbl>   <dbl>   <dbl>   <dbl>   <dbl>   <dbl>   <dbl>   <dbl>
 1 2019  128451      100     9.1     8       8.3    11.7    16.5    12.3    15.5
 2 2018  128579      100    10.1     8.8     8.7    12      17      12.5    15  
 3 2017… 127669      100    10       9.1     9.2    12      16.4    12.4    14.7
 4 2017  127586      100    10.1     9.1     9.2    11.9    16.3    12.6    14.8
 5 2016  126224      100    10.4     9       9.2    12.3    16.7    12.2    15  
 6 2015  125819      100    10.6    10       9.6    12.1    16.1    12.4    14.9
 7 2014  124587      100    11.4    10.5     9.6    12.6    16.4    12.1    14  
 8 2013… 123931      100    11.4    10.3     9.5    12.5    16.8    12      13.9
 9 2013… 122952      100    11.3    10.4     9.7    13.1    17      12.5    13.6
10 2012  122459      100    11.4    10.6    10.1    12.5    17.4    12      13.9
# … with 330 more rows, 7 more variables: `$150,000 to $199,999` <dbl>,
#   `$200,000 and over` <dbl>, Median_Income_Estimate <dbl>,
#   Median_Income_MOE <dbl>, Mean_Income_Estimate <chr>, Mean_Income_MOE <chr>,
#   Race <chr>, and abbreviated variable names ¹​Household_Number_Thousands,
#   ²​Total_Percent_Distribution, ³​`Under $15,000`, ⁴​`$15,000 to $24,999`,
#   ⁵​`$25,000 to $34,999`, ⁶​`35,000 to $49,999`, ⁷​`$50,000 to $74,999`,
#   ⁸​`$75,000 to $99,999`, ⁹​`$100,000 to $149,999`

Code

# Removing the footnote number next to the year value in the "Year" column

usa_data <- usa_data%>%
  mutate(Year = str_remove(Year, " .*"))

usa_data

# A tibble: 340 × 17
   Year  House…¹ Total…² Under…³ $15,0…⁴ $25,0…⁵ 35,00…⁶ $50,0…⁷ $75,0…⁸ $100,…⁹
   <chr> <chr>     <dbl>   <dbl>   <dbl>   <dbl>   <dbl>   <dbl>   <dbl>   <dbl>
 1 2019  128451      100     9.1     8       8.3    11.7    16.5    12.3    15.5
 2 2018  128579      100    10.1     8.8     8.7    12      17      12.5    15  
 3 2017  127669      100    10       9.1     9.2    12      16.4    12.4    14.7
 4 2017  127586      100    10.1     9.1     9.2    11.9    16.3    12.6    14.8
 5 2016  126224      100    10.4     9       9.2    12.3    16.7    12.2    15  
 6 2015  125819      100    10.6    10       9.6    12.1    16.1    12.4    14.9
 7 2014  124587      100    11.4    10.5     9.6    12.6    16.4    12.1    14  
 8 2013  123931      100    11.4    10.3     9.5    12.5    16.8    12      13.9
 9 2013  122952      100    11.3    10.4     9.7    13.1    17      12.5    13.6
10 2012  122459      100    11.4    10.6    10.1    12.5    17.4    12      13.9
# … with 330 more rows, 7 more variables: `$150,000 to $199,999` <dbl>,
#   `$200,000 and over` <dbl>, Median_Income_Estimate <dbl>,
#   Median_Income_MOE <dbl>, Mean_Income_Estimate <chr>, Mean_Income_MOE <chr>,
#   Race <chr>, and abbreviated variable names ¹​Household_Number_Thousands,
#   ²​Total_Percent_Distribution, ³​`Under $15,000`, ⁴​`$15,000 to $24,999`,
#   ⁵​`$25,000 to $34,999`, ⁶​`35,000 to $49,999`, ⁷​`$50,000 to $74,999`,
#   ⁸​`$75,000 to $99,999`, ⁹​`$100,000 to $149,999`

Code

# Removing the footnote number next to the race value in the "Race" column

usa_data <- usa_data%>%
  mutate(Race = str_remove(Race, "[0-9]+"))

usa_data

# A tibble: 340 × 17
   Year  House…¹ Total…² Under…³ $15,0…⁴ $25,0…⁵ 35,00…⁶ $50,0…⁷ $75,0…⁸ $100,…⁹
   <chr> <chr>     <dbl>   <dbl>   <dbl>   <dbl>   <dbl>   <dbl>   <dbl>   <dbl>
 1 2019  128451      100     9.1     8       8.3    11.7    16.5    12.3    15.5
 2 2018  128579      100    10.1     8.8     8.7    12      17      12.5    15  
 3 2017  127669      100    10       9.1     9.2    12      16.4    12.4    14.7
 4 2017  127586      100    10.1     9.1     9.2    11.9    16.3    12.6    14.8
 5 2016  126224      100    10.4     9       9.2    12.3    16.7    12.2    15  
 6 2015  125819      100    10.6    10       9.6    12.1    16.1    12.4    14.9
 7 2014  124587      100    11.4    10.5     9.6    12.6    16.4    12.1    14  
 8 2013  123931      100    11.4    10.3     9.5    12.5    16.8    12      13.9
 9 2013  122952      100    11.3    10.4     9.7    13.1    17      12.5    13.6
10 2012  122459      100    11.4    10.6    10.1    12.5    17.4    12      13.9
# … with 330 more rows, 7 more variables: `$150,000 to $199,999` <dbl>,
#   `$200,000 and over` <dbl>, Median_Income_Estimate <dbl>,
#   Median_Income_MOE <dbl>, Mean_Income_Estimate <chr>, Mean_Income_MOE <chr>,
#   Race <chr>, and abbreviated variable names ¹​Household_Number_Thousands,
#   ²​Total_Percent_Distribution, ³​`Under $15,000`, ⁴​`$15,000 to $24,999`,
#   ⁵​`$25,000 to $34,999`, ⁶​`35,000 to $49,999`, ⁷​`$50,000 to $74,999`,
#   ⁸​`$75,000 to $99,999`, ⁹​`$100,000 to $149,999`

Code

# Remove the "Total_Percent_Distribution" column as that value is 100 for all observations

usa_data <- usa_data%>%
  subset(select = -c(3))

usa_data

# A tibble: 340 × 16
   Year  House…¹ Under…² $15,0…³ $25,0…⁴ 35,00…⁵ $50,0…⁶ $75,0…⁷ $100,…⁸ $150,…⁹
   <chr> <chr>     <dbl>   <dbl>   <dbl>   <dbl>   <dbl>   <dbl>   <dbl>   <dbl>
 1 2019  128451      9.1     8       8.3    11.7    16.5    12.3    15.5     8.3
 2 2018  128579     10.1     8.8     8.7    12      17      12.5    15       7.2
 3 2017  127669     10       9.1     9.2    12      16.4    12.4    14.7     7.3
 4 2017  127586     10.1     9.1     9.2    11.9    16.3    12.6    14.8     7.5
 5 2016  126224     10.4     9       9.2    12.3    16.7    12.2    15       7.2
 6 2015  125819     10.6    10       9.6    12.1    16.1    12.4    14.9     7.1
 7 2014  124587     11.4    10.5     9.6    12.6    16.4    12.1    14       6.6
 8 2013  123931     11.4    10.3     9.5    12.5    16.8    12      13.9     6.7
 9 2013  122952     11.3    10.4     9.7    13.1    17      12.5    13.6     6.3
10 2012  122459     11.4    10.6    10.1    12.5    17.4    12      13.9     6.3
# … with 330 more rows, 6 more variables: `$200,000 and over` <dbl>,
#   Median_Income_Estimate <dbl>, Median_Income_MOE <dbl>,
#   Mean_Income_Estimate <chr>, Mean_Income_MOE <chr>, Race <chr>, and
#   abbreviated variable names ¹​Household_Number_Thousands, ²​`Under $15,000`,
#   ³​`$15,000 to $24,999`, ⁴​`$25,000 to $34,999`, ⁵​`35,000 to $49,999`,
#   ⁶​`$50,000 to $74,999`, ⁷​`$75,000 to $99,999`, ⁸​`$100,000 to $149,999`,
#   ⁹​`$150,000 to $199,999`

Code

# Reorder the columns in the usa_data dataframe so that "Race" is the first column followed by "Year"

usa_data <- usa_data%>%
  subset(select=c(16, 1, 2, 3, 4, 5, 6, 7, 8, 9, 10, 11, 12, 13, 14, 15))

usa_data

# A tibble: 340 × 16
   Race    Year  House…¹ Under…² $15,0…³ $25,0…⁴ 35,00…⁵ $50,0…⁶ $75,0…⁷ $100,…⁸
   <chr>   <chr> <chr>     <dbl>   <dbl>   <dbl>   <dbl>   <dbl>   <dbl>   <dbl>
 1 ALL RA… 2019  128451      9.1     8       8.3    11.7    16.5    12.3    15.5
 2 ALL RA… 2018  128579     10.1     8.8     8.7    12      17      12.5    15  
 3 ALL RA… 2017  127669     10       9.1     9.2    12      16.4    12.4    14.7
 4 ALL RA… 2017  127586     10.1     9.1     9.2    11.9    16.3    12.6    14.8
 5 ALL RA… 2016  126224     10.4     9       9.2    12.3    16.7    12.2    15  
 6 ALL RA… 2015  125819     10.6    10       9.6    12.1    16.1    12.4    14.9
 7 ALL RA… 2014  124587     11.4    10.5     9.6    12.6    16.4    12.1    14  
 8 ALL RA… 2013  123931     11.4    10.3     9.5    12.5    16.8    12      13.9
 9 ALL RA… 2013  122952     11.3    10.4     9.7    13.1    17      12.5    13.6
10 ALL RA… 2012  122459     11.4    10.6    10.1    12.5    17.4    12      13.9
# … with 330 more rows, 6 more variables: `$150,000 to $199,999` <dbl>,
#   `$200,000 and over` <dbl>, Median_Income_Estimate <dbl>,
#   Median_Income_MOE <dbl>, Mean_Income_Estimate <chr>, Mean_Income_MOE <chr>,
#   and abbreviated variable names ¹​Household_Number_Thousands,
#   ²​`Under $15,000`, ³​`$15,000 to $24,999`, ⁴​`$25,000 to $34,999`,
#   ⁵​`35,000 to $49,999`, ⁶​`$50,000 to $74,999`, ⁷​`$75,000 to $99,999`,
#   ⁸​`$100,000 to $149,999`
…
One easy way to do this is to think about the dimensions of your current data (tibble, dataframe, or matrix), and then calculate what the dimensions of the pivoted data should be.

Suppose you have a dataset with \(n\) rows and \(k\) variables. In our example, 3 of the variables are used to identify a case, so you will be pivoting \(k-3\) variables into a longer format where the \(k-3\) variable names will move into the names_to variable and the current values in each of those columns will move into the values_to variable. Therefore, we would expect \(n * (k-3)\) rows in the pivoted dataframe!

Challenge: Describe the final dimensions

Document your work here.

Code

# Printing the dataframe
usa_data

# A tibble: 340 × 16
   Race    Year  House…¹ Under…² $15,0…³ $25,0…⁴ 35,00…⁵ $50,0…⁶ $75,0…⁷ $100,…⁸
   <chr>   <chr> <chr>     <dbl>   <dbl>   <dbl>   <dbl>   <dbl>   <dbl>   <dbl>
 1 ALL RA… 2019  128451      9.1     8       8.3    11.7    16.5    12.3    15.5
 2 ALL RA… 2018  128579     10.1     8.8     8.7    12      17      12.5    15  
 3 ALL RA… 2017  127669     10       9.1     9.2    12      16.4    12.4    14.7
 4 ALL RA… 2017  127586     10.1     9.1     9.2    11.9    16.3    12.6    14.8
 5 ALL RA… 2016  126224     10.4     9       9.2    12.3    16.7    12.2    15  
 6 ALL RA… 2015  125819     10.6    10       9.6    12.1    16.1    12.4    14.9
 7 ALL RA… 2014  124587     11.4    10.5     9.6    12.6    16.4    12.1    14  
 8 ALL RA… 2013  123931     11.4    10.3     9.5    12.5    16.8    12      13.9
 9 ALL RA… 2013  122952     11.3    10.4     9.7    13.1    17      12.5    13.6
10 ALL RA… 2012  122459     11.4    10.6    10.1    12.5    17.4    12      13.9
# … with 330 more rows, 6 more variables: `$150,000 to $199,999` <dbl>,
#   `$200,000 and over` <dbl>, Median_Income_Estimate <dbl>,
#   Median_Income_MOE <dbl>, Mean_Income_Estimate <chr>, Mean_Income_MOE <chr>,
#   and abbreviated variable names ¹​Household_Number_Thousands,
#   ²​`Under $15,000`, ³​`$15,000 to $24,999`, ⁴​`$25,000 to $34,999`,
#   ⁵​`35,000 to $49,999`, ⁶​`$50,000 to $74,999`, ⁷​`$75,000 to $99,999`,
#   ⁸​`$100,000 to $149,999`

Code

# Removing the columns containing mean and median income

usa_data_final <- usa_data%>%
  subset(select=(-c(13,14,15,16)))

usa_data_final

# A tibble: 340 × 12
   Race    Year  House…¹ Under…² $15,0…³ $25,0…⁴ 35,00…⁵ $50,0…⁶ $75,0…⁷ $100,…⁸
   <chr>   <chr> <chr>     <dbl>   <dbl>   <dbl>   <dbl>   <dbl>   <dbl>   <dbl>
 1 ALL RA… 2019  128451      9.1     8       8.3    11.7    16.5    12.3    15.5
 2 ALL RA… 2018  128579     10.1     8.8     8.7    12      17      12.5    15  
 3 ALL RA… 2017  127669     10       9.1     9.2    12      16.4    12.4    14.7
 4 ALL RA… 2017  127586     10.1     9.1     9.2    11.9    16.3    12.6    14.8
 5 ALL RA… 2016  126224     10.4     9       9.2    12.3    16.7    12.2    15  
 6 ALL RA… 2015  125819     10.6    10       9.6    12.1    16.1    12.4    14.9
 7 ALL RA… 2014  124587     11.4    10.5     9.6    12.6    16.4    12.1    14  
 8 ALL RA… 2013  123931     11.4    10.3     9.5    12.5    16.8    12      13.9
 9 ALL RA… 2013  122952     11.3    10.4     9.7    13.1    17      12.5    13.6
10 ALL RA… 2012  122459     11.4    10.6    10.1    12.5    17.4    12      13.9
# … with 330 more rows, 2 more variables: `$150,000 to $199,999` <dbl>,
#   `$200,000 and over` <dbl>, and abbreviated variable names
#   ¹​Household_Number_Thousands, ²​`Under $15,000`, ³​`$15,000 to $24,999`,
#   ⁴​`$25,000 to $34,999`, ⁵​`35,000 to $49,999`, ⁶​`$50,000 to $74,999`,
#   ⁷​`$75,000 to $99,999`, ⁸​`$100,000 to $149,999`
…
Now we will pivot the data, and compare our pivoted data dimensions to the dimensions calculated above as a “sanity” check.

Challenge: Pivot the Chosen Data

Document your work here. What will a new “case” be once you have pivoted the data? How does it meet requirements for tidy data?

Code

# Pivoting the data using pivot_longer()
df <- pivot_longer(usa_data_final, col = c(4:12),
                   names_to = "Income Level",
                   values_to = "Percent Value")
df

# A tibble: 3,060 × 5
   Race      Year  Household_Number_Thousands `Income Level`       Percent Val…¹
   <chr>     <chr> <chr>                      <chr>                        <dbl>
 1 ALL RACES 2019  128451                     Under $15,000                  9.1
 2 ALL RACES 2019  128451                     $15,000 to $24,999             8  
 3 ALL RACES 2019  128451                     $25,000 to $34,999             8.3
 4 ALL RACES 2019  128451                     35,000 to $49,999             11.7
 5 ALL RACES 2019  128451                     $50,000 to $74,999            16.5
 6 ALL RACES 2019  128451                     $75,000 to $99,999            12.3
 7 ALL RACES 2019  128451                     $100,000 to $149,999          15.5
 8 ALL RACES 2019  128451                     $150,000 to $199,999           8.3
 9 ALL RACES 2019  128451                     $200,000 and over             10.3
10 ALL RACES 2018  128579                     Under $15,000                 10.1
# … with 3,050 more rows, and abbreviated variable name ¹​`Percent Value`
…
