DACSS 601: Data Science Fundamentals - FALL 2022 - Challenge 4
…
FedFundsRate.csv⭐⭐⭐

hotel_bookings.csv⭐⭐⭐⭐

debt_in_trillions.xlsx ⭐⭐⭐⭐⭐

Code

# read in FedFundsRate dataset
FedFundsRate <- read_csv("_data/FedFundsRate.csv")
# view FedFundsRate dataset
FedFundsRate

# A tibble: 904 × 10
    Year Month   Day Federal F…¹ Feder…² Feder…³ Effec…⁴ Real …⁵ Unemp…⁶ Infla…⁷
   <dbl> <dbl> <dbl>       <dbl>   <dbl>   <dbl>   <dbl>   <dbl>   <dbl>   <dbl>
 1  1954     7     1          NA      NA      NA    0.8      4.6     5.8      NA
 2  1954     8     1          NA      NA      NA    1.22    NA       6        NA
 3  1954     9     1          NA      NA      NA    1.06    NA       6.1      NA
 4  1954    10     1          NA      NA      NA    0.85     8       5.7      NA
 5  1954    11     1          NA      NA      NA    0.83    NA       5.3      NA
 6  1954    12     1          NA      NA      NA    1.28    NA       5        NA
 7  1955     1     1          NA      NA      NA    1.39    11.9     4.9      NA
 8  1955     2     1          NA      NA      NA    1.29    NA       4.7      NA
 9  1955     3     1          NA      NA      NA    1.35    NA       4.6      NA
10  1955     4     1          NA      NA      NA    1.43     6.7     4.7      NA
# … with 894 more rows, and abbreviated variable names
#   ¹​`Federal Funds Target Rate`, ²​`Federal Funds Upper Target`,
#   ³​`Federal Funds Lower Target`, ⁴​`Effective Federal Funds Rate`,
#   ⁵​`Real GDP (Percent Change)`, ⁶​`Unemployment Rate`, ⁷​`Inflation Rate`
…
Code

# expected columns/variables
ncol(FedFundsRate) - 1

[1] 9

Code

# pivot longer FedFundsRate
FedFundsRate <- pivot_longer(FedFundsRate, cols = c("Federal Funds Target Rate", "Federal Funds Upper Target", "Federal Funds Lower Target"), names_to = "Targets", values_to = "Value")
# view the pivoted dataset
FedFundsRate

# A tibble: 2,712 × 9
    Year Month   Day Effective Federal F…¹ Real …² Unemp…³ Infla…⁴ Targets Value
   <dbl> <dbl> <dbl>                 <dbl>   <dbl>   <dbl>   <dbl> <chr>   <dbl>
 1  1954     7     1                  0.8      4.6     5.8      NA Federa…    NA
 2  1954     7     1                  0.8      4.6     5.8      NA Federa…    NA
 3  1954     7     1                  0.8      4.6     5.8      NA Federa…    NA
 4  1954     8     1                  1.22    NA       6        NA Federa…    NA
 5  1954     8     1                  1.22    NA       6        NA Federa…    NA
 6  1954     8     1                  1.22    NA       6        NA Federa…    NA
 7  1954     9     1                  1.06    NA       6.1      NA Federa…    NA
 8  1954     9     1                  1.06    NA       6.1      NA Federa…    NA
 9  1954     9     1                  1.06    NA       6.1      NA Federa…    NA
10  1954    10     1                  0.85     8       5.7      NA Federa…    NA
# … with 2,702 more rows, and abbreviated variable names
#   ¹​`Effective Federal Funds Rate`, ²​`Real GDP (Percent Change)`,
#   ³​`Unemployment Rate`, ⁴​`Inflation Rate`
…
Document your work here.

We see that the year, month, and day are separated into their own columns so they need to be condensed into one column. Once this column is created, we can remove the Year, Month, and Day columns from the dataset.

Code

# create dates by combining Year, Month, and Day columns and delete those three columns
FedFundsRate <- FedFundsRate %>% 
  mutate(Date = make_date(Year, Month, Day)) %>% 
  select(!contains(c("Year", "Month", "Day")))
# view the dataset
FedFundsRate

# A tibble: 2,712 × 7
   Effective Federal Funds Ra…¹ Real …² Unemp…³ Infla…⁴ Targets Value Date      
                          <dbl>   <dbl>   <dbl>   <dbl> <chr>   <dbl> <date>    
 1                         0.8      4.6     5.8      NA Federa…    NA 1954-07-01
 2                         0.8      4.6     5.8      NA Federa…    NA 1954-07-01
 3                         0.8      4.6     5.8      NA Federa…    NA 1954-07-01
 4                         1.22    NA       6        NA Federa…    NA 1954-08-01
 5                         1.22    NA       6        NA Federa…    NA 1954-08-01
 6                         1.22    NA       6        NA Federa…    NA 1954-08-01
 7                         1.06    NA       6.1      NA Federa…    NA 1954-09-01
 8                         1.06    NA       6.1      NA Federa…    NA 1954-09-01
 9                         1.06    NA       6.1      NA Federa…    NA 1954-09-01
10                         0.85     8       5.7      NA Federa…    NA 1954-10-01
# … with 2,702 more rows, and abbreviated variable names
#   ¹​`Effective Federal Funds Rate`, ²​`Real GDP (Percent Change)`,
#   ³​`Unemployment Rate`, ⁴​`Inflation Rate`
…
