DACSS 601: Data Science Fundamentals - FALL 2022 - Challenge 8
…
us_hh ⭐⭐⭐⭐

snl ⭐⭐⭐⭐⭐

# read in snl actors dataset
actors_orig <- read_csv("_data/snl_actors.csv")
# read in snl casts dataset
casts_orig <- read_csv("_data/snl_casts.csv")
# read in snl seasons dataset
seasons_orig <- read_csv("_data/snl_seasons.csv")
# view datasets
actors_orig

# A tibble: 2,306 × 4
   aid            url           type  gender 
   <chr>          <chr>         <chr> <chr>  
 1 Kate McKinnon  /Cast/?KaMc   cast  female 
 2 Alex Moffat    /Cast/?AlMo   cast  male   
 3 Ego Nwodim     /Cast/?EgNw   cast  unknown
 4 Chris Redd     /Cast/?ChRe   cast  male   
 5 Kenan Thompson /Cast/?KeTh   cast  male   
 6 Carey Mulligan /Guests/?3677 guest andy   
 7 Marcus Mumford /Guests/?3679 guest male   
 8 Aidy Bryant    /Cast/?AiBr   cast  female 
 9 Steve Higgins  /Crew/?StHi   crew  male   
10 Mikey Day      /Cast/?MiDa   cast  male   
# … with 2,296 more rows

casts_orig

# A tibble: 614 × 8
   aid                sid featured first_epid last_epid update…¹ n_epi…² seaso…³
   <chr>            <dbl> <lgl>         <dbl>     <dbl> <lgl>      <dbl>   <dbl>
 1 A. Whitney Brown    11 TRUE       19860222        NA FALSE          8   0.444
 2 A. Whitney Brown    12 TRUE             NA        NA FALSE         20   1    
 3 A. Whitney Brown    13 TRUE             NA        NA FALSE         13   1    
 4 A. Whitney Brown    14 TRUE             NA        NA FALSE         20   1    
 5 A. Whitney Brown    15 TRUE             NA        NA FALSE         20   1    
 6 A. Whitney Brown    16 TRUE             NA        NA FALSE         20   1    
 7 Alan Zweibel         5 TRUE       19800409        NA FALSE          5   0.25 
 8 Sasheer Zamata      39 TRUE       20140118        NA FALSE         11   0.524
 9 Sasheer Zamata      40 TRUE             NA        NA FALSE         21   1    
10 Sasheer Zamata      41 FALSE            NA        NA FALSE         21   1    
# … with 604 more rows, and abbreviated variable names ¹​update_anchor,
#   ²​n_episodes, ³​season_fraction

seasons_orig

# A tibble: 46 × 5
     sid  year first_epid last_epid n_episodes
   <dbl> <dbl>      <dbl>     <dbl>      <dbl>
 1     1  1975   19751011  19760731         24
 2     2  1976   19760918  19770521         22
 3     3  1977   19770924  19780520         20
 4     4  1978   19781007  19790526         20
 5     5  1979   19791013  19800524         20
 6     6  1980   19801115  19810411         13
 7     7  1981   19811003  19820522         20
 8     8  1982   19820925  19830514         20
 9     9  1983   19831008  19840512         19
10    10  1984   19841006  19850413         17
# … with 36 more rows
…
