DACSS 601: Data Science Fundamentals - FALL 2022 - Challenge 5
…
  pivot_longer(cols = "Pre-K":"Grade 13", names_to = "Grade", values_to = "Students in Grade") %>% 
  # combine school type columns into one column
  # pivot_longer(cols = c("Virtual School", "School Type", "School Level", "Charter School", "Magnet School"), names_to = "Type of School", values_to = "Value") %>% 
  # combine race/ethnicity columns into one column
  # pivot_longer(cols = "American Indian/Alaska Native - Male":"Two or More Races - Female", names_to = "Race/Ethnicity", values_to = "Students with Race/Ethnicity")
  # replace certain values with NA
  na_if("-1") %>% 
  na_if("M") %>% 
  na_if("-2") %>% 
  na_if("N") %>% 
  na_if("-9")
# view school_clean dataset
school_clean

# A tibble: 1,510,935 × 37
   County    Agency School Address Phone Virtu…¹ Free …² Reduc…³ Total…⁴ Latit…⁵
   <chr>     <chr>  <chr>  <chr>   <chr> <chr>     <dbl>   <dbl>   <dbl>   <dbl>
 1 Matanusk… Matan… John … 3750 E… (907… Not a …     158      25    24.9    61.6
 2 Matanusk… Matan… John … 3750 E… (907… Not a …     158      25    24.9    61.6
 3 Matanusk… Matan… John … 3750 E… (907… Not a …     158      25    24.9    61.6
 4 Matanusk… Matan… John … 3750 E… (907… Not a …     158      25    24.9    61.6
 5 Matanusk… Matan… John … 3750 E… (907… Not a …     158      25    24.9    61.6
 6 Matanusk… Matan… John … 3750 E… (907… Not a …     158      25    24.9    61.6
 7 Matanusk… Matan… John … 3750 E… (907… Not a …     158      25    24.9    61.6
 8 Matanusk… Matan… John … 3750 E… (907… Not a …     158      25    24.9    61.6
 9 Matanusk… Matan… John … 3750 E… (907… Not a …     158      25    24.9    61.6
10 Matanusk… Matan… John … 3750 E… (907… Not a …     158      25    24.9    61.6
# … with 1,510,925 more rows, 27 more variables: Longitude <dbl>,
#   `Locale Code` <chr>, `Student/Teacher Ratio` <dbl>,
#   `School-Wide Title 1` <chr>, `American Indian/Alaska Native - Male` <dbl>,
#   `American Indian/Alaska Native - Female` <dbl>,
#   `Asian/Pacific Islander - Male` <dbl>,
#   `Asian/Pacific Islander - Female` <dbl>, `Hispanic - Male` <dbl>,
#   `Hispanic - Female` <dbl>, `Black - Male` <dbl>, `Black - Female` <dbl>, …
…
