DACSS 601: Data Science Fundamentals - FALL 2022 - Challenge 7
…
us_hh ⭐⭐⭐⭐

faostat ⭐⭐⭐⭐⭐

Note

Please note that since this challenge is to recreate my graphs from previous challenges, I will be using the same dataset (hotel_bookings.csv) to recreate my graphs from Challenge 6, hence why my code for reading in, tidying, and mutating the dataset will also be the same.

# read in hotel data
hotel_orig <- read_csv("_data/hotel_bookings.csv")
# view hotel data
hotel_orig

# A tibble: 119,390 × 32
   hotel  is_ca…¹ lead_…² arriv…³ arriv…⁴ arriv…⁵ arriv…⁶ stays…⁷ stays…⁸ adults
   <chr>    <dbl>   <dbl>   <dbl> <chr>     <dbl>   <dbl>   <dbl>   <dbl>  <dbl>
 1 Resor…       0     342    2015 July         27       1       0       0      2
 2 Resor…       0     737    2015 July         27       1       0       0      2
 3 Resor…       0       7    2015 July         27       1       0       1      1
 4 Resor…       0      13    2015 July         27       1       0       1      1
 5 Resor…       0      14    2015 July         27       1       0       2      2
 6 Resor…       0      14    2015 July         27       1       0       2      2
 7 Resor…       0       0    2015 July         27       1       0       2      2
 8 Resor…       0       9    2015 July         27       1       0       2      2
 9 Resor…       1      85    2015 July         27       1       0       3      2
10 Resor…       1      75    2015 July         27       1       0       3      2
# … with 119,380 more rows, 22 more variables: children <dbl>, babies <dbl>,
#   meal <chr>, country <chr>, market_segment <chr>,
#   distribution_channel <chr>, is_repeated_guest <dbl>,
#   previous_cancellations <dbl>, previous_bookings_not_canceled <dbl>,
#   reserved_room_type <chr>, assigned_room_type <chr>, booking_changes <dbl>,
#   deposit_type <chr>, agent <chr>, company <chr>, days_in_waiting_list <dbl>,
#   customer_type <chr>, adr <dbl>, required_car_parking_spaces <dbl>, …
…
Tidy Data (as needed)

Is your data already tidy, or is there work to be done? Be sure to anticipate your end result to provide a sanity check, and document your work here.

This data is mostly tidy so the only thing that needs to be done is to combine the arrival_date_year, arrival_date_month, and arrival_date_day_of_month variables into one column as the arrival_date, similar to the date format of reservation_status_date.

hotel <- hotel_orig %>% 
  # combine the date columns into one column
  unite(arrival_date_year, arrival_date_month, arrival_date_day_of_month,
        col = arrival_date, sep = "-")
# view new hotel data
hotel

# A tibble: 119,390 × 30
   hotel   is_ca…¹ lead_…² arriv…³ arriv…⁴ stays…⁵ stays…⁶ adults child…⁷ babies
   <chr>     <dbl>   <dbl> <chr>     <dbl>   <dbl>   <dbl>  <dbl>   <dbl>  <dbl>
 1 Resort…       0     342 2015-J…      27       0       0      2       0      0
 2 Resort…       0     737 2015-J…      27       0       0      2       0      0
 3 Resort…       0       7 2015-J…      27       0       1      1       0      0
 4 Resort…       0      13 2015-J…      27       0       1      1       0      0
 5 Resort…       0      14 2015-J…      27       0       2      2       0      0
 6 Resort…       0      14 2015-J…      27       0       2      2       0      0
 7 Resort…       0       0 2015-J…      27       0       2      2       0      0
 8 Resort…       0       9 2015-J…      27       0       2      2       0      0
 9 Resort…       1      85 2015-J…      27       0       3      2       0      0
10 Resort…       1      75 2015-J…      27       0       3      2       0      0
# … with 119,380 more rows, 20 more variables: meal <chr>, country <chr>,
#   market_segment <chr>, distribution_channel <chr>, is_repeated_guest <dbl>,
#   previous_cancellations <dbl>, previous_bookings_not_canceled <dbl>,
#   reserved_room_type <chr>, assigned_room_type <chr>, booking_changes <dbl>,
#   deposit_type <chr>, agent <chr>, company <chr>, days_in_waiting_list <dbl>,
#   customer_type <chr>, adr <dbl>, required_car_parking_spaces <dbl>,
#   total_of_special_requests <dbl>, reservation_status <chr>, …
…
Document your work here.

There are several variables (hotel, meal, reserved_room_type, etc.) that need to be converted into factors and arrival_date needs to be converted into a date format.

hotel <- hotel %>% 
  # convert hotel, is_canceled, etc., columns to factors
  mutate(across(c(hotel, is_canceled, meal:is_repeated_guest, reserved_room_type:assigned_room_type, deposit_type:company, 
                  customer_type, reservation_status), factor)) 
# convert arrival_date into date format
hotel$arrival_date <- ymd(hotel$arrival_date)
# view new hotel dataset
hotel

# A tibble: 119,390 × 30
   hotel       is_ca…¹ lead_…² arrival_…³ arriv…⁴ stays…⁵ stays…⁶ adults child…⁷
   <fct>       <fct>     <dbl> <date>       <dbl>   <dbl>   <dbl>  <dbl>   <dbl>
 1 Resort Hot… 0           342 2015-07-01      27       0       0      2       0
 2 Resort Hot… 0           737 2015-07-01      27       0       0      2       0
 3 Resort Hot… 0             7 2015-07-01      27       0       1      1       0
 4 Resort Hot… 0            13 2015-07-01      27       0       1      1       0
 5 Resort Hot… 0            14 2015-07-01      27       0       2      2       0
 6 Resort Hot… 0            14 2015-07-01      27       0       2      2       0
 7 Resort Hot… 0             0 2015-07-01      27       0       2      2       0
 8 Resort Hot… 0             9 2015-07-01      27       0       2      2       0
 9 Resort Hot… 1            85 2015-07-01      27       0       3      2       0
10 Resort Hot… 1            75 2015-07-01      27       0       3      2       0
# … with 119,380 more rows, 21 more variables: babies <dbl>, meal <fct>,
#   country <fct>, market_segment <fct>, distribution_channel <fct>,
#   is_repeated_guest <fct>, previous_cancellations <dbl>,
#   previous_bookings_not_canceled <dbl>, reserved_room_type <fct>,
#   assigned_room_type <fct>, booking_changes <dbl>, deposit_type <fct>,
#   agent <fct>, company <fct>, days_in_waiting_list <dbl>,
#   customer_type <fct>, adr <dbl>, required_car_parking_spaces <dbl>, …
…
