DACSS 601: Data Science Fundamentals - FALL 2022 - Caitlin Rowley - HW3
…
This summary indicates that _______________________________________

# summary statistics for categorical variables:

Boston_id <- Boston_mutate%>%
  filter(host_id>1)%>%
  group_by(neighborhood)

print(Boston_id)

# A tibble: 5,185 × 18
# Groups:   neighborhood [26]
   room_id room_name     host_id host_…¹ neigh…² room_…³ room_…⁴ room_…⁵ room_…⁶
     <dbl> <chr>           <dbl> <chr>   <chr>     <dbl>   <dbl> <chr>     <dbl>
 1    3168 TudorStudio      3697 Mark    Bright…    42.4   -71.2 Privat…      99
 2    3781 HARBORSIDE-W…    4804 Frank   East B…    42.4   -71.0 Entire…     132
 3    5506 ** Fort Hill…    8229 Terry   Roxbury    42.3   -71.1 Entire…     149
 4    6695 Fort Hill In…    8229 Terry   Roxbury    42.3   -71.1 Entire…     179
 5    7903 Colorful, mo…   14169 Stacy   Charle…    42.4   -71.1 Privat…     116
 6    8521 SunsplashedS…  306681 Janet   Allston    42.4   -71.1 Entire…     300
 7    8789 Curved Glass…   26988 Anne    Beacon…    42.4   -71.1 Entire…     110
 8   10813 Back Bay Apt…   38997 Michel… Back B…    42.4   -71.1 Entire…     135
 9   10986 North End (W…   38997 Michel… North …    42.4   -71.1 Entire…     135
10   18711 230B1 · The …   71783 Lance   Dorche…    42.3   -71.1 Entire…     133
# … with 5,175 more rows, 9 more variables: min_nights <dbl>,
#   number_reviews <dbl>, last_review <chr>, reviews_per_month <dbl>,
#   host_listings <dbl>, availability_next_365 <dbl>, number_reviews_LTM <dbl>,
#   room_license <chr>, room_coordinates <chr>, and abbreviated variable names
#   ¹​host_name, ²​neighborhood, ³​room_latitude, ⁴​room_longitude, ⁵​room_type,
#   ⁶​room_price
…
is_outlier <- function(x) {
  return(x < quantile(x, 0.25) - 1.5 * IQR(x) | x > quantile(x, 0.75) + 1.5 * IQR(x))
}

Boston_outlier <- Boston_mutate %>%
  filter(!is_outlier(room_price))

# create dataframe:

Boston_outlier%>%
  filter(room_price>0, room_price<800) %>%
  group_by(room_type, neighborhood)

# A tibble: 4,918 × 18
# Groups:   room_type, neighborhood [65]
   room_id room_name     host_id host_…¹ neigh…² room_…³ room_…⁴ room_…⁵ room_…⁶
     <dbl> <chr>           <dbl> <chr>   <chr>     <dbl>   <dbl> <chr>     <dbl>
 1    3168 TudorStudio      3697 Mark    Bright…    42.4   -71.2 Privat…      99
 2    3781 HARBORSIDE-W…    4804 Frank   East B…    42.4   -71.0 Entire…     132
 3    5506 ** Fort Hill…    8229 Terry   Roxbury    42.3   -71.1 Entire…     149
 4    6695 Fort Hill In…    8229 Terry   Roxbury    42.3   -71.1 Entire…     179
 5    7903 Colorful, mo…   14169 Stacy   Charle…    42.4   -71.1 Privat…     116
 6    8521 SunsplashedS…  306681 Janet   Allston    42.4   -71.1 Entire…     300
 7    8789 Curved Glass…   26988 Anne    Beacon…    42.4   -71.1 Entire…     110
 8   10813 Back Bay Apt…   38997 Michel… Back B…    42.4   -71.1 Entire…     135
 9   10986 North End (W…   38997 Michel… North …    42.4   -71.1 Entire…     135
10   18711 230B1 · The …   71783 Lance   Dorche…    42.3   -71.1 Entire…     133
# … with 4,908 more rows, 9 more variables: min_nights <dbl>,
#   number_reviews <dbl>, last_review <chr>, reviews_per_month <dbl>,
#   host_listings <dbl>, availability_next_365 <dbl>, number_reviews_LTM <dbl>,
#   room_license <chr>, room_coordinates <chr>, and abbreviated variable names
#   ¹​host_name, ²​neighborhood, ³​room_latitude, ⁴​room_longitude, ⁵​room_type,
#   ⁶​room_price
…
# merge 'ma_map' and 'Boston_tidy' by coordinates

# mutate and rename columns

Boston_mutate %>%
  rename("coordinates" = "room_coordinates")

# A tibble: 5,185 × 18
   room_id room_name     host_id host_…¹ neigh…² room_…³ room_…⁴ room_…⁵ room_…⁶
     <dbl> <chr>           <dbl> <chr>   <chr>     <dbl>   <dbl> <chr>     <dbl>
 1    3168 TudorStudio      3697 Mark    Bright…    42.4   -71.2 Privat…      99
 2    3781 HARBORSIDE-W…    4804 Frank   East B…    42.4   -71.0 Entire…     132
 3    5506 ** Fort Hill…    8229 Terry   Roxbury    42.3   -71.1 Entire…     149
 4    6695 Fort Hill In…    8229 Terry   Roxbury    42.3   -71.1 Entire…     179
 5    7903 Colorful, mo…   14169 Stacy   Charle…    42.4   -71.1 Privat…     116
 6    8521 SunsplashedS…  306681 Janet   Allston    42.4   -71.1 Entire…     300
 7    8789 Curved Glass…   26988 Anne    Beacon…    42.4   -71.1 Entire…     110
 8   10813 Back Bay Apt…   38997 Michel… Back B…    42.4   -71.1 Entire…     135
 9   10986 North End (W…   38997 Michel… North …    42.4   -71.1 Entire…     135
10   18711 230B1 · The …   71783 Lance   Dorche…    42.3   -71.1 Entire…     133
# … with 5,175 more rows, 9 more variables: min_nights <dbl>,
#   number_reviews <dbl>, last_review <chr>, reviews_per_month <dbl>,
#   host_listings <dbl>, availability_next_365 <dbl>, number_reviews_LTM <dbl>,
#   room_license <chr>, coordinates <chr>, and abbreviated variable names
#   ¹​host_name, ²​neighborhood, ³​room_latitude, ⁴​room_longitude, ⁵​room_type,
#   ⁶​room_price
…
