DACSS 601: Data Science Fundamentals - FALL 2022 - Challenge 1 Abby Balint
…
describe the dataset using both words and any supporting information (e.g., tables, etc)

Read in the Data

Read in one (or more) of the following data sets, using the correct R package and command.

railroad_2012_clean_county.csv ⭐

Code

library(tidyverse)
read_csv("_data/railroad_2012_clean_county.csv")

# A tibble: 2,930 × 3
   state county               total_employees
   <chr> <chr>                          <dbl>
 1 AE    APO                                2
 2 AK    ANCHORAGE                          7
 3 AK    FAIRBANKS NORTH STAR               2
 4 AK    JUNEAU                             3
 5 AK    MATANUSKA-SUSITNA                  2
 6 AK    SITKA                              1
 7 AK    SKAGWAY MUNICIPALITY              88
 8 AL    AUTAUGA                          102
 9 AL    BALDWIN                          143
10 AL    BARBOUR                            1
# … with 2,920 more rows
…
dim(railroad)

[1] 2930    3

Filtering

If I filter the data by a single state, it makes it easier to look at the number of employees and the county breakdown by that state. (Kentucky example) I can now see there is 119 counties (rows) reported.

Code

library(dplyr)
filter(railroad, `state` == "KY")

# A tibble: 119 × 3
   state county   total_employees
   <chr> <chr>              <dbl>
 1 KY    ADAIR                  1
 2 KY    ALLEN                  5
 3 KY    ANDERSON               5
 4 KY    BALLARD                7
 5 KY    BARREN                 5
 6 KY    BATH                   3
 7 KY    BELL                  27
 8 KY    BOONE                236
 9 KY    BOURBON                8
10 KY    BOYD                 232
# … with 109 more rows
…
