DACSS 601: Data Science Fundamentals - FALL 2022 - Challenge 3 Instructions
…
Code

#final tidy DF
mutatedData

# A tibble: 340 × 17
   Race     Year   Count totDi…¹ Perce…² Perce…³ Perce…⁴ Perce…⁵ Perce…⁶ Perce…⁷
   <chr>    <chr>  <dbl>   <dbl>   <dbl>   <dbl>   <dbl>   <dbl>   <dbl>   <dbl>
 1 ALL RAC… 2019  128451     100     9.1     8       8.3    11.7    16.5    12.3
 2 ALL RAC… 2018  128579     100    10.1     8.8     8.7    12      17      12.5
 3 ALL RAC… 2017  127669     100    10       9.1     9.2    12      16.4    12.4
 4 ALL RAC… 2017  127586     100    10.1     9.1     9.2    11.9    16.3    12.6
 5 ALL RAC… 2016  126224     100    10.4     9       9.2    12.3    16.7    12.2
 6 ALL RAC… 2015  125819     100    10.6    10       9.6    12.1    16.1    12.4
 7 ALL RAC… 2014  124587     100    11.4    10.5     9.6    12.6    16.4    12.1
 8 ALL RAC… 2013  123931     100    11.4    10.3     9.5    12.5    16.8    12  
 9 ALL RAC… 2013  122952     100    11.3    10.4     9.7    13.1    17      12.5
10 ALL RAC… 2012  122459     100    11.4    10.6    10.1    12.5    17.4    12  
# … with 330 more rows, 7 more variables: Percentdist100_150 <dbl>,
#   Percentdist150_200 <dbl>, Percentdist200andover <dbl>,
#   MedianIncome_est <dbl>, MedianIncome_MOE <dbl>, MeanIncome_est <dbl>,
#   MeanIncome_MOE <dbl>, and abbreviated variable names ¹​totDistSum,
#   ²​Percentdist_under15, ³​Percentdist15_25, ⁴​Percentdist25_35,
#   ⁵​Percentdist35_50, ⁶​Percentdist50_75, ⁷​Percentdist75_100
…
Challenge: Pivot the Chosen Data

Document your work here. What will a new “case” be once you have pivoted the data? How does it meet requirements for tidy data?

If you wanted to see a side by side of the mean and median income estimates and MOE you could pivot your data as follows.

Code

mutatedData <- mutatedData %>% pivot_longer(c(MedianIncome_est,MedianIncome_MOE), names_to = "Median",values_to = "Values_med")

mutatedData <- mutatedData %>% pivot_longer(c(MeanIncome_est,MeanIncome_MOE), names_to = "Mean",values_to = "Values_mean")

mutatedData

# A tibble: 1,360 × 17
   Race     Year   Count totDi…¹ Perce…² Perce…³ Perce…⁴ Perce…⁵ Perce…⁶ Perce…⁷
   <chr>    <chr>  <dbl>   <dbl>   <dbl>   <dbl>   <dbl>   <dbl>   <dbl>   <dbl>
 1 ALL RAC… 2019  128451     100     9.1     8       8.3    11.7    16.5    12.3
 2 ALL RAC… 2019  128451     100     9.1     8       8.3    11.7    16.5    12.3
 3 ALL RAC… 2019  128451     100     9.1     8       8.3    11.7    16.5    12.3
 4 ALL RAC… 2019  128451     100     9.1     8       8.3    11.7    16.5    12.3
 5 ALL RAC… 2018  128579     100    10.1     8.8     8.7    12      17      12.5
 6 ALL RAC… 2018  128579     100    10.1     8.8     8.7    12      17      12.5
 7 ALL RAC… 2018  128579     100    10.1     8.8     8.7    12      17      12.5
 8 ALL RAC… 2018  128579     100    10.1     8.8     8.7    12      17      12.5
 9 ALL RAC… 2017  127669     100    10       9.1     9.2    12      16.4    12.4
10 ALL RAC… 2017  127669     100    10       9.1     9.2    12      16.4    12.4
# … with 1,350 more rows, 7 more variables: Percentdist100_150 <dbl>,
#   Percentdist150_200 <dbl>, Percentdist200andover <dbl>, Median <chr>,
#   Values_med <dbl>, Mean <chr>, Values_mean <dbl>, and abbreviated variable
#   names ¹​totDistSum, ²​Percentdist_under15, ³​Percentdist15_25,
#   ⁴​Percentdist25_35, ⁵​Percentdist35_50, ⁶​Percentdist50_75, ⁷​Percentdist75_100
…
