DACSS 601: Data Science Fundamentals - FALL 2022 - Challenge 3
…
knitr::opts_chunk$set(echo = TRUE, warning=FALSE, message=FALSE)

Code

library(readxl)
marriage <- read_excel("_data/australian_marriage_law_postal_survey_2017_-_response_final.xls",
                       sheet = "Table 2",
                       col_names = c("Division", "Yes", "Yes_percentage", "No", "No_percentage", "Total_clear", "Total_clear_percentage", "Delete", "Delete", "Delete", "Response_not_clear", "Response_not_clear_percentage", "Non_responding", "Non_responding_percentage", "Total", "Total_percentage"))

marriage <- slice(marriage, 8:180)
marriage <- select(marriage, "Division", "Yes", "Yes_percentage", "No", "No_percentage", "Total_clear", "Total_clear_percentage", "Response_not_clear", "Response_not_clear_percentage", "Non_responding", "Non_responding_percentage", "Total", "Total_percentage")
marriage

# A tibble: 173 × 13
   Division  Yes   Yes_p…¹ No    No_pe…² Total…³ Total…⁴ Respo…⁵ Respo…⁶ Non_r…⁷
   <chr>     <chr> <chr>   <chr> <chr>   <chr>   <chr>   <chr>   <chr>   <chr>  
 1 New Sout… <NA>  <NA>    <NA>  <NA>    <NA>    <NA>    <NA>    <NA>    <NA>   
 2 Banks     37736 44.899… 46343 55.100… 84079   100     247     0.2000… 20928  
 3 Barton    37153 43.600… 47984 56.399… 85137   100     226     0.2000… 24008  
 4 Bennelong 42943 49.799… 43215 50.200… 86158   100     244     0.2000… 19973  
 5 Berowra   48471 54.600… 40369 45.399… 88840   100     212     0.2000… 16038  
 6 Blaxland  20406 26.100… 57926 73.900… 78332   100     220     0.2000… 25883  
 7 Bradfield 53681 60.600… 34927 39.399… 88608   100     202     0.2000… 17261  
 8 Calare    54091 60.200… 35779 39.799… 89870   100     285     0.2000… 25342  
 9 Chifley   32871 41.299… 46702 58.700… 79573   100     263     0.2000… 28180  
10 Cook      47505 55      38804 45      86309   100     229     0.2000… 18713  
# … with 163 more rows, 3 more variables: Non_responding_percentage <chr>,
#   Total <chr>, Total_percentage <chr>, and abbreviated variable names
#   ¹​Yes_percentage, ²​No_percentage, ³​Total_clear, ⁴​Total_clear_percentage,
#   ⁵​Response_not_clear, ⁶​Response_not_clear_percentage, ⁷​Non_responding
…
The dataset shows responses to the question in Australian Marriage Law Postal Survey 2017. We can see data gathered in different divisions of States and Territories in Australia. The responses are “Yes”, “No”, “Not clear” and “No response”. The table also shows percentage of each answer and total numbers.

To tidy data I will leave only divisions in the first column. I am going to move State and Territories to another column by adding a variable (as it was shown during the class).I will also remove percentages and total numbers from the table.

Code

marriage <- marriage%>%
  mutate(StateTerritory = case_when(str_ends(Division, "Divisions") ~ Division), NA_character_)%>%
  fill(StateTerritory, .direction = "down")
marriage <- filter(marriage, !str_detect(Division, "Division|Australia"))
marriage <- select(marriage, "Division", "Yes", "No", "Response_not_clear", "Non_responding", "StateTerritory")
marriage

# A tibble: 155 × 6
   Division  Yes   No    Response_not_clear Non_responding StateTerritory       
   <chr>     <chr> <chr> <chr>              <chr>          <chr>                
 1 Banks     37736 46343 247                20928          New South Wales Divi…
 2 Barton    37153 47984 226                24008          New South Wales Divi…
 3 Bennelong 42943 43215 244                19973          New South Wales Divi…
 4 Berowra   48471 40369 212                16038          New South Wales Divi…
 5 Blaxland  20406 57926 220                25883          New South Wales Divi…
 6 Bradfield 53681 34927 202                17261          New South Wales Divi…
 7 Calare    54091 35779 285                25342          New South Wales Divi…
 8 Chifley   32871 46702 263                28180          New South Wales Divi…
 9 Cook      47505 38804 229                18713          New South Wales Divi…
10 Cowper    57493 38317 315                25197          New South Wales Divi…
# … with 145 more rows
…
Yes, once it is pivoted long, our resulting data are \(12x5\) - exactly what we expected!

Challenge: Pivot the Chosen Data

After pivoting the case is number of certain response in a division. I think it may be easier to visualize the data using this type of table. So we may say that data is tidy because it is easier to make next steps in analyzing data.

Code

marriage_new<-pivot_longer(marriage, col = c(Yes, No, Response_not_clear, Non_responding),
                 names_to="Response_type",
                 values_to = "Number")
marriage_new

# A tibble: 620 × 4
   Division  StateTerritory            Response_type      Number
   <chr>     <chr>                     <chr>              <chr> 
 1 Banks     New South Wales Divisions Yes                37736 
 2 Banks     New South Wales Divisions No                 46343 
 3 Banks     New South Wales Divisions Response_not_clear 247   
 4 Banks     New South Wales Divisions Non_responding     20928 
 5 Barton    New South Wales Divisions Yes                37153 
 6 Barton    New South Wales Divisions No                 47984 
 7 Barton    New South Wales Divisions Response_not_clear 226   
 8 Barton    New South Wales Divisions Non_responding     24008 
 9 Bennelong New South Wales Divisions Yes                42943 
10 Bennelong New South Wales Divisions No                 43215 
# … with 610 more rows
…
