DACSS 601: Data Science Fundamentals - FALL 2022 - Challenge 5 Instructions
…
host_df needs to be cleaned because it has several duplicated information. For example, host_id should be unique however the same host_id appear multiple times as the below table shows.

host_df %>% group_by(host_id) %>%
  count() %>%
  arrange(desc(n))

# A tibble: 37,457 × 2
# Groups:   host_id [37,457]
     host_id     n
       <dbl> <int>
 1 219517861   327
 2 107434423   232
 3  30283594   121
 4 137358866   103
 5  12243051    96
 6  16098958    96
 7  61391963    91
 8  22541573    87
 9 200380610    65
10   1475015    52
# … with 37,447 more rows
…
