DACSS 601: Data Science Fundamentals - FALL 2022 - Challenge 4 Solutions
…
ABC %>%
select(starts_with("Q"))%>%
  colnames(.)

 [1] "Q1_a" "Q1_b" "Q1_c" "Q1_d" "Q1_e" "Q1_f" "Q2"   "Q3"   "Q4"   "Q5"  
[11] "QPID"

Code

# add 'contact' to survey questions

# find duplicates:
unique(ABC)

# A tibble: 527 × 31
        id xspanish comple…¹ ppage ppeduc5 ppedu…² ppgen…³ ppethm pphhs…⁴ ppinc7
     <dbl> <chr>    <chr>    <dbl> <chr>   <chr>   <chr>   <chr>  <chr>   <chr> 
 1 7230001 English  qualifi…    68 "High … High s… Female  White… 2       $25,0…
 2 7230002 English  qualifi…    85 "Bache… Bachel… Male    White… 2       $150,…
 3 7230003 English  qualifi…    69 "High … High s… Male    White… 2       $100,…
 4 7230004 English  qualifi…    74 "Bache… Bachel… Female  White… 1       $25,0…
 5 7230005 English  qualifi…    77 "High … High s… Male    White… 3       $10,0…
 6 7230006 English  qualifi…    70 "Bache… Bachel… Male    White… 2       $75,0…
 7 7230007 English  qualifi…    26 "Maste… Bachel… Male    Other… 3       $150,…
 8 7230008 English  qualifi…    76 "Bache… Bachel… Male    Black… 2       $50,0…
 9 7230009 English  qualifi…    78 "Bache… Bachel… Female  White… 2       $150,…
10 7230010 English  qualifi…    47 "Maste… Bachel… Male    Other… 4       $150,…
# … with 517 more rows, 21 more variables: ppmarit5 <chr>, ppmsacat <chr>,
#   ppreg4 <chr>, pprent <chr>, ppstaten <chr>, PPWORKA <chr>, ppemploy <chr>,
#   Q1_a <chr>, Q1_b <chr>, Q1_c <chr>, Q1_d <chr>, Q1_e <chr>, Q1_f <chr>,
#   Q2 <chr>, Q3 <chr>, Q4 <chr>, Q5 <chr>, QPID <chr>, ABCAGE <chr>,
#   Contact <chr>, weights_pid <dbl>, and abbreviated variable names
#   ¹​complete_status, ²​ppeducat, ³​ppgender, ⁴​pphhsize
…
[1] NA

I am using data from the abc_poll_2021 data set. This data set contains information related to a national survey conducted in 2021. There are 31 variables and 527 rows of data, with each row representing a unique observation. Of these 31 variables, it appears that 16 capture participant-level information, 12 capture information related to survey questions, and 3 capture information related to survey administration.

Code

#continue cleaning:

# remove 'ABCAGE', 'ppemploy' 'ppeducat'
ABC_clean <- subset(ABC, select = -c(ABCAGE, ppemploy, ppeducat))
print(ABC_clean)

# A tibble: 527 × 28
        id xspanish comple…¹ ppage ppeduc5 ppgen…² ppethm pphhs…³ ppinc7 ppmar…⁴
     <dbl> <chr>    <chr>    <dbl> <chr>   <chr>   <chr>  <chr>   <chr>  <chr>  
 1 7230001 English  qualifi…    68 "High … Female  White… 2       $25,0… Now Ma…
 2 7230002 English  qualifi…    85 "Bache… Male    White… 2       $150,… Now Ma…
 3 7230003 English  qualifi…    69 "High … Male    White… 2       $100,… Now Ma…
 4 7230004 English  qualifi…    74 "Bache… Female  White… 1       $25,0… Divorc…
 5 7230005 English  qualifi…    77 "High … Male    White… 3       $10,0… Now Ma…
 6 7230006 English  qualifi…    70 "Bache… Male    White… 2       $75,0… Now Ma…
 7 7230007 English  qualifi…    26 "Maste… Male    Other… 3       $150,… Never …
 8 7230008 English  qualifi…    76 "Bache… Male    Black… 2       $50,0… Now Ma…
 9 7230009 English  qualifi…    78 "Bache… Female  White… 2       $150,… Now Ma…
10 7230010 English  qualifi…    47 "Maste… Male    Other… 4       $150,… Now Ma…
# … with 517 more rows, 18 more variables: ppmsacat <chr>, ppreg4 <chr>,
#   pprent <chr>, ppstaten <chr>, PPWORKA <chr>, Q1_a <chr>, Q1_b <chr>,
#   Q1_c <chr>, Q1_d <chr>, Q1_e <chr>, Q1_f <chr>, Q2 <chr>, Q3 <chr>,
#   Q4 <chr>, Q5 <chr>, QPID <chr>, Contact <chr>, weights_pid <dbl>, and
#   abbreviated variable names ¹​complete_status, ²​ppgender, ³​pphhsize,
#   ⁴​ppmarit5
…
Code

# mutate so that values are more succinct:

ABC_mutate <- ABC_mutate%>%
  mutate(ethnicity = str_remove(ppethm, ", Non-Hispanic"))%>%
  select(-ppethm)

# check new values:

select(ABC_mutate, "ethnicity")

# A tibble: 527 × 1
   ethnicity
   <chr>    
 1 White    
 2 White    
 3 White    
 4 White    
 5 White    
 6 White    
 7 Other    
 8 Black    
 9 White    
10 Other    
# … with 517 more rows
…
