DACSS 601: Data Science Fundamentals - FALL 2022 - Challenge 3 Solution
…
Code

eggs_pivoted <- pivot_longer(eggs,
  col = c(`egg-xl_12`, `egg-xl_6`, `egg-lg_12`, `egg-lg_6`, `chx-whole`, `chx-bnl_breast`, `chx-bone_breast`, `chx-legs`, `chx-thighs`),
  names_to = "product_category-product_type",
  values_to = "price") %>%
  
  separate(col = `product_category-product_type`,
           into = c("product_category", "product_type"),
           sep = "-")

eggs_pivoted

# A tibble: 1,080 × 5
   month    year  product_category product_type price
   <chr>    <chr> <chr>            <chr>        <dbl>
 1 Jan      2004  egg              xl_12         230 
 2 Jan      2004  egg              xl_6          132 
 3 Jan      2004  egg              lg_12         230 
 4 Jan      2004  egg              lg_6          126 
 5 Jan      2004  chx              whole         198.
 6 Jan      2004  chx              bnl_breast    646.
 7 Jan      2004  chx              bone_breast    NA 
 8 Jan      2004  chx              legs          194.
 9 Jan      2004  chx              thighs         NA 
10 February 2004  egg              xl_12         230 
# … with 1,070 more rows
…
