DACSS 601: Data Science Fundamentals - FALL 2022 - Challenge 2
…
Step 3 - Provide Grouped Summary Statistics

Conduct some exploratory data analysis, using dplyr commands such as group_by(), select(), filter(), and summarise(). Find the central tendency (mean, median, mode) and dispersion (standard deviation, mix/max/quantile) for different subgroups within the data set.

group_by

Group_by is going to allow me to make some groupings between columns in the dataset.

Let’s say I wanted to make a grouping of the hotel type and the arrival month. If I do this right, (and bookings of both types occurred in every month), I should get 24 groups.

Code

group_by(hotels, hotel, arrival_date_month)

# A tibble: 119,390 × 32
# Groups:   hotel, arrival_date_month [24]
   hotel  is_ca…¹ lead_…² arriv…³ arriv…⁴ arriv…⁵ arriv…⁶ stays…⁷ stays…⁸ adults
   <chr>    <dbl>   <dbl>   <dbl> <chr>     <dbl>   <dbl>   <dbl>   <dbl>  <dbl>
 1 Resor…       0     342    2015 July         27       1       0       0      2
 2 Resor…       0     737    2015 July         27       1       0       0      2
 3 Resor…       0       7    2015 July         27       1       0       1      1
 4 Resor…       0      13    2015 July         27       1       0       1      1
 5 Resor…       0      14    2015 July         27       1       0       2      2
 6 Resor…       0      14    2015 July         27       1       0       2      2
 7 Resor…       0       0    2015 July         27       1       0       2      2
 8 Resor…       0       9    2015 July         27       1       0       2      2
 9 Resor…       1      85    2015 July         27       1       0       3      2
10 Resor…       1      75    2015 July         27       1       0       3      2
# … with 119,380 more rows, 22 more variables: children <dbl>, babies <dbl>,
#   meal <chr>, country <chr>, market_segment <chr>,
#   distribution_channel <chr>, is_repeated_guest <dbl>,
#   previous_cancellations <dbl>, previous_bookings_not_canceled <dbl>,
#   reserved_room_type <chr>, assigned_room_type <chr>, booking_changes <dbl>,
#   deposit_type <chr>, agent <chr>, company <chr>, days_in_waiting_list <dbl>,
#   customer_type <chr>, adr <dbl>, required_car_parking_spaces <dbl>, …

select()

Select is going to let me pull a subset of the entire data based on the names of the variables.

So let’s say of the 34 columns of hotel data that I have, I’m really only interested in a few of them. I can select those.

I’m interested in the hotel type, the arrival month, and the average daily rate.

Code

select(hotels, hotel, arrival_date_month, adr)

# A tibble: 119,390 × 3
   hotel        arrival_date_month   adr
   <chr>        <chr>              <dbl>
 1 Resort Hotel July                  0 
 2 Resort Hotel July                  0 
 3 Resort Hotel July                 75 
 4 Resort Hotel July                 75 
 5 Resort Hotel July                 98 
 6 Resort Hotel July                 98 
 7 Resort Hotel July                107 
 8 Resort Hotel July                103 
 9 Resort Hotel July                 82 
10 Resort Hotel July                106.
# … with 119,380 more rows

filter()

Filter is going to let me pull some specific data that I might be interested in. Maybe I really only care about bookings that had a lead time that was greater that 400 days.

Code

filter(hotels, lead_time>400)

# A tibble: 2,114 × 32
   hotel  is_ca…¹ lead_…² arriv…³ arriv…⁴ arriv…⁵ arriv…⁶ stays…⁷ stays…⁸ adults
   <chr>    <dbl>   <dbl>   <dbl> <chr>     <dbl>   <dbl>   <dbl>   <dbl>  <dbl>
 1 Resor…       0     737    2015 July         27       1       0       0      2
 2 Resor…       0     460    2015 August       32       3       2       5      1
 3 Resor…       0     709    2016 Februa…       9      25       8      20      2
 4 Resor…       1     468    2016 May          20      12       0       2      2
 5 Resor…       1     468    2016 May          20      12       0       2      2
 6 Resor…       1     468    2016 May          20      12       0       2      2
 7 Resor…       1     468    2016 May          20      12       0       2      2
 8 Resor…       1     468    2016 May          20      12       0       2      2
 9 Resor…       1     468    2016 May          20      12       0       2      2
10 Resor…       1     468    2016 May          20      12       0       2      2
# … with 2,104 more rows, 22 more variables: children <dbl>, babies <dbl>,
#   meal <chr>, country <chr>, market_segment <chr>,
#   distribution_channel <chr>, is_repeated_guest <dbl>,
#   previous_cancellations <dbl>, previous_bookings_not_canceled <dbl>,
#   reserved_room_type <chr>, assigned_room_type <chr>, booking_changes <dbl>,
#   deposit_type <chr>, agent <chr>, company <chr>, days_in_waiting_list <dbl>,
#   customer_type <chr>, adr <dbl>, required_car_parking_spaces <dbl>, …
…
