DACSS 601: Data Science Fundamentals - FALL 2022 - Challenge 4 Instructions
…
poultry_tidy.xlsx or organiceggpoultry.xls⭐⭐

FedFundsRate.csv⭐⭐⭐

hotel_bookings.csv⭐⭐⭐⭐

debt_in_trillions.xlsx ⭐⭐⭐⭐⭐

Code

# Read in data set and display values
df <- read_csv('./_data/hotel_bookings.csv')
df

# A tibble: 119,390 × 32
   hotel  is_ca…¹ lead_…² arriv…³ arriv…⁴ arriv…⁵ arriv…⁶ stays…⁷ stays…⁸ adults
   <chr>    <dbl>   <dbl>   <dbl> <chr>     <dbl>   <dbl>   <dbl>   <dbl>  <dbl>
 1 Resor…       0     342    2015 July         27       1       0       0      2
 2 Resor…       0     737    2015 July         27       1       0       0      2
 3 Resor…       0       7    2015 July         27       1       0       1      1
 4 Resor…       0      13    2015 July         27       1       0       1      1
 5 Resor…       0      14    2015 July         27       1       0       2      2
 6 Resor…       0      14    2015 July         27       1       0       2      2
 7 Resor…       0       0    2015 July         27       1       0       2      2
 8 Resor…       0       9    2015 July         27       1       0       2      2
 9 Resor…       1      85    2015 July         27       1       0       3      2
10 Resor…       1      75    2015 July         27       1       0       3      2
# … with 119,380 more rows, 22 more variables: children <dbl>, babies <dbl>,
#   meal <chr>, country <chr>, market_segment <chr>,
#   distribution_channel <chr>, is_repeated_guest <dbl>,
#   previous_cancellations <dbl>, previous_bookings_not_canceled <dbl>,
#   reserved_room_type <chr>, assigned_room_type <chr>, booking_changes <dbl>,
#   deposit_type <chr>, agent <chr>, company <chr>, days_in_waiting_list <dbl>,
#   customer_type <chr>, adr <dbl>, required_car_parking_spaces <dbl>, …
…
# Remove NA values
df <- na.omit(df)

The data is tidy after removing the values which are not available. Every row represents an observation, each column represents one variable, and each value has its own cell.

Any additional comments?

Looking at the summary of the data frame, we can see that the ‘agent’ and ‘company’ columns are of type character. However, upon inspection, it appears as though they are all integers. We can inspect the two values in the two columns with the following R commands:

Code

# List distinct values in agent and company
distinct(df, agent)

# A tibble: 334 × 1
   agent
   <chr>
 1 NULL 
 2 304  
 3 240  
 4 303  
 5 15   
 6 241  
 7 8    
 8 250  
 9 115  
10 5    
# … with 324 more rows

Code

distinct(df, company)

# A tibble: 353 × 1
   company
   <chr>  
 1 NULL   
 2 110    
 3 113    
 4 270    
 5 178    
 6 240    
 7 154    
 8 144    
 9 307    
10 268    
# … with 343 more rows

By inspection, we can see that the columns are of character type because of string “NULL” in each column. This was likely placed in the data set to indicate that an agent or company was not used. However, it is a bit annoying that the columns are character types. For instance, this prevents you from sorting the columns by value. Here is an example:

Code

# Sort distinct values in agent column
arrange(distinct(df, agent), agent)

# A tibble: 334 × 1
   agent
   <chr>
 1 1    
 2 10   
 3 103  
 4 104  
 5 105  
 6 106  
 7 107  
 8 11   
 9 110  
10 111  
# … with 324 more rows
…
