DACSS 601: Data Science Fundamentals - FALL 2022 - Challenge-1
…
[1] 0

It looks 1036 value are missing/ not observed in the dataset.

Stock levels by country and by bird type

Code

birds %>% 
  select(Area, Value) %>% 
  group_by(Area) %>% 
  summarize(Total = sum(Value)) %>% 
  arrange(desc(Total))

# A tibble: 248 × 2
   Area                         Total
   <chr>                        <int>
 1 World                    744113376
 2 Asia                     361468192
 3 Americas                 198674579
 4 Eastern Asia             197028391
 5 China, mainland          170767908
 6 Europe                   122216094
 7 Northern America         100752122
 8 United States of America  93432842
 9 South-eastern Asia        79669999
10 South America             68503385
# … with 238 more rows
…
