DACSS 601: Data Science Fundamentals - FALL 2022 - Challenge 1 - Darron Bunt
…
Add any comments or documentation as needed. More challenging data sets may require additional code chunks and documentation.

Step 2 - Describe the data

Using a combination of words and results of R commands, can you provide a high level description of the data? Describe as efficiently as possible where/how the data was (likely) gathered, indicate the cases and variables (both the interpretation and any details you deem useful to the reader to fully understand your chosen data).

Ok, so from what’s been read in above, we know that the birds dataset has 30,977 rows and 14 columns. Eight of those columns are character-based, while the remaining six are number-based. Neat.

So now if I run birds, I should get a tibble, and in theory that tibble is going to help me perform a high-level description of the data.

Code

birds

# A tibble: 30,977 × 14
   Domain Cod…¹ Domain Area …² Area  Eleme…³ Element Item …⁴ Item  Year …⁵  Year
   <chr>        <chr>    <dbl> <chr>   <dbl> <chr>     <dbl> <chr>   <dbl> <dbl>
 1 QA           Live …       2 Afgh…    5112 Stocks     1057 Chic…    1961  1961
 2 QA           Live …       2 Afgh…    5112 Stocks     1057 Chic…    1962  1962
 3 QA           Live …       2 Afgh…    5112 Stocks     1057 Chic…    1963  1963
 4 QA           Live …       2 Afgh…    5112 Stocks     1057 Chic…    1964  1964
 5 QA           Live …       2 Afgh…    5112 Stocks     1057 Chic…    1965  1965
 6 QA           Live …       2 Afgh…    5112 Stocks     1057 Chic…    1966  1966
 7 QA           Live …       2 Afgh…    5112 Stocks     1057 Chic…    1967  1967
 8 QA           Live …       2 Afgh…    5112 Stocks     1057 Chic…    1968  1968
 9 QA           Live …       2 Afgh…    5112 Stocks     1057 Chic…    1969  1969
10 QA           Live …       2 Afgh…    5112 Stocks     1057 Chic…    1970  1970
# … with 30,967 more rows, 4 more variables: Unit <chr>, Value <dbl>,
#   Flag <chr>, `Flag Description` <chr>, and abbreviated variable names
#   ¹​`Domain Code`, ²​`Area Code`, ³​`Element Code`, ⁴​`Item Code`, ⁵​`Year Code`
…
# A tibble: 5 × 2
  Item                       n
  <chr>                  <int>
1 Chickens               13074
2 Ducks                   6909
3 Geese and guinea fowls  4136
4 Pigeons, other birds    1165
5 Turkeys                 5693

Code

count(birds, Area)

# A tibble: 248 × 2
   Area                    n
   <chr>               <int>
 1 Afghanistan            58
 2 Africa                290
 3 Albania               232
 4 Algeria               232
 5 American Samoa         58
 6 Americas              232
 7 Angola                 58
 8 Antigua and Barbuda    58
 9 Argentina             232
10 Armenia                54
# … with 238 more rows

Code

count(birds,Year)

# A tibble: 58 × 2
    Year     n
   <dbl> <int>
 1  1961   493
 2  1962   493
 3  1963   493
 4  1964   493
 5  1965   494
 6  1966   495
 7  1967   495
 8  1968   495
 9  1969   498
10  1970   498
# … with 48 more rows
…
