DACSS 601: Data Science Fundamentals - FALL 2022 - Challenge 2 - Abby Balint
…
Code

library(tidyverse)

knitr::opts_chunk$set(echo = TRUE, warning=FALSE, message=FALSE)

Read in the Data

hotel_bookings.csv ⭐⭐⭐⭐

Code

read_csv("_data/hotel_bookings.csv")

# A tibble: 119,390 × 32
   hotel  is_ca…¹ lead_…² arriv…³ arriv…⁴ arriv…⁵ arriv…⁶ stays…⁷ stays…⁸ adults
   <chr>    <dbl>   <dbl>   <dbl> <chr>     <dbl>   <dbl>   <dbl>   <dbl>  <dbl>
 1 Resor…       0     342    2015 July         27       1       0       0      2
 2 Resor…       0     737    2015 July         27       1       0       0      2
 3 Resor…       0       7    2015 July         27       1       0       1      1
 4 Resor…       0      13    2015 July         27       1       0       1      1
 5 Resor…       0      14    2015 July         27       1       0       2      2
 6 Resor…       0      14    2015 July         27       1       0       2      2
 7 Resor…       0       0    2015 July         27       1       0       2      2
 8 Resor…       0       9    2015 July         27       1       0       2      2
 9 Resor…       1      85    2015 July         27       1       0       3      2
10 Resor…       1      75    2015 July         27       1       0       3      2
# … with 119,380 more rows, 22 more variables: children <dbl>, babies <dbl>,
#   meal <chr>, country <chr>, market_segment <chr>,
#   distribution_channel <chr>, is_repeated_guest <dbl>,
#   previous_cancellations <dbl>, previous_bookings_not_canceled <dbl>,
#   reserved_room_type <chr>, assigned_room_type <chr>, booking_changes <dbl>,
#   deposit_type <chr>, agent <chr>, company <chr>, days_in_waiting_list <dbl>,
#   customer_type <chr>, adr <dbl>, required_car_parking_spaces <dbl>, …
…
Code

dim(hoteldata)

[1] 119390     32

Code

select(hoteldata, "stays_in_weekend_nights", "stays_in_week_nights", "adults", "children", "babies", "country", "total_of_special_requests")

# A tibble: 119,390 × 7
   stays_in_weekend_nights stays_in_week…¹ adults child…² babies country total…³
                     <dbl>           <dbl>  <dbl>   <dbl>  <dbl> <chr>     <dbl>
 1                       0               0      2       0      0 PRT           0
 2                       0               0      2       0      0 PRT           0
 3                       0               1      1       0      0 GBR           0
 4                       0               1      1       0      0 GBR           0
 5                       0               2      2       0      0 GBR           1
 6                       0               2      2       0      0 GBR           1
 7                       0               2      2       0      0 PRT           0
 8                       0               2      2       0      0 PRT           1
 9                       0               3      2       0      0 PRT           1
10                       0               3      2       0      0 PRT           0
# … with 119,380 more rows, and abbreviated variable names
#   ¹​stays_in_week_nights, ²​children, ³​total_of_special_requests
…
