DACSS 601: Data Science Fundamentals - FALL 2022 - Challenge 3 Instructions
…
Code

data <- original_data %>%
  rename(
    Year = ...1,
    Total_Number = ...2,
    Median_Income_Estimate = Estimate...13,
    Median_Margin_Error = `Margin of error1 (±)...14`,
    Mean_Income_Estimate = Estimate...15,
    Mean_Margin_Error = `Margin of error1 (±)...16`)

data

# A tibble: 383 × 16
   Year    Total…¹ Total Under…² $15,0…³ $25,0…⁴ $35,0…⁵ $50,0…⁶ $75,0…⁷ $100,…⁸
   <chr>   <chr>   <dbl>   <dbl>   <dbl>   <dbl>   <dbl>   <dbl>   <dbl>   <dbl>
 1 ALL RA… <NA>       NA    NA      NA      NA      NA      NA      NA      NA  
 2 2019    128451    100     9.1     8       8.3    11.7    16.5    12.3    15.5
 3 2018    128579    100    10.1     8.8     8.7    12      17      12.5    15  
 4 2017 2  127669    100    10       9.1     9.2    12      16.4    12.4    14.7
 5 2017    127586    100    10.1     9.1     9.2    11.9    16.3    12.6    14.8
 6 2016    126224    100    10.4     9       9.2    12.3    16.7    12.2    15  
 7 2015    125819    100    10.6    10       9.6    12.1    16.1    12.4    14.9
 8 2014    124587    100    11.4    10.5     9.6    12.6    16.4    12.1    14  
 9 2013 3  123931    100    11.4    10.3     9.5    12.5    16.8    12      13.9
10 2013 4  122952    100    11.3    10.4     9.7    13.1    17      12.5    13.6
# … with 373 more rows, 6 more variables: `$150,000\r\nto\r\n$199,999` <dbl>,
#   `$200,000 and over` <dbl>, Median_Income_Estimate <dbl>,
#   Median_Margin_Error <dbl>, Mean_Income_Estimate <chr>,
#   Mean_Margin_Error <chr>, and abbreviated variable names ¹​Total_Number,
#   ²​`Under $15,000`, ³​`$15,000\r\nto\r\n$24,999`, ⁴​`$25,000\r\nto\r\n$34,999`,
#   ⁵​`$35,000\r\nto\r\n$49,999`, ⁶​`$50,000\r\nto\r\n$74,999`,
#   ⁷​`$75,000\r\nto\r\n$99,999`, ⁸​`$100,000\r\nto\r\n$149,999`

Code

#QUESTION: I manually renamed the column names instead of merging two rows ("Mean income (dollars)" + "Estimate") because I didn't find a way to do it. But this is not realistic if we have more columns. Any tips?

Let’s look at the end of the data and clean if necessary.

Code

tail(data,35)

# A tibble: 35 × 16
   Year    Total…¹ Total Under…² $15,0…³ $25,0…⁴ $35,0…⁵ $50,0…⁶ $75,0…⁷ $100,…⁸
   <chr>   <chr>   <dbl>   <dbl>   <dbl>   <dbl>   <dbl>   <dbl>   <dbl>   <dbl>
 1 "1975 … 2948      100    16.4    14.7    15      17.5    21.5     8.9     4.7
 2 "1974 … 2897      100    13      15.4    13.8    18      22.1    10.4     5.7
 3 "1973"  2722      100    12.2    14.2    14      18.8    22.3    11.4     5.8
 4 "1972 … 2655      100    11.9    16      13.5    20.6    22.1     9.5     4.8
 5 "N Not… <NA>       NA    NA      NA      NA      NA      NA      NA      NA  
 6 "1 A m… <NA>       NA    NA      NA      NA      NA      NA      NA      NA  
 7 "2 Est… <NA>       NA    NA      NA      NA      NA      NA      NA      NA  
 8 "3 The… <NA>       NA    NA      NA      NA      NA      NA      NA      NA  
 9 "4 The… <NA>       NA    NA      NA      NA      NA      NA      NA      NA  
10 "5 Imp… <NA>       NA    NA      NA      NA      NA      NA      NA      NA  
# … with 25 more rows, 6 more variables: `$150,000\r\nto\r\n$199,999` <dbl>,
#   `$200,000 and over` <dbl>, Median_Income_Estimate <dbl>,
#   Median_Margin_Error <dbl>, Mean_Income_Estimate <chr>,
#   Mean_Margin_Error <chr>, and abbreviated variable names ¹​Total_Number,
#   ²​`Under $15,000`, ³​`$15,000\r\nto\r\n$24,999`, ⁴​`$25,000\r\nto\r\n$34,999`,
#   ⁵​`$35,000\r\nto\r\n$49,999`, ⁶​`$50,000\r\nto\r\n$74,999`,
#   ⁷​`$75,000\r\nto\r\n$99,999`, ⁸​`$100,000\r\nto\r\n$149,999`
…
str(data$Total_Number)

 num [1:340] 128451 128579 127669 127586 126224 ...

Code

long_data <- pivot_longer(data, col = c(3:16),
                         names_to = "measure",
                         values_to = "value"
                         ) 

long_data

# A tibble: 4,760 × 4
   race      Year  measure                         value
   <chr>     <chr> <chr>                           <dbl>
 1 ALL RACES 2019  "Total_Number"               128451  
 2 ALL RACES 2019  "Under $15,000"                   9.1
 3 ALL RACES 2019  "$15,000\r\nto\r\n$24,999"        8  
 4 ALL RACES 2019  "$25,000\r\nto\r\n$34,999"        8.3
 5 ALL RACES 2019  "$35,000\r\nto\r\n$49,999"       11.7
 6 ALL RACES 2019  "$50,000\r\nto\r\n$74,999"       16.5
 7 ALL RACES 2019  "$75,000\r\nto\r\n$99,999"       12.3
 8 ALL RACES 2019  "$100,000\r\nto\r\n$149,999"     15.5
 9 ALL RACES 2019  "$150,000\r\nto\r\n$199,999"      8.3
10 ALL RACES 2019  "$200,000 and over"              10.3
# … with 4,750 more rows
…
