DACSS 601: Data Science Fundamentals - FALL 2022 - Challenge 3
…
Pivot the Data

Now we will pivot the data, and compare our pivoted data dimensions to the dimensions calculated above as a “sanity” check.

Code

eggs_longer<- eggs_data%>%
  pivot_longer(cols=contains("large"),
               names_to = c("size", "quantity"),
               names_sep="_",
               values_to = "amount"
  )
eggs_longer

# A tibble: 480 × 5
   month     year size  quantity amount
   <chr>    <int> <chr> <chr>     <dbl>
 1 January   2004 large half       126 
 2 January   2004 large dozen      230 
 3 January   2004 extra large      132 
 4 January   2004 extra large      230 
 5 February  2004 large half       128.
 6 February  2004 large dozen      226.
 7 February  2004 extra large      134.
 8 February  2004 extra large      230 
 9 March     2004 large half       131 
10 March     2004 large dozen      225 
# … with 470 more rows
…
Challenge: Pivot the Chosen Data

Document your work here. What will a new “case” be once you have pivoted the data? How does it meet requirements for tidy data?

As expected, I now have one less column and four times as many rows (120 became 480). (6 became 5). I now have one observation for each row and am prepared to start my analysis. Depending on the nature of my study or if there are more tables to put in at some time, I might want to change the cents into dollars. The data keeps the precise decimals even when the preview tibble below rounds to whole cents.

Code

eggs_price <- mutate(eggs_longer, 
       avg_USD = amount / 100
       )%>%
  select(!contains ("amount"))
eggs_price

# A tibble: 480 × 5
   month     year size  quantity avg_USD
   <chr>    <int> <chr> <chr>      <dbl>
 1 January   2004 large half        1.26
 2 January   2004 large dozen       2.3 
 3 January   2004 extra large       1.32
 4 January   2004 extra large       2.3 
 5 February  2004 large half        1.28
 6 February  2004 large dozen       2.26
 7 February  2004 extra large       1.34
 8 February  2004 extra large       2.3 
 9 March     2004 large half        1.31
10 March     2004 large dozen       2.25
# … with 470 more rows
…
