DACSS 601: Data Science Fundamentals - FALL 2022 - Challenge-2
…
sum(railroad$total_employees)

[1] 255432

There are total of 255,432 railroad employees in the U.S. in 2012.

Code

railroad %>% 
  group_by(state) %>% 
  summarise(total_employees= sum(total_employees),  
            proportion= round(total_employees/sum(railroad$total_employees)*100,1)) %>% 
  arrange(desc(total_employees))

# A tibble: 53 × 3
   state total_employees proportion
   <chr>           <int>      <dbl>
 1 TX              19839        7.8
 2 IL              19131        7.5
 3 NY              17050        6.7
 4 NE              13176        5.2
 5 CA              13137        5.1
 6 PA              12769        5  
 7 OH               9056        3.5
 8 GA               8605        3.4
 9 IN               8537        3.3
10 MO               8419        3.3
# … with 43 more rows
…
