DACSS 601: Data Science Fundamentals - FALL 2022 - Challenge 5
…
emma_narkewicz

challenge_5

AB_NYC_2019 ⭐⭐⭐

The AB_NYC_2019 data set had original dimensions of 48,895 x 16. I read in the data set and removed the host name column as there is a host id column that can used to look for any duplicates.

Air_BNB_Data <- read_csv("_data/AB_NYC_2019.csv") %>%
  select(!contains("host_name"))

Air_BNB_Data

# A tibble: 48,895 × 15
      id name      host_id neigh…¹ neigh…² latit…³ longi…⁴ room_…⁵ price minim…⁶
   <dbl> <chr>       <dbl> <chr>   <chr>     <dbl>   <dbl> <chr>   <dbl>   <dbl>
 1  2539 Clean & …    2787 Brookl… Kensin…    40.6   -74.0 Privat…   149       1
 2  2595 Skylit M…    2845 Manhat… Midtown    40.8   -74.0 Entire…   225       1
 3  3647 THE VILL…    4632 Manhat… Harlem     40.8   -73.9 Privat…   150       3
 4  3831 Cozy Ent…    4869 Brookl… Clinto…    40.7   -74.0 Entire…    89       1
 5  5022 Entire A…    7192 Manhat… East H…    40.8   -73.9 Entire…    80      10
 6  5099 Large Co…    7322 Manhat… Murray…    40.7   -74.0 Entire…   200       3
 7  5121 BlissArt…    7356 Brookl… Bedfor…    40.7   -74.0 Privat…    60      45
 8  5178 Large Fu…    8967 Manhat… Hell's…    40.8   -74.0 Privat…    79       2
 9  5203 Cozy Cle…    7490 Manhat… Upper …    40.8   -74.0 Privat…    79       2
10  5238 Cute & C…    7549 Manhat… Chinat…    40.7   -74.0 Entire…   150       1
# … with 48,885 more rows, 5 more variables: number_of_reviews <dbl>,
#   last_review <date>, reviews_per_month <dbl>,
#   calculated_host_listings_count <dbl>, availability_365 <dbl>, and
#   abbreviated variable names ¹​neighbourhood_group, ²​neighbourhood, ³​latitude,
#   ⁴​longitude, ⁵​room_type, ⁶​minimum_nights
…
I wanted to create a bubble map based on prices, but continued to get errors that the subscript was out of bounds when trying to load a map of New York & New Jersey in the background as modeled on R Graph Gallery. This is something I hope to be able to accomplish later, perhaps with some guidance from the course tutors.

Update - We did it! Thank you Professor & Class :-)

library(tidyverse)
library(maps)
library(viridis)
library(mapproj)

Error in library(mapproj): there is no package called 'mapproj'

Air_BNB_Data

# A tibble: 48,895 × 15
      id name      host_id neigh…¹ neigh…² latit…³ longi…⁴ room_…⁵ price minim…⁶
   <dbl> <chr>       <dbl> <chr>   <chr>     <dbl>   <dbl> <chr>   <dbl>   <dbl>
 1  2539 Clean & …    2787 Brookl… Kensin…    40.6   -74.0 Privat…   149       1
 2  2595 Skylit M…    2845 Manhat… Midtown    40.8   -74.0 Entire…   225       1
 3  3647 THE VILL…    4632 Manhat… Harlem     40.8   -73.9 Privat…   150       3
 4  3831 Cozy Ent…    4869 Brookl… Clinto…    40.7   -74.0 Entire…    89       1
 5  5022 Entire A…    7192 Manhat… East H…    40.8   -73.9 Entire…    80      10
 6  5099 Large Co…    7322 Manhat… Murray…    40.7   -74.0 Entire…   200       3
 7  5121 BlissArt…    7356 Brookl… Bedfor…    40.7   -74.0 Privat…    60      45
 8  5178 Large Fu…    8967 Manhat… Hell's…    40.8   -74.0 Privat…    79       2
 9  5203 Cozy Cle…    7490 Manhat… Upper …    40.8   -74.0 Privat…    79       2
10  5238 Cute & C…    7549 Manhat… Chinat…    40.7   -74.0 Entire…   150       1
# … with 48,885 more rows, 5 more variables: number_of_reviews <dbl>,
#   last_review <date>, reviews_per_month <dbl>,
#   calculated_host_listings_count <dbl>, availability_365 <dbl>, and
#   abbreviated variable names ¹​neighbourhood_group, ²​neighbourhood, ³​latitude,
#   ⁴​longitude, ⁵​room_type, ⁶​minimum_nights
…
