DACSS 601: Data Science Fundamentals - FALL 2022 - Challenge 3
…
There are two different variables contained within each of the four egg-related columns - the size (large/extra large) and the quantity (dozen/half dozen). I’m going to need to create TWO columns from the values in each of the original columns.

I can use the names_sep option in pivot functions to help me do this. But if my sep is going to be _ I’m going to need some new column names first (because three of the four original columns actually contain two _ each).

Code

eggs_new <- eggs %>%
  rename("Xlarge_halfdozen" = "extra_large_half_dozen",
         "Xlarge_dozen" = "extra_large_dozen",
         "large_halfdozen" = "large_half_dozen"
         )
eggs_new

# A tibble: 120 × 6
   month      year large_halfdozen large_dozen Xlarge_halfdozen Xlarge_dozen
   <chr>     <dbl>           <dbl>       <dbl>            <dbl>        <dbl>
 1 January    2004            126         230              132          230 
 2 February   2004            128.        226.             134.         230 
 3 March      2004            131         225              137          230 
 4 April      2004            131         225              137          234.
 5 May        2004            131         225              137          236 
 6 June       2004            134.        231.             137          241 
 7 July       2004            134.        234.             137          241 
 8 August     2004            134.        234.             137          241 
 9 September  2004            130.        234.             136.         241 
10 October    2004            128.        234.             136.         241 
# … with 110 more rows
…
Challenge: Pivot the Chosen Data

Document your work here. What will a new “case” be once you have pivoted the data? How does it meet requirements for tidy data?

Code

eggs_by_type <- eggs_new %>%
  pivot_longer(cols = contains("large"),
               names_to = c("Size", "Quantity"),
               names_sep= "_",
               values_to = "AvgPrice"
               )
eggs_by_type

# A tibble: 480 × 5
   month     year Size   Quantity  AvgPrice
   <chr>    <dbl> <chr>  <chr>        <dbl>
 1 January   2004 large  halfdozen     126 
 2 January   2004 large  dozen         230 
 3 January   2004 Xlarge halfdozen     132 
 4 January   2004 Xlarge dozen         230 
 5 February  2004 large  halfdozen     128.
 6 February  2004 large  dozen         226.
 7 February  2004 Xlarge halfdozen     134.
 8 February  2004 Xlarge dozen         230 
 9 March     2004 large  halfdozen     131 
10 March     2004 large  dozen         225 
# … with 470 more rows
…
