DACSS 601: Data Science Fundamentals - FALL 2022 - Challenge 6 Solutions
…
Summary of Data:

The hotel_bookings data set provides data related to city/resort hotel bookings across 178 countries from 2015-2017. The data frame has 32 columns and 87,396. Each column represents one variable, and each row represents a distinct observation. The variables include hotel type (city or resort), cancelled reservations, lead time, arrival date year, arrival date month, arrival date week number, arrival date day of the month, stays in weekend nights, stays in weeknights, adults, children, babies, meal, country, market segment, distribution channel, repeat guest, previous cancellations, previous bookings not cancelled, reserved room type, assigned room type, booking changes, deposit type, agent, company, days in waiting list, customer type, average daily rate, required parking spot, total special requests, reservation status, and reservation status date.

# unique observations

hotel_bookings_clean <- distinct(hotel_bookings)

# rename variables

hotel_bookings_clean%>%
rename("avg_daily_rate" = "adr")

# A tibble: 87,396 × 32
   hotel  is_ca…¹ lead_…² arriv…³ arriv…⁴ arriv…⁵ arriv…⁶ stays…⁷ stays…⁸ adults
   <chr>    <dbl>   <dbl>   <dbl> <chr>     <dbl>   <dbl>   <dbl>   <dbl>  <dbl>
 1 Resor…       0     342    2015 July         27       1       0       0      2
 2 Resor…       0     737    2015 July         27       1       0       0      2
 3 Resor…       0       7    2015 July         27       1       0       1      1
 4 Resor…       0      13    2015 July         27       1       0       1      1
 5 Resor…       0      14    2015 July         27       1       0       2      2
 6 Resor…       0       0    2015 July         27       1       0       2      2
 7 Resor…       0       9    2015 July         27       1       0       2      2
 8 Resor…       1      85    2015 July         27       1       0       3      2
 9 Resor…       1      75    2015 July         27       1       0       3      2
10 Resor…       1      23    2015 July         27       1       0       4      2
# … with 87,386 more rows, 22 more variables: children <dbl>, babies <dbl>,
#   meal <chr>, country <chr>, market_segment <chr>,
#   distribution_channel <chr>, is_repeated_guest <dbl>,
#   previous_cancellations <dbl>, previous_bookings_not_canceled <dbl>,
#   reserved_room_type <chr>, assigned_room_type <chr>, booking_changes <dbl>,
#   deposit_type <chr>, agent <chr>, company <chr>, days_in_waiting_list <dbl>,
#   customer_type <chr>, avg_daily_rate <dbl>, …
…
