DACSS 601: Data Science Fundamentals - FALL 2022 - Challenge 3
…
australian_marriage*.xls ⭐⭐⭐

USA Households*.xlsx ⭐⭐⭐⭐

sce_labor_chart_data_public.xlsx 🌟🌟🌟🌟🌟

Code

Households <- read_excel("_data/USA Households by Total Money Income, Race, and Hispanic Origin of Householder 1967 to 2019.xlsx",
                         skip = 5,
                         col_names = c("Year","Household","Total",str_c("income",1:9,sep = "_i"),"Median_income","MarginOfError","Mean_income","MarginOfError"))
Households

# A tibble: 383 × 16
   Year    House…¹ Total incom…² incom…³ incom…⁴ incom…⁵ incom…⁶ incom…⁷ incom…⁸
   <chr>   <chr>   <dbl>   <dbl>   <dbl>   <dbl>   <dbl>   <dbl>   <dbl>   <dbl>
 1 ALL RA… <NA>       NA    NA      NA      NA      NA      NA      NA      NA  
 2 2019    128451    100     9.1     8       8.3    11.7    16.5    12.3    15.5
 3 2018    128579    100    10.1     8.8     8.7    12      17      12.5    15  
 4 2017 2  127669    100    10       9.1     9.2    12      16.4    12.4    14.7
 5 2017    127586    100    10.1     9.1     9.2    11.9    16.3    12.6    14.8
 6 2016    126224    100    10.4     9       9.2    12.3    16.7    12.2    15  
 7 2015    125819    100    10.6    10       9.6    12.1    16.1    12.4    14.9
 8 2014    124587    100    11.4    10.5     9.6    12.6    16.4    12.1    14  
 9 2013 3  123931    100    11.4    10.3     9.5    12.5    16.8    12      13.9
10 2013 4  122952    100    11.3    10.4     9.7    13.1    17      12.5    13.6
# … with 373 more rows, 6 more variables: income_i8 <dbl>, income_i9 <dbl>,
#   Median_income <dbl>, MarginOfError...14 <dbl>, Mean_income <chr>,
#   MarginOfError...16 <chr>, and abbreviated variable names ¹​Household,
#   ²​income_i1, ³​income_i2, ⁴​income_i3, ⁵​income_i4, ⁶​income_i5, ⁷​income_i6,
#   ⁸​income_i7
# ℹ Use `print(n = ...)` to see more rows, and `colnames()` to see all variable names
…
