DACSS 601: Data Science Fundamentals - FALL 2022 - Challenge 3
…
data <- read_excel("../posts/_data/USA Households by Total Money Income, Race, and Hispanic Origin of Householder 1967 to 2019.xlsx", sheet=NULL, range=NULL,
         skip=5,
         n_max = 352,
         col_names = c("year", "hholds", "del",
                       str_c("income",1:9,sep="_i"),
                       "median_inc", "median_se", 
                       "mean_inc","mean_se"))%>%
  select(-del)
data

# A tibble: 352 × 15
   year   hholds incom…¹ incom…² incom…³ incom…⁴ incom…⁵ incom…⁶ incom…⁷ incom…⁸
   <chr>  <chr>    <dbl>   <dbl>   <dbl>   <dbl>   <dbl>   <dbl>   <dbl>   <dbl>
 1 ALL R… <NA>      NA      NA      NA      NA      NA      NA      NA      NA  
 2 2019   128451     9.1     8       8.3    11.7    16.5    12.3    15.5     8.3
 3 2018   128579    10.1     8.8     8.7    12      17      12.5    15       7.2
 4 2017 2 127669    10       9.1     9.2    12      16.4    12.4    14.7     7.3
 5 2017   127586    10.1     9.1     9.2    11.9    16.3    12.6    14.8     7.5
 6 2016   126224    10.4     9       9.2    12.3    16.7    12.2    15       7.2
 7 2015   125819    10.6    10       9.6    12.1    16.1    12.4    14.9     7.1
 8 2014   124587    11.4    10.5     9.6    12.6    16.4    12.1    14       6.6
 9 2013 3 123931    11.4    10.3     9.5    12.5    16.8    12      13.9     6.7
10 2013 4 122952    11.3    10.4     9.7    13.1    17      12.5    13.6     6.3
# … with 342 more rows, 5 more variables: income_i9 <dbl>, median_inc <dbl>,
#   median_se <dbl>, mean_inc <chr>, mean_se <chr>, and abbreviated variable
#   names ¹​income_i1, ²​income_i2, ³​income_i3, ⁴​income_i4, ⁵​income_i5,
#   ⁶​income_i6, ⁷​income_i7, ⁸​income_i8
…
data<-data%>%
  separate(year, into=c("year", "delete"), sep=" ")%>%
  mutate(identity = str_remove(identity, " [0-9]+"),
         across(any_of(c("hholds", "mean_inc", "mean_se", "year")), 
                parse_number))%>%
  select(-delete)

data

# A tibble: 340 × 16
    year hholds income…¹ incom…² incom…³ incom…⁴ incom…⁵ incom…⁶ incom…⁷ incom…⁸
   <dbl>  <dbl>    <dbl>   <dbl>   <dbl>   <dbl>   <dbl>   <dbl>   <dbl>   <dbl>
 1  2019 128451      9.1     8       8.3    11.7    16.5    12.3    15.5     8.3
 2  2018 128579     10.1     8.8     8.7    12      17      12.5    15       7.2
 3  2017 127669     10       9.1     9.2    12      16.4    12.4    14.7     7.3
 4  2017 127586     10.1     9.1     9.2    11.9    16.3    12.6    14.8     7.5
 5  2016 126224     10.4     9       9.2    12.3    16.7    12.2    15       7.2
 6  2015 125819     10.6    10       9.6    12.1    16.1    12.4    14.9     7.1
 7  2014 124587     11.4    10.5     9.6    12.6    16.4    12.1    14       6.6
 8  2013 123931     11.4    10.3     9.5    12.5    16.8    12      13.9     6.7
 9  2013 122952     11.3    10.4     9.7    13.1    17      12.5    13.6     6.3
10  2012 122459     11.4    10.6    10.1    12.5    17.4    12      13.9     6.3
# … with 330 more rows, 6 more variables: income_i9 <dbl>, median_inc <dbl>,
#   median_se <dbl>, mean_inc <dbl>, mean_se <dbl>, identity <chr>, and
#   abbreviated variable names ¹​income_i1, ²​income_i2, ³​income_i3, ⁴​income_i4,
#   ⁵​income_i5, ⁶​income_i6, ⁷​income_i7, ⁸​income_i8
…
                  "ASIAN AND PACIFIC ISLANDER") ~ "gp_asian",
    identity %in% c("WHITE, NOT HISPANIC", 
                    "WHITE ALONE, NOT HISPANIC") ~ "gp_white",
    identity %in% c("HISPANIC (ANY RACE)") ~ "gp_hisp",
    identity %in% c("ALL RACES") ~ "gp_all"
  ))%>%
  filter(!is.na(gp_identity))%>%
    group_by(year, gp_identity)%>%
    summarise(across(c(starts_with("inc"),starts_with("me"),
                      "hholds"), 
                      ~sum(.x, na.rm=TRUE)))%>%
  ungroup()
data

# A tibble: 235 × 16
    year gp_id…¹ incom…² incom…³ incom…⁴ incom…⁵ incom…⁶ incom…⁷ incom…⁸ incom…⁹
   <dbl> <chr>     <dbl>   <dbl>   <dbl>   <dbl>   <dbl>   <dbl>   <dbl>   <dbl>
 1  1967 gp_all     14.8    10.2    10.9    16.8    24.8    11.9     7.7     1.7
 2  1967 gp_bla…    26.8    17.7    15.2    16.4    14.8     5.5     2.7     0.6
 3  1968 gp_all     13.4    10.1    10.4    16.5    24.8    13.7     8.2     1.8
 4  1968 gp_bla…    24.4    17      15.5    16.2    16.6     6.5     3.2     0.4
 5  1969 gp_all     13.2     9.9     9.4    16      24.3    14.2     9.4     2.2
 6  1969 gp_bla…    24      16.1    14.1    17.7    16.9     6.7     3.8     0.5
 7  1970 gp_all     13.3    10.1     9.7    15.7    24.1    13.7     9.9     2.2
 8  1970 gp_bla…    24.1    15.8    13.7    17.1    16.7     7.4     4.4     0.6
 9  1971 gp_all     13.3    10.2    10.6    15.2    23.5    13.9     9.7     2.2
10  1971 gp_bla…    24.7    16.2    14.2    16.3    16.7     7.3     3.8     0.6
# … with 225 more rows, 6 more variables: income_i9 <dbl>, median_inc <dbl>,
#   median_se <dbl>, mean_inc <dbl>, mean_se <dbl>, hholds <dbl>, and
#   abbreviated variable names ¹​gp_identity, ²​income_i1, ³​income_i2,
#   ⁴​income_i3, ⁵​income_i4, ⁶​income_i5, ⁷​income_i6, ⁸​income_i7, ⁹​income_i8

Anticipated End Result

The end product should look like a table with the percentage of each income bracket that each race makes up. This could shed light on races being disproportionally represented in different income brackets.

Ideally we would have each year, race, and income bracket as seperate rows to see the income of households over time and what proportion of each income bracket they made up in a given year.

Code

data

# A tibble: 235 × 16
    year gp_id…¹ incom…² incom…³ incom…⁴ incom…⁵ incom…⁶ incom…⁷ incom…⁸ incom…⁹
   <dbl> <chr>     <dbl>   <dbl>   <dbl>   <dbl>   <dbl>   <dbl>   <dbl>   <dbl>
 1  1967 gp_all     14.8    10.2    10.9    16.8    24.8    11.9     7.7     1.7
 2  1967 gp_bla…    26.8    17.7    15.2    16.4    14.8     5.5     2.7     0.6
 3  1968 gp_all     13.4    10.1    10.4    16.5    24.8    13.7     8.2     1.8
 4  1968 gp_bla…    24.4    17      15.5    16.2    16.6     6.5     3.2     0.4
 5  1969 gp_all     13.2     9.9     9.4    16      24.3    14.2     9.4     2.2
 6  1969 gp_bla…    24      16.1    14.1    17.7    16.9     6.7     3.8     0.5
 7  1970 gp_all     13.3    10.1     9.7    15.7    24.1    13.7     9.9     2.2
 8  1970 gp_bla…    24.1    15.8    13.7    17.1    16.7     7.4     4.4     0.6
 9  1971 gp_all     13.3    10.2    10.6    15.2    23.5    13.9     9.7     2.2
10  1971 gp_bla…    24.7    16.2    14.2    16.3    16.7     7.3     3.8     0.6
# … with 225 more rows, 6 more variables: income_i9 <dbl>, median_inc <dbl>,
#   median_se <dbl>, mean_inc <dbl>, mean_se <dbl>, hholds <dbl>, and
#   abbreviated variable names ¹​gp_identity, ²​income_i1, ³​income_i2,
#   ⁴​income_i3, ⁵​income_i4, ⁶​income_i5, ⁷​income_i6, ⁸​income_i7, ⁹​income_i8
…
#about, but the solution made thigns very clear, as we are reducing the income columns to see
#them as rows instead. 
#The second part gives more description to the income bracket types.
brackets <-data%>%
  ungroup()%>%
  select(year, gp_identity, hholds, starts_with("income"))%>%
  pivot_longer(cols=starts_with("income"),
               names_prefix= "income_",
               names_to = "income_bracket",
               values_to = "percent")%>%
  mutate(hholds_bracket = round(hholds*(percent/100)),
         income_bracket = recode(income_bracket,!!!income_brackets))
brackets

# A tibble: 2,115 × 6
    year gp_identity hholds income_bracket       percent hholds_bracket
   <dbl> <chr>        <dbl> <chr>                  <dbl>          <dbl>
 1  1967 gp_all       60813 Under $15,000           14.8           9000
 2  1967 gp_all       60813 $15,000 to $24,999      10.2           6203
 3  1967 gp_all       60813 $25,000 to $34,999      10.9           6629
 4  1967 gp_all       60813 $35,000 to $49,999      16.8          10217
 5  1967 gp_all       60813 $50,000 to $74,999      24.8          15082
 6  1967 gp_all       60813 $75,000 to $99,999      11.9           7237
 7  1967 gp_all       60813 $100,000 to $149,999     7.7           4683
 8  1967 gp_all       60813 $150,000 to $199,999     1.7           1034
 9  1967 gp_all       60813 $200,000 and over        1.2            730
10  1967 gp_black      5728 Under $15,000           26.8           1535
# … with 2,105 more rows
…
