DACSS 601: Data Science Fundamentals - FALL 2022 - Challenge 8 Erika Nagai
…
snl_actor <- read_csv("_data/snl_actors.csv")
snl_casts <- read_csv("_data/snl_casts.csv")
snl_seasons <- read_csv("_data/snl_seasons.csv")

Briefly describe the data

There are three datasets snl_actor, snl_casts, and snl_seasons datasets. SNL stands for “Saturday Night Live”, an American live comedy television program that started in 1975.

snl_actor dataset

This data is a list of persons who had been featured in Saturday Night Live. Each row represents one person (actor, comedian, celebrity) and his/her name in the column aid functions as a primary key. This dataset has three other columns, url, type, and gender.

snl_actor

# A tibble: 2,306 × 4
   aid            url           type  gender 
   <chr>          <chr>         <chr> <chr>  
 1 Kate McKinnon  /Cast/?KaMc   cast  female 
 2 Alex Moffat    /Cast/?AlMo   cast  male   
 3 Ego Nwodim     /Cast/?EgNw   cast  unknown
 4 Chris Redd     /Cast/?ChRe   cast  male   
 5 Kenan Thompson /Cast/?KeTh   cast  male   
 6 Carey Mulligan /Guests/?3677 guest andy   
 7 Marcus Mumford /Guests/?3679 guest male   
 8 Aidy Bryant    /Cast/?AiBr   cast  female 
 9 Steve Higgins  /Crew/?StHi   crew  male   
10 Mikey Day      /Cast/?MiDa   cast  male   
# … with 2,296 more rows
…
      0
(0.0%)

Generated by summarytools 1.0.1 (R version 4.2.1)
2022-11-29

The values in url column seem to consist of “/”, the type (Actor, Guests, Crew), again “/”, and then 4 characters, which are either the first 2 characters of first name and family name respectively, or 4 digits.

There are 57 observations that are missing url value, of which 57 have unknown value for type. Only one of the observations with NA url data is that of “Jack Handey”, a crew.

snl_actor %>% 
  filter(is.na(url))

# A tibble: 57 × 4
   aid               url   type    gender
   <chr>             <chr> <chr>   <chr> 
 1 Don Roy King      <NA>  unknown male  
 2 Liam Payne        <NA>  unknown male  
 3 Louis Tomlinson   <NA>  unknown male  
 4 Zayn Malik        <NA>  unknown male  
 5 Caleb Followill   <NA>  unknown male  
 6 Jared Followill   <NA>  unknown male  
 7 Matthew Followill <NA>  unknown male  
 8 Nathan Followill  <NA>  unknown male  
 9 Regine Chassagne  <NA>  unknown female
10 William Butler    <NA>  unknown male  
# … with 47 more rows

snl_actor %>% 
  filter(is.na(url) & type == "crew") 

# A tibble: 1 × 4
  aid         url   type  gender
  <chr>       <chr> <chr> <chr> 
1 Jack Handey <NA>  crew  male  

For gender column, there are 4 possible categories, “male”, “female”, “unknown”, and “andy”. The values “andy” don’t seem to have much sense. 21 observations have “andy” for their gender value. While most of them are “guest” type, however I don’t see any patters for classifying the observations as andy. Thus, I believe this is an error and I replaced andy with unknown for further analysis

snl_actor %>%
  filter(gender == "andy")

# A tibble: 21 × 4
   aid            url           type    gender
   <chr>          <chr>         <chr>   <chr> 
 1 Carey Mulligan /Guests/?3677 guest   andy  
 2 Casey Davidson /Guests/?3593 guest   andy  
 3 Jackie Sandler /Guests/?3598 guest   andy  
 4 Casey Nicholaw /Guests/?3372 guest   andy  
 5 Skylar Grey    /Guests/?3275 guest   andy  
 6 Casey Affleck  /Guests/?3195 guest   andy  
 7 Win Butler     <NA>          unknown andy  
 8 Phoenix        /Guests/?2846 guest   andy  
 9 Pat Smear      /Guests/?2813 guest   andy  
10 Bon Iver       /Guests/?2713 guest   andy  
# … with 11 more rows
…
# A tibble: 2 × 2
  type    number
  <chr>    <int>
1 guest       20
2 unknown      1

snl_actor$gender[snl_actor$gender=="andy"] <- "unknown"
snl_actor

# A tibble: 2,306 × 4
   aid            url           type  gender 
   <chr>          <chr>         <chr> <chr>  
 1 Kate McKinnon  /Cast/?KaMc   cast  female 
 2 Alex Moffat    /Cast/?AlMo   cast  male   
 3 Ego Nwodim     /Cast/?EgNw   cast  unknown
 4 Chris Redd     /Cast/?ChRe   cast  male   
 5 Kenan Thompson /Cast/?KeTh   cast  male   
 6 Carey Mulligan /Guests/?3677 guest unknown
 7 Marcus Mumford /Guests/?3679 guest male   
 8 Aidy Bryant    /Cast/?AiBr   cast  female 
 9 Steve Higgins  /Crew/?StHi   crew  male   
10 Mikey Day      /Cast/?MiDa   cast  male   
# … with 2,296 more rows
…
snl_seasons describes the information of each season of SNL such as 1. When it started and ended 2. how many episodes did each episode have. sid is the number of seasons (from 1 to 46) and works as an unique identifier of season.

sid [primary id]

year: when the season started

first_epid: the date when the season’s first episode aired

last_epid: the date when the season’s last episode aired

n_episodes: the number of episodes of the season

snl_seasons

# A tibble: 46 × 5
     sid  year first_epid last_epid n_episodes
   <dbl> <dbl>      <dbl>     <dbl>      <dbl>
 1     1  1975   19751011  19760731         24
 2     2  1976   19760918  19770521         22
 3     3  1977   19770924  19780520         20
 4     4  1978   19781007  19790526         20
 5     5  1979   19791013  19800524         20
 6     6  1980   19801115  19810411         13
 7     7  1981   19811003  19820522         20
 8     8  1982   19820925  19830514         20
 9     9  1983   19831008  19840512         19
10    10  1984   19841006  19850413         17
# … with 36 more rows
…
snl_casts

snl_casts dataset describes the persons who joined SNL episodes and the detail of episodes. Each row represents an actor/comedian that was on the show and has the information on which season he/she paricipated the show. aid and sid seem to work as a foreign key with aid from snl_actors dataset and `sid from snl_seasons respectively.

snl_casts

# A tibble: 614 × 8
   aid                sid featured first_epid last_epid update…¹ n_epi…² seaso…³
   <chr>            <dbl> <lgl>         <dbl>     <dbl> <lgl>      <dbl>   <dbl>
 1 A. Whitney Brown    11 TRUE       19860222        NA FALSE          8   0.444
 2 A. Whitney Brown    12 TRUE             NA        NA FALSE         20   1    
 3 A. Whitney Brown    13 TRUE             NA        NA FALSE         13   1    
 4 A. Whitney Brown    14 TRUE             NA        NA FALSE         20   1    
 5 A. Whitney Brown    15 TRUE             NA        NA FALSE         20   1    
 6 A. Whitney Brown    16 TRUE             NA        NA FALSE         20   1    
 7 Alan Zweibel         5 TRUE       19800409        NA FALSE          5   0.25 
 8 Sasheer Zamata      39 TRUE       20140118        NA FALSE         11   0.524
 9 Sasheer Zamata      40 TRUE             NA        NA FALSE         21   1    
10 Sasheer Zamata      41 FALSE            NA        NA FALSE         21   1    
# … with 604 more rows, and abbreviated variable names ¹​update_anchor,
#   ²​n_episodes, ³​season_fraction
…
