DACSS 601: Data Science Fundamentals - FALL 2022 - Challenge 3 Abby Balint
…
[1] 2

144 rows as expected :)

Challenge: Pivot the Chosen Data

Code

pivot_longer(weights, "Cattle - dairy":"Llamas",
                 names_to="animal",
                 values_to = "weights")

# A tibble: 144 × 3
   `IPCC Area`         animal             weights
   <chr>               <chr>                <dbl>
 1 Indian Subcontinent Cattle - dairy       275  
 2 Indian Subcontinent Cattle - non-dairy   110  
 3 Indian Subcontinent Buffaloes            295  
 4 Indian Subcontinent Swine - market        28  
 5 Indian Subcontinent Swine - breeding      28  
 6 Indian Subcontinent Chicken - Broilers     0.9
 7 Indian Subcontinent Chicken - Layers       1.8
 8 Indian Subcontinent Ducks                  2.7
 9 Indian Subcontinent Turkeys                6.8
10 Indian Subcontinent Sheep                 28  
# … with 134 more rows
…
