DACSS 601: Data Science Fundamentals - FALL 2022 - Challenge 3
…
pivot the data into tidy format using pivot_longer

Read in data

eggs_tidy.csv ⭐⭐

Code

eggs <- read_csv("_data/eggs_tidy.csv")%>%
    rename("xlarge_halfdozen" = "extra_large_half_dozen", 
         "xlarge_dozen" = "extra_large_dozen", 
         "large_halfdozen" = "large_half_dozen")
eggs

# A tibble: 120 × 6
   month      year large_halfdozen large_dozen xlarge_halfdozen xlarge_dozen
   <chr>     <dbl>           <dbl>       <dbl>            <dbl>        <dbl>
 1 January    2004            126         230              132          230 
 2 February   2004            128.        226.             134.         230 
 3 March      2004            131         225              137          230 
 4 April      2004            131         225              137          234.
 5 May        2004            131         225              137          236 
 6 June       2004            134.        231.             137          241 
 7 July       2004            134.        234.             137          241 
 8 August     2004            134.        234.             137          241 
 9 September  2004            130.        234.             136.         241 
10 October    2004            128.        234.             136.         241 
# … with 110 more rows
…
Right now the data consists of 6 columns, 4 of which contain values and 2 categorize the data. To make the data easier to work with, I want to make one column with values(Price) and add a column for size and quantity of eggs. So, my new matrix will contain the month, year, size, quantity, and price. I also anticipate that there will be 480 rows, as I will be putting all the price values into one column (120 months x 4 price variables).

Pivot the Data

Code

eggs_longer <- eggs %>%
   pivot_longer(cols = contains("large"),
               names_to = c("size", "quantity"),
               names_sep = "_",
               values_to = "price")

eggs_longer

# A tibble: 480 × 5
   month     year size   quantity  price
   <chr>    <dbl> <chr>  <chr>     <dbl>
 1 January   2004 large  halfdozen  126 
 2 January   2004 large  dozen      230 
 3 January   2004 xlarge halfdozen  132 
 4 January   2004 xlarge dozen      230 
 5 February  2004 large  halfdozen  128.
 6 February  2004 large  dozen      226.
 7 February  2004 xlarge halfdozen  134.
 8 February  2004 xlarge dozen      230 
 9 March     2004 large  halfdozen  131 
10 March     2004 large  dozen      225 
# … with 470 more rows
…
