DACSS 601: Data Science Fundamentals - FALL 2022 - Challenge 8 Erika Nagai
…
accommodation_df %>% 
  select(c("name", "price", "availability_365")) %>%
  filter(price == 0 | availability_365 == 0)

# A tibble: 17,541 × 3
   name                                               price availability_365
   <chr>                                              <dbl>            <dbl>
 1 Entire Apt: Spacious Studio/Loft by central park      80                0
 2 BlissArtsSpace!                                       60                0
 3 Cozy Clean Guest Room - Family Apt                    79                0
 4 West Village Nest - Superhost                        120                0
 5 Sweet and Spacious Brooklyn Loft                     299                0
 6 Magnifique Suite au N de Manhattan - vue Cloitres     80                0
 7 bright and stylish duplex                            115                0
 8 Light-filled 2B duplex in the heart of Park Slope!   225                0
 9 Great Location for NYC                                50                0
10 Charming 1 bed GR8 WBurg LOCATION!                   100                0
# … with 17,531 more rows
…
1250
1
100.00000

Thus, it is fairly safe to consider that the accommodation that require more than 31 days (1 month) for the minimum nights as outliers. Since these accommodations are not available for short-term travelers, I consider them as “outlier” (outlier = 1)

accommodation_df <- accommodation_df %>%
  mutate(outlier = case_when(.$price == 0|.$availability_365 == 0| minimum_nights > 31 ~ 1, 
                                  TRUE ~ 0))

accommodation_df

# A tibble: 48,895 × 15
      id name      host_id neigh…¹ neigh…² latit…³ longi…⁴ room_…⁵ price minim…⁶
   <dbl> <chr>       <dbl> <chr>   <chr>     <dbl>   <dbl> <chr>   <dbl>   <dbl>
 1  2539 Clean & …    2787 Brookl… Kensin…    40.6   -74.0 Privat…   149       1
 2  2595 Skylit M…    2845 Manhat… Midtown    40.8   -74.0 Entire…   225       1
 3  3647 THE VILL…    4632 Manhat… Harlem     40.8   -73.9 Privat…   150       3
 4  3831 Cozy Ent…    4869 Brookl… Clinto…    40.7   -74.0 Entire…    89       1
 5  5022 Entire A…    7192 Manhat… East H…    40.8   -73.9 Entire…    80      10
 6  5099 Large Co…    7322 Manhat… Murray…    40.7   -74.0 Entire…   200       3
 7  5121 BlissArt…    7356 Brookl… Bedfor…    40.7   -74.0 Privat…    60      45
 8  5178 Large Fu…    8967 Manhat… Hell's…    40.8   -74.0 Privat…    79       2
 9  5203 Cozy Cle…    7490 Manhat… Upper …    40.8   -74.0 Privat…    79       2
10  5238 Cute & C…    7549 Manhat… Chinat…    40.7   -74.0 Entire…   150       1
# … with 48,885 more rows, 5 more variables: number_of_reviews <dbl>,
#   last_review <date>, reviews_per_month <dbl>, availability_365 <dbl>,
#   outlier <dbl>, and abbreviated variable names ¹​neighbourhood_group,
#   ²​neighbourhood, ³​latitude, ⁴​longitude, ⁵​room_type, ⁶​minimum_nights
…
9999
3
99.9938644

10000
3
100.0000000

accommodation_df <- accommodation_df %>%
  mutate(outlier = case_when(.$price == 0|.$price > 1000|.$availability_365 == 0| minimum_nights > 31 ~ 1, 
                                  TRUE ~ 0))

accommodation_df

# A tibble: 48,895 × 15
      id name      host_id neigh…¹ neigh…² latit…³ longi…⁴ room_…⁵ price minim…⁶
   <dbl> <chr>       <dbl> <chr>   <chr>     <dbl>   <dbl> <chr>   <dbl>   <dbl>
 1  2539 Clean & …    2787 Brookl… Kensin…    40.6   -74.0 Privat…   149       1
 2  2595 Skylit M…    2845 Manhat… Midtown    40.8   -74.0 Entire…   225       1
 3  3647 THE VILL…    4632 Manhat… Harlem     40.8   -73.9 Privat…   150       3
 4  3831 Cozy Ent…    4869 Brookl… Clinto…    40.7   -74.0 Entire…    89       1
 5  5022 Entire A…    7192 Manhat… East H…    40.8   -73.9 Entire…    80      10
 6  5099 Large Co…    7322 Manhat… Murray…    40.7   -74.0 Entire…   200       3
 7  5121 BlissArt…    7356 Brookl… Bedfor…    40.7   -74.0 Privat…    60      45
 8  5178 Large Fu…    8967 Manhat… Hell's…    40.8   -74.0 Privat…    79       2
 9  5203 Cozy Cle…    7490 Manhat… Upper …    40.8   -74.0 Privat…    79       2
10  5238 Cute & C…    7549 Manhat… Chinat…    40.7   -74.0 Entire…   150       1
# … with 48,885 more rows, 5 more variables: number_of_reviews <dbl>,
#   last_review <date>, reviews_per_month <dbl>, availability_365 <dbl>,
#   outlier <dbl>, and abbreviated variable names ¹​neighbourhood_group,
#   ²​neighbourhood, ³​latitude, ⁴​longitude, ⁵​room_type, ⁶​minimum_nights
…
host_df needs to be cleaned because it has several duplicated information. For example, host_id should be unique however the same host_id appear multiple times as the below table shows.

host_df %>% group_by(host_id) %>%
  count() %>%
  arrange(desc(n))

# A tibble: 37,457 × 2
# Groups:   host_id [37,457]
     host_id     n
       <dbl> <int>
 1 219517861   327
 2 107434423   232
 3  30283594   121
 4 137358866   103
 5  12243051    96
 6  16098958    96
 7  61391963    91
 8  22541573    87
 9 200380610    65
10   1475015    52
# … with 37,447 more rows
…
