DACSS 601: Data Science Fundamentals - FALL 2022 - Challenge 5 Kristin Abijaoude
…
    Published

      October 19, 2022

library(tidyverse)
library(ggplot2)
library(dplyr)
library(readr)

knitr::opts_chunk$set(echo = TRUE, warning=FALSE, message=FALSE)

AB_NYC_2019 <- read_csv("_data/AB_NYC_2019.csv")
AB_NYC_2019

# A tibble: 48,895 × 16
      id name      host_id host_…¹ neigh…² neigh…³ latit…⁴ longi…⁵ room_…⁶ price
   <dbl> <chr>       <dbl> <chr>   <chr>   <chr>     <dbl>   <dbl> <chr>   <dbl>
 1  2539 Clean & …    2787 John    Brookl… Kensin…    40.6   -74.0 Privat…   149
 2  2595 Skylit M…    2845 Jennif… Manhat… Midtown    40.8   -74.0 Entire…   225
 3  3647 THE VILL…    4632 Elisab… Manhat… Harlem     40.8   -73.9 Privat…   150
 4  3831 Cozy Ent…    4869 LisaRo… Brookl… Clinto…    40.7   -74.0 Entire…    89
 5  5022 Entire A…    7192 Laura   Manhat… East H…    40.8   -73.9 Entire…    80
 6  5099 Large Co…    7322 Chris   Manhat… Murray…    40.7   -74.0 Entire…   200
 7  5121 BlissArt…    7356 Garon   Brookl… Bedfor…    40.7   -74.0 Privat…    60
 8  5178 Large Fu…    8967 Shunic… Manhat… Hell's…    40.8   -74.0 Privat…    79
 9  5203 Cozy Cle…    7490 MaryEl… Manhat… Upper …    40.8   -74.0 Privat…    79
10  5238 Cute & C…    7549 Ben     Manhat… Chinat…    40.7   -74.0 Entire…   150
# … with 48,885 more rows, 6 more variables: minimum_nights <dbl>,
#   number_of_reviews <dbl>, last_review <date>, reviews_per_month <dbl>,
#   calculated_host_listings_count <dbl>, availability_365 <dbl>, and
#   abbreviated variable names ¹​host_name, ²​neighbourhood_group,
#   ³​neighbourhood, ⁴​latitude, ⁵​longitude, ⁶​room_type
…
         "Host ID" = host_id,
         "Host Name" = host_name,
         "Borough" = neighbourhood_group,
         "Neighborhood" = neighbourhood,
         "Room Type" = room_type,
         "Price per Night ($)" = price,
         "Minimum Number of Nights" = minimum_nights,
         "Number of Reviews" = number_of_reviews,
         "Date of Last Review" = last_review,
         "Number of Reviews per Month" = reviews_per_month,
         "Calculated Host Listings Count" = calculated_host_listings_count,
         "Number of Days Available During the Year" = availability_365)
AB_NYC_tidy

# A tibble: 48,895 × 16
   `Listing ID` Listin…¹ Host …² Host …³ Borough Neigh…⁴ latit…⁵ longi…⁶ Room …⁷
          <dbl> <chr>      <dbl> <chr>   <chr>   <chr>     <dbl>   <dbl> <chr>  
 1         2539 Clean &…    2787 John    Brookl… Kensin…    40.6   -74.0 Privat…
 2         2595 Skylit …    2845 Jennif… Manhat… Midtown    40.8   -74.0 Entire…
 3         3647 THE VIL…    4632 Elisab… Manhat… Harlem     40.8   -73.9 Privat…
 4         3831 Cozy En…    4869 LisaRo… Brookl… Clinto…    40.7   -74.0 Entire…
 5         5022 Entire …    7192 Laura   Manhat… East H…    40.8   -73.9 Entire…
 6         5099 Large C…    7322 Chris   Manhat… Murray…    40.7   -74.0 Entire…
 7         5121 BlissAr…    7356 Garon   Brookl… Bedfor…    40.7   -74.0 Privat…
 8         5178 Large F…    8967 Shunic… Manhat… Hell's…    40.8   -74.0 Privat…
 9         5203 Cozy Cl…    7490 MaryEl… Manhat… Upper …    40.8   -74.0 Privat…
10         5238 Cute & …    7549 Ben     Manhat… Chinat…    40.7   -74.0 Entire…
# … with 48,885 more rows, 7 more variables: `Price per Night ($)` <dbl>,
#   `Minimum Number of Nights` <dbl>, `Number of Reviews` <dbl>,
#   `Date of Last Review` <date>, `Number of Reviews per Month` <dbl>,
#   `Calculated Host Listings Count` <dbl>,
#   `Number of Days Available During the Year` <dbl>, and abbreviated variable
#   names ¹​`Listing Name`, ²​`Host ID`, ³​`Host Name`, ⁴​Neighborhood, ⁵​latitude,
#   ⁶​longitude, ⁷​`Room Type`

Let’s create a new variable called “Geolocation” by combining the latitude and longitude columns.

AB_NYC_tidy <- unite(AB_NYC_tidy, "latitude", "longitude", col = "Geolocation", sep = ":")

AB_NYC_tidy

# A tibble: 48,895 × 15
   `Listing ID` Listin…¹ Host …² Host …³ Borough Neigh…⁴ Geolo…⁵ Room …⁶ Price…⁷
          <dbl> <chr>      <dbl> <chr>   <chr>   <chr>   <chr>   <chr>     <dbl>
 1         2539 Clean &…    2787 John    Brookl… Kensin… 40.647… Privat…     149
 2         2595 Skylit …    2845 Jennif… Manhat… Midtown 40.753… Entire…     225
 3         3647 THE VIL…    4632 Elisab… Manhat… Harlem  40.809… Privat…     150
 4         3831 Cozy En…    4869 LisaRo… Brookl… Clinto… 40.685… Entire…      89
 5         5022 Entire …    7192 Laura   Manhat… East H… 40.798… Entire…      80
 6         5099 Large C…    7322 Chris   Manhat… Murray… 40.747… Entire…     200
 7         5121 BlissAr…    7356 Garon   Brookl… Bedfor… 40.686… Privat…      60
 8         5178 Large F…    8967 Shunic… Manhat… Hell's… 40.764… Privat…      79
 9         5203 Cozy Cl…    7490 MaryEl… Manhat… Upper … 40.801… Privat…      79
10         5238 Cute & …    7549 Ben     Manhat… Chinat… 40.713… Entire…     150
# … with 48,885 more rows, 6 more variables: `Minimum Number of Nights` <dbl>,
#   `Number of Reviews` <dbl>, `Date of Last Review` <date>,
#   `Number of Reviews per Month` <dbl>,
#   `Calculated Host Listings Count` <dbl>,
#   `Number of Days Available During the Year` <dbl>, and abbreviated variable
#   names ¹​`Listing Name`, ²​`Host ID`, ³​`Host Name`, ⁴​Neighborhood,
#   ⁵​Geolocation, ⁶​`Room Type`, ⁷​`Price per Night ($)`
…
