DACSS 601: Data Science Fundamentals - FALL 2022 - Challenge 5
…
I also pivoted the data longer so that I could eventially create a stacked graph of sodium and sugar in one bar graph.

Code

cereal_new<- pivot_longer(by_sugar, col = c("Sodium","Sugar"),
                 names_to="Ingredient",
                 values_to = "Amount")
cereal_new

# A tibble: 40 × 4
   Cereal             Type  Ingredient Amount
   <chr>              <chr> <chr>       <dbl>
 1 Raisin Bran        A     Sodium       0.34
 2 Raisin Bran        A     Sugar       18   
 3 Crackling Oat Bran A     Sodium       0.15
 4 Crackling Oat Bran A     Sugar       16   
 5 Honey Smacks       A     Sodium       0.05
 6 Honey Smacks       A     Sugar       15   
 7 Apple Jacks        C     Sodium       0.14
 8 Apple Jacks        C     Sugar       14   
 9 Froot Loops        C     Sodium       0.14
10 Froot Loops        C     Sugar       14   
# … with 30 more rows
…
