DACSS 601: Data Science Fundamentals - FALL 2022 - Challenge 3 Naughton
…
[1] 144

Challenge: Pivot the Chosen Data

With the pivoted data, each case is an observation of the type of animal, the area it comes from, and its weight.

Code

animal_weights<-pivot_longer(animal_weights, col = c("Cattle - dairy", "Cattle - non-dairy",  "Buffaloes", "Swine - market","Swine - breeding","Chicken - Broilers", "Chicken - Layers","Ducks","Turkeys","Sheep","Goats", "Horses","Asses","Mules", "Camels","Llamas"),
                 names_to="Animal_type",
                 values_to = "Weight")
animal_weights

# A tibble: 144 × 3
   `IPCC Area`         Animal_type        Weight
   <chr>               <chr>               <dbl>
 1 Indian Subcontinent Cattle - dairy      275  
 2 Indian Subcontinent Cattle - non-dairy  110  
 3 Indian Subcontinent Buffaloes           295  
 4 Indian Subcontinent Swine - market       28  
 5 Indian Subcontinent Swine - breeding     28  
 6 Indian Subcontinent Chicken - Broilers    0.9
 7 Indian Subcontinent Chicken - Layers      1.8
 8 Indian Subcontinent Ducks                 2.7
 9 Indian Subcontinent Turkeys               6.8
10 Indian Subcontinent Sheep                28  
# … with 134 more rows
…
Anticipate the End Result

Our original data set was 6 columns by 120 rows. Our new data will have 4 variables so we expect 120*(6-2) = 480 rows by 4 columns.

Challenge: Describe the final dimensions

We expect a new dataframe to have \(120*(6-2) = 480\) rows x \(4\) columns.

Code

eggs<-tibble(eggs)
eggs

# A tibble: 120 × 6
   month      year large_half_dozen large_dozen extra_large_half_dozen extra_l…¹
   <chr>     <dbl>            <dbl>       <dbl>                  <dbl>     <dbl>
 1 January    2004             126         230                    132       230 
 2 February   2004             128.        226.                   134.      230 
 3 March      2004             131         225                    137       230 
 4 April      2004             131         225                    137       234.
 5 May        2004             131         225                    137       236 
 6 June       2004             134.        231.                   137       241 
 7 July       2004             134.        234.                   137       241 
 8 August     2004             134.        234.                   137       241 
 9 September  2004             130.        234.                   136.      241 
10 October    2004             128.        234.                   136.      241 
# … with 110 more rows, and abbreviated variable name ¹​extra_large_dozen
…
#Renaming the column names 
eggs2<-rename(eggs,
        "Large Half Dozen" = large_half_dozen, 
       "Large Dozen" =  large_dozen,
       "Extra Large Half Dozen"= extra_large_half_dozen, 
      "Extra Large Dozen" =  extra_large_dozen )

eggs2%>% 
 pivot_longer(
   cols = ends_with("Dozen"),
   names_to = "Category",
   values_to = "Cost100"
  )

# A tibble: 480 × 4
   month     year Category               Cost100
   <chr>    <dbl> <chr>                    <dbl>
 1 January   2004 Large Half Dozen          126 
 2 January   2004 Large Dozen               230 
 3 January   2004 Extra Large Half Dozen    132 
 4 January   2004 Extra Large Dozen         230 
 5 February  2004 Large Half Dozen          128.
 6 February  2004 Large Dozen               226.
 7 February  2004 Extra Large Half Dozen    134.
 8 February  2004 Extra Large Dozen         230 
 9 March     2004 Large Half Dozen          131 
10 March     2004 Large Dozen               225 
# … with 470 more rows
…
