DACSS 601: Data Science Fundamentals - FALL 2022 - Global Military Spending - An Analysis
…
From this we can see the top 6 spenders reside in a cluster of there own when you look at their mean and max spend.

Faceted by Region, show mean spend of each country

Code

byRegionStats_year<-combinedData%>%
  group_by(Region,viewOfSpend,Year)%>%
  summarize(mean = mean(Spend, na.rm=TRUE))%>%
  filter(viewOfSpend == 'MilitarySpend_currentUSD')%>%
  arrange(desc(mean))

byRegionStats_year

# A tibble: 924 × 4
# Groups:   Region, viewOfSpend [14]
   Region        viewOfSpend               Year    mean
   <chr>         <chr>                    <int>   <dbl>
 1 North America MilitarySpend_currentUSD  2021 413561.
 2 North America MilitarySpend_currentUSD  2020 400839.
 3 North America MilitarySpend_currentUSD  2011 386841.
 4 North America MilitarySpend_currentUSD  2010 378660.
 5 North America MilitarySpend_currentUSD  2019 378369.
 6 North America MilitarySpend_currentUSD  2012 372829.
 7 North America MilitarySpend_currentUSD  2009 362427.
 8 North America MilitarySpend_currentUSD  2018 352610.
 9 North America MilitarySpend_currentUSD  2013 348872.
10 North America MilitarySpend_currentUSD  2008 338049.
# … with 914 more rows
…
Code

##V .... not needed....V

byRegion_byYear_Stats<-combinedData%>%
  group_by(Region,viewOfSpend, Year)%>%
  summarize(mean = mean(Spend, na.rm=TRUE,sigfig=1),
            std = sd(Spend, na.rm=TRUE))%>%
  filter(mean>=1880)%>%
  arrange(desc(mean))

byRegion_byYear_Stats

# A tibble: 389 × 5
# Groups:   Region, viewOfSpend [11]
   Region        viewOfSpend               Year    mean     std
   <chr>         <chr>                    <int>   <dbl>   <dbl>
 1 North America MilitarySpend_currentUSD  2021 413561. 547458.
 2 North America MilitarySpend_currentUSD  2020 400839. 533948.
 3 North America MilitarySpend_currentUSD  2011 386841. 516820.
 4 North America MilitarySpend_currentUSD  2010 378660. 508190.
 5 North America MilitarySpend_currentUSD  2019 378369. 503424.
 6 North America MilitarySpend_currentUSD  2012 372829. 498336.
 7 North America MilitarySpend_currentUSD  2009 362427. 485769.
 8 North America MilitarySpend_currentUSD  2018 352610. 466522.
 9 North America MilitarySpend_currentUSD  2013 348872. 467195.
10 North America MilitarySpend_currentUSD  2008 338049. 450720.
# … with 379 more rows
…
