DACSS 601: Data Science Fundamentals - FALL 2022 - Homework 2
…
  #if the row is a region
  if(is.na(mutated_CurrentUSD$`1949`[i]) ){
     mutated_CurrentUSD$Region[i+1] <- mutated_CurrentUSD$Country[i]
  }

}

mutated_CurrentUSD <- mutated_CurrentUSD %>%
  fill(Region)

mutated_CurrentUSD 

# A tibble: 191 × 75
   Country Region `1949` `1950` `1951` `1952` `1953` `1954` `1955` `1956` `1957`
   <chr>   <chr>  <chr>  <chr>  <chr>  <chr>  <chr>  <chr>  <chr>  <chr>  <chr> 
 1 Africa  <NA>   <NA>   <NA>   <NA>   <NA>   <NA>   <NA>   <NA>   <NA>   <NA>  
 2 North … Africa <NA>   <NA>   <NA>   <NA>   <NA>   <NA>   <NA>   <NA>   <NA>  
 3 Algeria North… xxx    xxx    xxx    xxx    xxx    xxx    xxx    xxx    xxx   
 4 Libya   North… xxx    xxx    ...    ...    ...    ...    ...    ...    ...   
 5 Morocco North… xxx    xxx    xxx    xxx    xxx    xxx    xxx    23.71… 35.40…
 6 Tunisia North… xxx    xxx    xxx    xxx    xxx    xxx    xxx    3.714… 6.411…
 7 sub-Sa… North… <NA>   <NA>   <NA>   <NA>   <NA>   <NA>   <NA>   <NA>   <NA>  
 8 Angola  sub-S… xxx    xxx    xxx    xxx    xxx    xxx    xxx    xxx    xxx   
 9 Benin   sub-S… xxx    xxx    xxx    xxx    xxx    xxx    xxx    xxx    xxx   
10 Botswa… sub-S… xxx    xxx    xxx    xxx    xxx    xxx    xxx    xxx    xxx   
# … with 181 more rows, and 64 more variables: `1958` <chr>, `1959` <chr>,
#   `1960` <chr>, `1961` <chr>, `1962` <chr>, `1963` <chr>, `1964` <chr>,
#   `1965` <chr>, `1966` <chr>, `1967` <chr>, `1968` <chr>, `1969` <chr>,
#   `1970` <chr>, `1971` <chr>, `1972` <chr>, `1973` <chr>, `1974` <chr>,
#   `1975` <chr>, `1976` <chr>, `1977` <chr>, `1978` <chr>, `1979` <chr>,
#   `1980` <chr>, `1981` <chr>, `1982` <chr>, `1983` <chr>, `1984` <chr>,
#   `1985` <chr>, `1986` <chr>, `1987` <chr>, `1988` <chr>, `1989` <chr>, …

With my tibble in this state I can now remove the header rows.

Code

mutated_CurrentUSD <- mutated_CurrentUSD %>%
  filter(!is.na(`1949`))
mutated_CurrentUSD

# A tibble: 173 × 75
   Country Region `1949` `1950` `1951` `1952` `1953` `1954` `1955` `1956` `1957`
   <chr>   <chr>  <chr>  <chr>  <chr>  <chr>  <chr>  <chr>  <chr>  <chr>  <chr> 
 1 Algeria North… xxx    xxx    xxx    xxx    xxx    xxx    xxx    xxx    xxx   
 2 Libya   North… xxx    xxx    ...    ...    ...    ...    ...    ...    ...   
 3 Morocco North… xxx    xxx    xxx    xxx    xxx    xxx    xxx    23.71… 35.40…
 4 Tunisia North… xxx    xxx    xxx    xxx    xxx    xxx    xxx    3.714… 6.411…
 5 Angola  sub-S… xxx    xxx    xxx    xxx    xxx    xxx    xxx    xxx    xxx   
 6 Benin   sub-S… xxx    xxx    xxx    xxx    xxx    xxx    xxx    xxx    xxx   
 7 Botswa… sub-S… xxx    xxx    xxx    xxx    xxx    xxx    xxx    xxx    xxx   
 8 Burkin… sub-S… xxx    xxx    xxx    xxx    xxx    xxx    xxx    xxx    xxx   
 9 Burundi sub-S… xxx    xxx    xxx    xxx    xxx    xxx    xxx    xxx    xxx   
10 Camero… sub-S… xxx    xxx    xxx    xxx    xxx    xxx    xxx    xxx    xxx   
# … with 163 more rows, and 64 more variables: `1958` <chr>, `1959` <chr>,
#   `1960` <chr>, `1961` <chr>, `1962` <chr>, `1963` <chr>, `1964` <chr>,
#   `1965` <chr>, `1966` <chr>, `1967` <chr>, `1968` <chr>, `1969` <chr>,
#   `1970` <chr>, `1971` <chr>, `1972` <chr>, `1973` <chr>, `1974` <chr>,
#   `1975` <chr>, `1976` <chr>, `1977` <chr>, `1978` <chr>, `1979` <chr>,
#   `1980` <chr>, `1981` <chr>, `1982` <chr>, `1983` <chr>, `1984` <chr>,
#   `1985` <chr>, `1986` <chr>, `1987` <chr>, `1988` <chr>, `1989` <chr>, …
…
