DACSS 601: Data Science Fundamentals - FALL 2022 - Global Military Spending - An Analysis
…
Code

#view(combinedData)
na.omit(combinedData)

# A tibble: 20,270 × 5
   Country Region        Year viewOfSpend                 Spend
   <chr>   <chr>        <int> <chr>                       <dbl>
 1 Algeria North Africa  1963 MilitarySpend_currentUSD  66.4   
 2 Algeria North Africa  1963 MilitarySpend_ShareofGDP   0.0251
 3 Algeria North Africa  1964 MilitarySpend_currentUSD  99.9   
 4 Algeria North Africa  1964 MilitarySpend_ShareofGDP   0.0350
 5 Algeria North Africa  1965 MilitarySpend_currentUSD 106.    
 6 Algeria North Africa  1965 MilitarySpend_ShareofGDP   0.0342
 7 Algeria North Africa  1966 MilitarySpend_currentUSD 105.    
 8 Algeria North Africa  1966 MilitarySpend_ShareofGDP   0.0351
 9 Algeria North Africa  1967 MilitarySpend_currentUSD  99.2   
10 Algeria North Africa  1967 MilitarySpend_ShareofGDP   0.0302
# … with 20,260 more rows
…
Code

byRegionStats_GDP<-combinedData%>%
  group_by(Region,viewOfSpend,Year)%>%
  summarize(mean = mean(Spend, na.rm=TRUE,sigfig=1),
            std = sd(Spend, na.rm=TRUE),
            min = min(Spend, na.rm=TRUE),
            max = max(Spend, na.rm=TRUE))%>%
  arrange(desc(mean))%>%
  filter(viewOfSpend=="MilitarySpend_ShareofGDP")

byRegionStats_GDP

# A tibble: 1,022 × 7
# Groups:   Region, viewOfSpend [14]
   Region      viewOfSpend               Year  mean    std    min   max
   <chr>       <chr>                    <int> <dbl>  <dbl>  <dbl> <dbl>
 1 Middle East MilitarySpend_ShareofGDP  1991 0.167 0.305  0.0217 1.17 
 2 Middle East MilitarySpend_ShareofGDP  1975 0.147 0.0893 0.0153 0.305
 3 Middle East MilitarySpend_ShareofGDP  1959 0.146 0.112  0.0671 0.225
 4 Middle East MilitarySpend_ShareofGDP  1976 0.139 0.0800 0.0175 0.292
 5 Middle East MilitarySpend_ShareofGDP  1974 0.131 0.0765 0.0319 0.277
 6 Middle East MilitarySpend_ShareofGDP  1982 0.117 0.0539 0.0430 0.193
 7 Middle East MilitarySpend_ShareofGDP  1973 0.117 0.0828 0.0186 0.279
 8 Middle East MilitarySpend_ShareofGDP  1978 0.115 0.0619 0.0419 0.229
 9 Middle East MilitarySpend_ShareofGDP  1985 0.113 0.0661 0.0353 0.248
10 Middle East MilitarySpend_ShareofGDP  1977 0.112 0.0632 0.0208 0.231
# … with 1,012 more rows

Code

byRegionStats_GDP

# A tibble: 1,022 × 7
# Groups:   Region, viewOfSpend [14]
   Region      viewOfSpend               Year  mean    std    min   max
   <chr>       <chr>                    <int> <dbl>  <dbl>  <dbl> <dbl>
 1 Middle East MilitarySpend_ShareofGDP  1991 0.167 0.305  0.0217 1.17 
 2 Middle East MilitarySpend_ShareofGDP  1975 0.147 0.0893 0.0153 0.305
 3 Middle East MilitarySpend_ShareofGDP  1959 0.146 0.112  0.0671 0.225
 4 Middle East MilitarySpend_ShareofGDP  1976 0.139 0.0800 0.0175 0.292
 5 Middle East MilitarySpend_ShareofGDP  1974 0.131 0.0765 0.0319 0.277
 6 Middle East MilitarySpend_ShareofGDP  1982 0.117 0.0539 0.0430 0.193
 7 Middle East MilitarySpend_ShareofGDP  1973 0.117 0.0828 0.0186 0.279
 8 Middle East MilitarySpend_ShareofGDP  1978 0.115 0.0619 0.0419 0.229
 9 Middle East MilitarySpend_ShareofGDP  1985 0.113 0.0661 0.0353 0.248
10 Middle East MilitarySpend_ShareofGDP  1977 0.112 0.0632 0.0208 0.231
# … with 1,012 more rows
…
A new discovery! Iraq chose not to report their spending during the Gulf war.

Code

combinedData%>%
  filter(Country %in% c("Iraq"))%>%
  filter(Year>1960&is.na(Spend))

# A tibble: 87 × 5
   Country Region       Year viewOfSpend                   Spend
   <chr>   <chr>       <int> <chr>                         <dbl>
 1 Iraq    Middle East  1961 MilitarySpend_ShareofGovSpend    NA
 2 Iraq    Middle East  1962 MilitarySpend_ShareofGovSpend    NA
 3 Iraq    Middle East  1963 MilitarySpend_ShareofGovSpend    NA
 4 Iraq    Middle East  1964 MilitarySpend_ShareofGovSpend    NA
 5 Iraq    Middle East  1965 MilitarySpend_ShareofGovSpend    NA
 6 Iraq    Middle East  1966 MilitarySpend_ShareofGovSpend    NA
 7 Iraq    Middle East  1967 MilitarySpend_ShareofGovSpend    NA
 8 Iraq    Middle East  1968 MilitarySpend_ShareofGovSpend    NA
 9 Iraq    Middle East  1969 MilitarySpend_ShareofGovSpend    NA
10 Iraq    Middle East  1970 MilitarySpend_ShareofGovSpend    NA
# … with 77 more rows
…
Error in eval(expr, envir, enclos): object 'top6_mean' not found

Faceted by Region, show mean spend of each country

Code

byRegionStats_year<-combinedData%>%
  group_by(Region,viewOfSpend,Year)%>%
  summarize(mean = mean(Spend, na.rm=TRUE))%>%
  filter(viewOfSpend == 'MilitarySpend_currentUSD')%>%
  arrange(desc(mean))

byRegionStats_year

# A tibble: 1,022 × 4
# Groups:   Region, viewOfSpend [14]
   Region        viewOfSpend               Year    mean
   <chr>         <chr>                    <int>   <dbl>
 1 North America MilitarySpend_currentUSD  2021 413561.
 2 North America MilitarySpend_currentUSD  2020 400839.
 3 North America MilitarySpend_currentUSD  2011 386841.
 4 North America MilitarySpend_currentUSD  2010 378660.
 5 North America MilitarySpend_currentUSD  2019 378369.
 6 North America MilitarySpend_currentUSD  2012 372829.
 7 North America MilitarySpend_currentUSD  2009 362427.
 8 North America MilitarySpend_currentUSD  2018 352610.
 9 North America MilitarySpend_currentUSD  2013 348872.
10 North America MilitarySpend_currentUSD  2008 338049.
# … with 1,012 more rows
…
