DACSS 601: Data Science Fundamentals - FALL 2022 - Homework2
…
So inorder to retain the dataset, let’s drop NA’s from those of the columns that we would actually like to visualize or consider them important.

Code

cleaned_fed_funds1 <- FedFundsRate %>%
  drop_na(`Effective Federal Funds Rate`,`Unemployment Rate`,`Inflation Rate`,`Real GDP (Percent Change)`)
cleaned_fed_funds1

# A tibble: 236 × 10
    Year Month   Day Federal F…¹ Feder…² Feder…³ Effec…⁴ Real …⁵ Unemp…⁶ Infla…⁷
   <dbl> <dbl> <dbl>       <dbl>   <dbl>   <dbl>   <dbl>   <dbl>   <dbl>   <dbl>
 1  1958     1     1          NA      NA      NA    2.72   -10       5.8     3.2
 2  1958     4     1          NA      NA      NA    1.26     2.6     7.4     2.4
 3  1958     7     1          NA      NA      NA    0.68     9.6     7.5     2.4
 4  1958    10     1          NA      NA      NA    1.8      9.7     6.7     1.7
 5  1959     1     1          NA      NA      NA    2.48     7.7     6       1.7
 6  1959     4     1          NA      NA      NA    2.96    10.1     5.2     1.7
 7  1959     7     1          NA      NA      NA    3.47    -0.8     5.1     2  
 8  1959    10     1          NA      NA      NA    3.98     1.6     5.7     2.7
 9  1960     1     1          NA      NA      NA    3.99     9.2     5.2     2  
10  1960     4     1          NA      NA      NA    3.92    -1.5     5.2     2  
# … with 226 more rows, and abbreviated variable names
#   ¹​`Federal Funds Target Rate`, ²​`Federal Funds Upper Target`,
#   ³​`Federal Funds Lower Target`, ⁴​`Effective Federal Funds Rate`,
#   ⁵​`Real GDP (Percent Change)`, ⁶​`Unemployment Rate`, ⁷​`Inflation Rate`
…
Data Wrangling and summary statistics

Code

a <- cleaned_fed_funds1%>%
  group_by(Year)
a

# A tibble: 236 × 10
# Groups:   Year [59]
    Year Month   Day Federal F…¹ Feder…² Feder…³ Effec…⁴ Real …⁵ Unemp…⁶ Infla…⁷
   <dbl> <dbl> <dbl>       <dbl>   <dbl>   <dbl>   <dbl>   <dbl>   <dbl>   <dbl>
 1  1958     1     1          NA      NA      NA    2.72   -10       5.8     3.2
 2  1958     4     1          NA      NA      NA    1.26     2.6     7.4     2.4
 3  1958     7     1          NA      NA      NA    0.68     9.6     7.5     2.4
 4  1958    10     1          NA      NA      NA    1.8      9.7     6.7     1.7
 5  1959     1     1          NA      NA      NA    2.48     7.7     6       1.7
 6  1959     4     1          NA      NA      NA    2.96    10.1     5.2     1.7
 7  1959     7     1          NA      NA      NA    3.47    -0.8     5.1     2  
 8  1959    10     1          NA      NA      NA    3.98     1.6     5.7     2.7
 9  1960     1     1          NA      NA      NA    3.99     9.2     5.2     2  
10  1960     4     1          NA      NA      NA    3.92    -1.5     5.2     2  
# … with 226 more rows, and abbreviated variable names
#   ¹​`Federal Funds Target Rate`, ²​`Federal Funds Upper Target`,
#   ³​`Federal Funds Lower Target`, ⁴​`Effective Federal Funds Rate`,
#   ⁵​`Real GDP (Percent Change)`, ⁶​`Unemployment Rate`, ⁷​`Inflation Rate`
…
