DACSS 601: Data Science Fundamentals - FALL 2022 - HW2
…
Tidy Table

Construct and print a tibble that shows the countries sorted by their average observed MMR (rounded to zero digits), with the country with the highest average MMR listed first.

Code

data1<- group_by(mmr,country) %>% 
  summarise_at(vars(mmr),list(name = mean))
  names(data1)[2] = "ave" 
  data1$ave <- round(data1$ave,0)
  arrange(data1,desc(ave))

# A tibble: 30 × 2
   country       ave
   <chr>       <dbl>
 1 South Sudan  2037
 2 Afghanistan  1900
 3 Cameroon      652
 4 Sudan         427
 5 Myanmar       316
 6 India         313
 7 Bangladesh    258
 8 Nepal         229
 9 Paraguay      178
10 Botswana      172
# … with 20 more rows
…
Part a: For each year - first calculate the mean observed value for each country. - then rank countries by increasing MMR for each year.

Calculate the mean ranking across all years, extract the mean ranking for 10 countries with the lowest ranking across all years, and print the resulting table.

Code

data2<-
  mmr %>% 
  group_by(year) %>% 
  mutate(Mean = mean(mmr,na.rm = TRUE)) %>% 
  arrange(desc(mmr))
data2

# A tibble: 175 × 5
# Groups:   year [25]
   iso   country      year   mmr  Mean
   <chr> <chr>       <int> <dbl> <dbl>
 1 SSD   South Sudan  2005 2037  275. 
 2 AFG   Afghanistan  2000 1900  301. 
 3 CMR   Cameroon     2010  652  130. 
 4 SDN   Sudan        2005  638  275. 
 5 IND   India        1999  540  149. 
 6 IND   India        1992  437  208. 
 7 IND   India        1998  398  126. 
 8 IND   India        2000  327  301. 
 9 BGD   Bangladesh   2000  322. 301. 
10 MMR   Myanmar      2004  316.  85.7
# … with 165 more rows

Code

  arrange(data2,desc(Mean)) 

# A tibble: 175 × 5
# Groups:   year [25]
   iso   country               year    mmr  Mean
   <chr> <chr>                <int>  <dbl> <dbl>
 1 AFG   Afghanistan           2000 1900    301.
 2 IND   India                 2000  327    301.
 3 BGD   Bangladesh            2000  322.   301.
 4 MNG   Mongolia              2000  166.   301.
 5 JAM   Jamaica               2000   90.3  301.
 6 EGY   Egypt                 2000   84    301.
 7 LKA   Sri Lanka             2000   55.6  301.
 8 CHN   China                 2000   53    301.
 9 OMN   Oman                  2000   16.1  301.
10 ARE   United Arab Emirates  2000    0    301.
# … with 165 more rows
…
then rank countries by increasing MMR for each period.

Calculate the mean ranking across all periods, extract the 10 countries with the lowest ranking across all periods, and print the table.

Code

before_2000<-mmr %>% 
  filter(year < 2000) %>% 
  group_by(country) %>% 
  mutate(Mean = mean(mmr,na.rm = TRUE)) %>% 
  arrange(desc(mmr))
before_2000

# A tibble: 41 × 5
# Groups:   country [12]
   iso   country   year   mmr  Mean
   <chr> <chr>    <int> <dbl> <dbl>
 1 IND   India     1999  540   458.
 2 IND   India     1992  437   458.
 3 IND   India     1998  398   458.
 4 MNG   Mongolia  1993  259   191.
 5 MNG   Mongolia  1994  219   191.
 6 MNG   Mongolia  1992  204.  191.
 7 MNG   Mongolia  1995  186   191.
 8 MNG   Mongolia  1999  182   191.
 9 EGY   Egypt     1992  174   174 
10 MNG   Mongolia  1996  174.  191.
# … with 31 more rows
…
Code

after_2000 <- mmr %>% 
  filter(year >= 2000) %>% 
  group_by(country) %>% 
  mutate(Mean = mean(mmr,na.rm = TRUE)) %>% 
  arrange(desc(mmr))
after_2000

# A tibble: 134 × 5
# Groups:   country [28]
   iso   country      year   mmr  Mean
   <chr> <chr>       <int> <dbl> <dbl>
 1 SSD   South Sudan  2005 2037  2037 
 2 AFG   Afghanistan  2000 1900  1900 
 3 CMR   Cameroon     2010  652   652 
 4 SDN   Sudan        2005  638   427.
 5 IND   India        2000  327   240.
 6 BGD   Bangladesh   2000  322.  258.
 7 MMR   Myanmar      2004  316.  316.
 8 IND   India        2002  301   240.
 9 IND   India        2005  254   240.
10 NPL   Nepal        2008  229   229 
# … with 124 more rows
…
