DACSS 601: Data Science Fundamentals - FALL 2022 - HW3
…
Tidy Table

Construct and print a tibble that shows the countries sorted by their average observed MMR (rounded to zero digits), with the country with the highest average MMR listed first.

Code

data1<- group_by(mmr,country) %>% 
  summarise_at(vars(mmr),list(name = mean))
  names(data1)[2] = "ave" 
  data1$ave <- round(data1$ave,0)
  arrange(data1,desc(ave))

# A tibble: 30 × 2
   country       ave
   <chr>       <dbl>
 1 South Sudan  2037
 2 Afghanistan  1900
 3 Cameroon      652
 4 Sudan         427
 5 Myanmar       316
 6 India         313
 7 Bangladesh    258
 8 Nepal         229
 9 Paraguay      178
10 Botswana      172
# … with 20 more rows
…
