DACSS 601: Data Science Fundamentals - FALL 2022 - Homework 2
…
Cleaning the Data

There are a handful of steps I’d like to take to clean the data into the most useable state. To start, I will reduce the 301 columns just the columns which I am interested in. Simultaneously, I will restrict my dataset to just schools which report graduation data, which will remove schools which did not report and remove primary and middle schools, since the focus our of research will be high schools and graduation related data,

Code

keeps <- c(1,2,10,13,14,15,26,27,28,29,30,31,32,34,36,38,40,42,43,44,45,46,47,48,49,50,51,53,55,62,64,68,70,71,72,80,81,82,83,84,85,86,87,88,89,90,91,92,93,94,95,96,97)

hs <- data[keeps]%>% 
      subset(! is.na(data$`% Graduated`))

hs

# A tibble: 376 × 53
   School …¹ Schoo…²   Zip Grade Distr…³ Distr…⁴ 9_Enr…⁵ 10_En…⁶ 11_En…⁷ 12_En…⁸
   <chr>     <chr>   <dbl> <chr> <chr>   <chr>     <dbl>   <dbl>   <dbl>   <dbl>
 1 00010505  Abingt…  2351 09,1… Abingt… 000100…     124     109     123      92
 2 00050505  Agawam…  1001 09,1… Agawam  000500…     299     309     293     315
 3 00070505  Amesbu…  1913 09,1… Amesbu… 000700…     147     138     145     163
 4 00070515  Amesbu…  1913 09,1… Amesbu… 000700…       7       2      11      11
 5 00090505  Andove…  1810 09,1… Andover 000900…     446     459     421     462
 6 00100505  Arling…  2476 09,1… Arling… 001000…     332     350     312     295
 7 00140505  Ashlan…  1721 09,1… Ashland 001400…     202     172     183     187
 8 00160515  Attleb…  2703 09,1… Attleb… 001600…       0      14      35      14
 9 00160505  Attleb…  2703 09,1… Attleb… 001600…     449     401     419     392
10 00170505  Auburn…  1501 PK,0… Auburn  001700…     174     197     175     157
# … with 366 more rows, 43 more variables: SP_Enrollment <dbl>,
#   TOTAL_Enrollment <dbl>, `First Language Not English` <dbl>,
#   `English Language Learner` <dbl>, `Students With Disabilities` <dbl>,
#   `High Needs` <dbl>, `Economically Disadvantaged` <dbl>,
#   `% African American` <dbl>, `% Asian` <dbl>, `% Hispanic` <dbl>,
#   `% White` <dbl>, `% Native American` <dbl>,
#   `% Native Hawaiian, Pacific Islander` <dbl>, …
…
  hs <- mutate(hs,
              `African American Students` = round((`% African American`/100)*`Number of Students`),
              `Asian Students` = round((`% Asian`/100)*`Number of Students`),
              `Hispanic Students` = round((`% Hispanic`/100)*`Number of Students`),
              `White Students` = round((`% White`/100)*`Number of Students`),
              `Native American Students` = round((`% Native American`/100)*`Number of Students`),
              `Native Hawaiian, Pacific Islander` = round((`% Native Hawaiian, Pacific Islander`/100)*`Number of Students`),
              `Multi-Race, Non-Hispanic` = round((`% Multi-Race, Non-Hispanic`/100)*`Number of Students`),
              `Male Students` = round((`% Males`/100)*`Number of Students`),
              `Female Students` = round((`% Females`/100)*`Number of Students`)
               )

hs

# A tibble: 376 × 62
   School …¹ Schoo…²   Zip Grade Distr…³ Distr…⁴ 9_Enr…⁵ 10_En…⁶ 11_En…⁷ 12_En…⁸
   <chr>     <chr>   <dbl> <chr> <chr>   <chr>     <dbl>   <dbl>   <dbl>   <dbl>
 1 00010505  Abingt…  2351 09,1… Abingt… 000100…     124     109     123      92
 2 00050505  Agawam…  1001 09,1… Agawam  000500…     299     309     293     315
 3 00070505  Amesbu…  1913 09,1… Amesbu… 000700…     147     138     145     163
 4 00070515  Amesbu…  1913 09,1… Amesbu… 000700…       7       2      11      11
 5 00090505  Andove…  1810 09,1… Andover 000900…     446     459     421     462
 6 00100505  Arling…  2476 09,1… Arling… 001000…     332     350     312     295
 7 00140505  Ashlan…  1721 09,1… Ashland 001400…     202     172     183     187
 8 00160515  Attleb…  2703 09,1… Attleb… 001600…       0      14      35      14
 9 00160505  Attleb…  2703 09,1… Attleb… 001600…     449     401     419     392
10 00170505  Auburn…  1501 PK,0… Auburn  001700…     174     197     175     157
# … with 366 more rows, 52 more variables: SP_Enrollment <dbl>,
#   TOTAL_Enrollment <dbl>, `First Language Not English` <dbl>,
#   `English Language Learner` <dbl>, `Students With Disabilities` <dbl>,
#   `High Needs` <dbl>, `Economically Disadvantaged` <dbl>,
#   `% African American` <dbl>, `% Asian` <dbl>, `% Hispanic` <dbl>,
#   `% White` <dbl>, `% Native American` <dbl>,
#   `% Native Hawaiian, Pacific Islander` <dbl>, …
…
