DACSS 601: Data Science Fundamentals - FALL 2022 - Challenge 2
…
library(readxl)
railroads <-read_excel("_data/StateCounty2012.xls",
                     skip = 4,
                     col_names= c("state", "delete",  "county",
                                  "delete", "employees"))%>%
  select(!contains("delete"))%>%
  filter(!str_detect(state, "Total"))

railroads <-head(railroads, -2)%>%
  mutate(county = ifelse(state=="CANADA", "CANADA", county))

railroads

# A tibble: 2,931 × 3
   state county               employees
   <chr> <chr>                    <dbl>
 1 AE    APO                          2
 2 AK    ANCHORAGE                    7
 3 AK    FAIRBANKS NORTH STAR         2
 4 AK    JUNEAU                       3
 5 AK    MATANUSKA-SUSITNA            2
 6 AK    SITKA                        1
 7 AK    SKAGWAY MUNICIPALITY        88
 8 AL    AUTAUGA                    102
 9 AL    BALDWIN                    143
10 AL    BARBOUR                      1
# … with 2,921 more rows
…
railroads%>%
  summarise(across(c(state,county), n_distinct))

# A tibble: 1 × 2
  state county
  <int>  <int>
1    54   1710

Code

railroads%>%
  select(state)%>%
  unique()

# A tibble: 54 × 1
   state
   <chr>
 1 AE   
 2 AK   
 3 AL   
 4 AP   
 5 AR   
 6 AZ   
 7 CA   
 8 CO   
 9 CT   
10 DC   
# … with 44 more rows
…
# A tibble: 1 × 1
  total_employees
            <dbl>
1          256094

Code

#sum, mean, min, and max employess for each state
railroads%>%
  group_by(state)%>%
  summarize(total_state_employees = sum(employees), mean_employees = mean(employees), min_employees = min(employees), max_employees= max(employees))%>%
  arrange(desc(total_state_employees))

# A tibble: 54 × 5
   state total_state_employees mean_employees min_employees max_employees
   <chr>                 <dbl>          <dbl>         <dbl>         <dbl>
 1 TX                    19839           89.8             1          4235
 2 IL                    19131          186.              1          8207
 3 NY                    17050          280.              5          3685
 4 NE                    13176          148.              1          3797
 5 CA                    13137          239.              1          2888
 6 PA                    12769          196.              3          1649
 7 OH                     9056          103.              3           842
 8 GA                     8605           56.6             1           878
 9 IN                     8537           92.8             3          1999
10 MO                     8419           73.2             1          2055
# … with 44 more rows
…
