DACSS 601: Data Science Fundamentals - FALL 2022 - Challenge 1 Instructions
…
Today’s challenge is to

read in a dataset, and

describe the dataset using both words and any supporting information (e.g., tables, etc)

Read in the Data

Code

library(readxl)
wild_birds_dataset<-read_excel("_data/wild_bird_data.xlsx", skip=1)
wild_birds_dataset

# A tibble: 146 × 2
   `Wet body weight [g]` `Population size`
                   <dbl>             <dbl>
 1                  5.46           532194.
 2                  7.76          3165107.
 3                  8.64          2592997.
 4                 10.7           3524193.
 5                  7.42           389806.
 6                  9.12           604766.
 7                  8.04           192361.
 8                  8.70           250452.
 9                  8.89            16997.
10                  9.52              595.
# … with 136 more rows
…
