DACSS 601: Data Science Fundamentals - FALL 2022 - Challenge 3
…
USA Households*.xlsx ⭐⭐⭐⭐

sce_labor_chart_data_public.xlsx 🌟🌟🌟🌟🌟

I have chosen the dataset eggs_tidy.csv to perform my analysis and help pivot the dataset as required.

Code

#Read the eggs dataset and then print the data.
eggs_dataset <- read_csv("_data/eggs_tidy.csv")

eggs_dataset

# A tibble: 120 × 6
   month      year large_half_dozen large_dozen extra_large_half_dozen extra_l…¹
   <chr>     <dbl>            <dbl>       <dbl>                  <dbl>     <dbl>
 1 January    2004             126         230                    132       230 
 2 February   2004             128.        226.                   134.      230 
 3 March      2004             131         225                    137       230 
 4 April      2004             131         225                    137       234.
 5 May        2004             131         225                    137       236 
 6 June       2004             134.        231.                   137       241 
 7 July       2004             134.        234.                   137       241 
 8 August     2004             134.        234.                   137       241 
 9 September  2004             130.        234.                   136.      241 
10 October    2004             128.        234.                   136.      241 
# … with 110 more rows, and abbreviated variable name ¹​extra_large_dozen
…
Now we will pivot the data, and compare our pivoted data dimensions to the dimensions calculated above.

Code

eggs_longer <- eggs_dataset%>%
  pivot_longer(cols=contains("large"),
               names_to = c("size", "quantity"),
               names_sep="_",
               values_to = "cost"
  )

eggs_longer

# A tibble: 480 × 5
   month     year size  quantity  cost
   <chr>    <dbl> <chr> <chr>    <dbl>
 1 January   2004 large half      126 
 2 January   2004 large dozen     230 
 3 January   2004 extra large     132 
 4 January   2004 extra large     230 
 5 February  2004 large half      128.
 6 February  2004 large dozen     226.
 7 February  2004 extra large     134.
 8 February  2004 extra large     230 
 9 March     2004 large half      131 
10 March     2004 large dozen     225 
# … with 470 more rows
…
Conclusion

As anticipated, I can observe that the data is 4 times longer than it was and changed from 120 -> 480 and the number of columns has been reduced by 1 from 6 -> 5. This makes us have a single observation per row and helps in easily understand the data and work for the future analysis. I would now like to mutate the cost of the eggs from cents to dollars for better understand ability. The table below gives us the cost of the eggs in dollars very precisely.

Code

#Mutate the cost of the eggs from cents to dollars.

eggs_USD <- mutate(eggs_longer, 
       avg_USD = cost / 100
       )%>%
  select(!contains ("price"))
eggs_USD

# A tibble: 480 × 6
   month     year size  quantity  cost avg_USD
   <chr>    <dbl> <chr> <chr>    <dbl>   <dbl>
 1 January   2004 large half      126     1.26
 2 January   2004 large dozen     230     2.3 
 3 January   2004 extra large     132     1.32
 4 January   2004 extra large     230     2.3 
 5 February  2004 large half      128.    1.28
 6 February  2004 large dozen     226.    2.26
 7 February  2004 extra large     134.    1.34
 8 February  2004 extra large     230     2.3 
 9 March     2004 large half      131     1.31
10 March     2004 large dozen     225     2.25
# … with 470 more rows
…
