DACSS 601: Data Science Fundamentals - FALL 2022 - Challenge 4 Solutions
…
feds <- FedFundsRate %>% 
  pivot_longer(cols = c( "Federal Funds Target Rate","Inflation Rate","Federal Funds Lower Target",
                         "Federal Funds Upper Target","Effective Federal Funds Rate","Unemployment Rate","Real GDP (Percent Change)"),
               names_to = "names",
               values_to = "value",
               values_drop_na = TRUE)

feds

# A tibble: 6,328 × 6
    Year Month   Day Date       names                        value
   <dbl> <dbl> <dbl> <date>     <chr>                        <dbl>
 1  1954     7     1 1954-07-01 Federal Funds Target Rate      0  
 2  1954     7     1 1954-07-01 Inflation Rate                 0  
 3  1954     7     1 1954-07-01 Federal Funds Lower Target     0  
 4  1954     7     1 1954-07-01 Federal Funds Upper Target     0  
 5  1954     7     1 1954-07-01 Effective Federal Funds Rate   0.8
 6  1954     7     1 1954-07-01 Unemployment Rate              5.8
 7  1954     7     1 1954-07-01 Real GDP (Percent Change)      4.6
 8  1954     8     1 1954-08-01 Federal Funds Target Rate      0  
 9  1954     8     1 1954-08-01 Inflation Rate                 0  
10  1954     8     1 1954-08-01 Federal Funds Lower Target     0  
# … with 6,318 more rows
…
