DACSS 601: Data Science Fundamentals - FALL 2022 - Challenge 5 Solutions
…
we see that there are higher bookings in Manhattan and the lowest in Staten Island

airbnb %>% 
  count(`minimum_nights`)

# A tibble: 109 × 2
   minimum_nights     n
            <dbl> <int>
 1              1 12720
 2              2 11696
 3              3  7999
 4              4  3303
 5              5  3034
 6              6   752
 7              7  2058
 8              8   130
 9              9    80
10             10   483
# … with 99 more rows
…
