DACSS 601: Data Science Fundamentals - FALL 2022 - Challenge 1 Solutions
…
Read in the Data

For this challenge I am reading the “wild_bird_data” data set. Since the wild_bird_data.xlsx data set is in Excel format, I am using the ‘readxl’ package for reading the data. After reading the data is stored in a dataframe “bird_data”. The data in the first row of the dataframe seems like column names rather than numerical values as seen in the remaining rows. I resolve this issue by skipping the first row while reading the data set and storing in dataframe. Now, if I print the dataframe, I can see both the variables have only numerical values of double-precision floating-point format.

Code

#install.packages('readxl')
library(readxl)

# Reading the wild_bird_data.xlsx data set and storing in a data frame
bird_data <- read_excel("_data/wild_bird_data.xlsx", skip=1)
print(bird_data)

# A tibble: 146 × 2
   `Wet body weight [g]` `Population size`
                   <dbl>             <dbl>
 1                  5.46           532194.
 2                  7.76          3165107.
 3                  8.64          2592997.
 4                 10.7           3524193.
 5                  7.42           389806.
 6                  9.12           604766.
 7                  8.04           192361.
 8                  8.70           250452.
 9                  8.89            16997.
10                  9.52              595.
# … with 136 more rows
…
[1] 0

Code

sum(is.null(bird_data))

[1] 0

Code

#Arranging the bird_data in descending order of wet body weight
arrange(bird_data,desc(`Wet body weight [g]`))

# A tibble: 146 × 2
   `Wet body weight [g]` `Population size`
                   <dbl>             <dbl>
 1                 9640.            3417. 
 2                 4451.            4789. 
 3                 4224.             433. 
 4                 2320.             151. 
 5                 2054.           20661. 
 6                 1368.            9797. 
 7                 1138.              53.9
 8                 1106.            3975. 
 9                 1064.             107. 
10                 1042.            1759. 
# … with 136 more rows
…
