DACSS 601: Data Science Fundamentals - FALL 2022 - Challenge 3 Solutions
…
Code

# Reading in the USA Households dataset
# Removing the total column as information is redundant
h_income <- read_excel("_data/USA Households by Total Money Income, Race, and Hispanic Origin of Householder 1967 to 2019.xlsx",
         skip=5, n_max = 351, col_names=c("year", "hnumber", "total","level1", "level2",
                                          "level3","level4","level5","level6","level7","level8",
                                          "level9","median_income","median_error",
                                    "mean_income","mean_error") ) %>% select(-total)

income_vals <- c("level1","level2","level3","level4","level5","level6","level7","level8","level9")
income_levels <- c("Under $15000","$15000 to $29000","$25000 to $34999","$35000 to $49999","$50000 to $74999","$75000 to $99999","$100000 to $149999","1500000 to $199999","$200000 and over")
h_income

# A tibble: 351 × 15
   year   hnumber level1 level2 level3 level4 level5 level6 level7 level8 level9
   <chr>  <chr>    <dbl>  <dbl>  <dbl>  <dbl>  <dbl>  <dbl>  <dbl>  <dbl>  <dbl>
 1 ALL R… <NA>      NA     NA     NA     NA     NA     NA     NA     NA     NA  
 2 2019   128451     9.1    8      8.3   11.7   16.5   12.3   15.5    8.3   10.3
 3 2018   128579    10.1    8.8    8.7   12     17     12.5   15      7.2    8.8
 4 2017 2 127669    10      9.1    9.2   12     16.4   12.4   14.7    7.3    8.9
 5 2017   127586    10.1    9.1    9.2   11.9   16.3   12.6   14.8    7.5    8.5
 6 2016   126224    10.4    9      9.2   12.3   16.7   12.2   15      7.2    8  
 7 2015   125819    10.6   10      9.6   12.1   16.1   12.4   14.9    7.1    7.2
 8 2014   124587    11.4   10.5    9.6   12.6   16.4   12.1   14      6.6    6.8
 9 2013 3 123931    11.4   10.3    9.5   12.5   16.8   12     13.9    6.7    6.9
10 2013 4 122952    11.3   10.4    9.7   13.1   17     12.5   13.6    6.3    6  
# … with 341 more rows, and 4 more variables: median_income <dbl>,
#   median_error <dbl>, mean_income <chr>, mean_error <chr>
…
# Replacing the income range levels
pivot_data$IncomeRange <- str_replace_all(pivot_data$IncomeRange, setNames(income_levels,income_vals))

# Calculating the number of household incomes for each income range distribution
pivot_data_longer <- pivot_data %>% mutate(
  range_household_number = round((hnumber*percent)/100)
)

pivot_data_longer

# A tibble: 2,151 × 6
   year  gp_race_cat hnumber IncomeRange        percent range_household_number
   <chr> <chr>         <dbl> <chr>                <dbl>                  <dbl>
 1 1967  grp_all       60813 Under $15000          14.8                   9000
 2 1967  grp_all       60813 $15000 to $29000      10.2                   6203
 3 1967  grp_all       60813 $25000 to $34999      10.9                   6629
 4 1967  grp_all       60813 $35000 to $49999      16.8                  10217
 5 1967  grp_all       60813 $50000 to $74999      24.8                  15082
 6 1967  grp_all       60813 $75000 to $99999      11.9                   7237
 7 1967  grp_all       60813 $100000 to $149999     7.7                   4683
 8 1967  grp_all       60813 1500000 to $199999     1.7                   1034
 9 1967  grp_all       60813 $200000 and over       1.2                    730
10 1967  grp_black      5728 Under $15000          26.8                   1535
# … with 2,141 more rows

From this table we can see that the data has been pivoted and increased in length, wherein for each income range, it’s percentage distribution and corresponding household income level for the different races across different years is present.

Code

pivot_data_longer %>% 
  group_by(IncomeRange, year) %>%
  summarise(across(c(range_household_number),~sum(.x, na.rm=TRUE))) %>% 
  arrange(desc(range_household_number))

# A tibble: 477 × 3
# Groups:   IncomeRange [9]
   IncomeRange        year  range_household_number
   <chr>              <chr>                  <dbl>
 1 $50000 to $74999   2013                  401751
 2 $50000 to $74999   2017                  398189
 3 $100000 to $149999 2017                  364573
 4 $100000 to $149999 2013                  329403
 5 $75000 to $99999   2017                  305661
 6 $35000 to $49999   2013                  302327
 7 $75000 to $99999   2013                  292607
 8 $35000 to $49999   2017                  290446
 9 Under $15000       2013                  266115
10 $15000 to $29000   2013                  243972
# … with 467 more rows
…
