DACSS 601: Data Science Fundamentals - FALL 2022 - Challenge 2 Solutions
…
Code

# Calculating the dispersion - quantile
# Finding the min, max and std of Value for Items for each Year globally

new_birds_data %>%
  select(Area, Item, Value)%>%
  group_by(Area, Item) %>%
  summarize(quantVal = quantile(Value, na.rm = TRUE)) %>%
  filter(Area == "Bahamas" || Area == "Zimbabwe" || Area == "Seychelles") %>%
  arrange(desc(Area))

# A tibble: 30 × 3
# Groups:   Area, Item [6]
   Area     Item     quantVal
   <chr>    <chr>       <dbl>
 1 Zimbabwe Chickens   6500  
 2 Zimbabwe Chickens   8025  
 3 Zimbabwe Chickens  11500  
 4 Zimbabwe Chickens  19937. 
 5 Zimbabwe Chickens  30000  
 6 Zimbabwe Ducks         2  
 7 Zimbabwe Ducks         7.5
 8 Zimbabwe Ducks        42.5
 9 Zimbabwe Ducks        75  
10 Zimbabwe Ducks        86  
# … with 20 more rows
…
