DACSS 601: Data Science Fundamentals - FALL 2022 - Homework2 Erika Nagai
…
movieSummary = dfSummary(movie)

Tidy data

The values in some certain columns such as “belongs_to_collection”, “genres”, “production_companies”, “production_countries”, “spoken_languages” are in a list format.

movie %>% select(c("belongs_to_collection", "genres", "production_companies", "production_countries", "spoken_languages"))

# A tibble: 45,466 × 5
   belongs_to_collection                          genres produ…¹ produ…² spoke…³
   <chr>                                          <chr>  <chr>   <chr>   <chr>  
 1 {'id': 10194, 'name': 'Toy Story Collection',… [{'id… [{'nam… [{'iso… [{'iso…
 2 <NA>                                           [{'id… [{'nam… [{'iso… [{'iso…
 3 {'id': 119050, 'name': 'Grumpy Old Men Collec… [{'id… [{'nam… [{'iso… [{'iso…
 4 <NA>                                           [{'id… [{'nam… [{'iso… [{'iso…
 5 {'id': 96871, 'name': 'Father of the Bride Co… [{'id… [{'nam… [{'iso… [{'iso…
 6 <NA>                                           [{'id… [{'nam… [{'iso… [{'iso…
 7 <NA>                                           [{'id… [{'nam… [{'iso… [{'iso…
 8 <NA>                                           [{'id… [{'nam… [{'iso… [{'iso…
 9 <NA>                                           [{'id… [{'nam… [{'iso… [{'iso…
10 {'id': 645, 'name': 'James Bond Collection', … [{'id… [{'nam… [{'iso… [{'iso…
# … with 45,456 more rows, and abbreviated variable names
#   ¹​production_companies, ²​production_countries, ³​spoken_languages
…
