DACSS 601: Data Science Fundamentals - FALL 2022 - Challenge 1
…
Read in the Data

I read in the railroad_2012_clean_county.csv⭐ Using the read_csv function.

Code

#First I installed the readr function
install.packages("readr")
#Next I loaded the tidyverse library
library(tidyverse)
#open data set
Trains <- read_csv("_data/railroad_2012_clean_county.csv")
Trains

# A tibble: 2,930 × 3
   state county               total_employees
   <chr> <chr>                          <dbl>
 1 AE    APO                                2
 2 AK    ANCHORAGE                          7
 3 AK    FAIRBANKS NORTH STAR               2
 4 AK    JUNEAU                             3
 5 AK    MATANUSKA-SUSITNA                  2
 6 AK    SITKA                              1
 7 AK    SKAGWAY MUNICIPALITY              88
 8 AL    AUTAUGA                          102
 9 AL    BALDWIN                          143
10 AL    BARBOUR                            1
# … with 2,920 more rows
…
# A tibble: 1 × 1
    IQR
  <dbl>
1    58

Code

#removing outlier from Trains
Outlier_free_trains <- Trains %>%
  filter(total_employees<8200) %>%
  arrange(total_employees)

Outlier_free_trains

# A tibble: 2,929 × 3
   state county   total_employees
   <chr> <chr>              <dbl>
 1 AK    SITKA                  1
 2 AL    BARBOUR                1
 3 AL    HENRY                  1
 4 AP    APO                    1
 5 AR    NEWTON                 1
 6 CA    MONO                   1
 7 CO    BENT                   1
 8 CO    CHEYENNE               1
 9 CO    COSTILLA               1
10 CO    DOLORES                1
# … with 2,919 more rows
…
