DACSS 601: Data Science Fundamentals - FALL 2022 - Challenge 1 Solutions
…
I will be using the “Railroad_2012” data set for this Challenge.

Code

# install readr function

install.packages("readr")

# read in and rename data

railroad <- read_csv("_data\\railroad_2012_clean_county.csv")
railroad

# A tibble: 2,930 × 3
   state county               total_employees
   <chr> <chr>                          <dbl>
 1 AE    APO                                2
 2 AK    ANCHORAGE                          7
 3 AK    FAIRBANKS NORTH STAR               2
 4 AK    JUNEAU                             3
 5 AK    MATANUSKA-SUSITNA                  2
 6 AK    SITKA                              1
 7 AK    SKAGWAY MUNICIPALITY              88
 8 AL    AUTAUGA                          102
 9 AL    BALDWIN                          143
10 AL    BARBOUR                            1
# … with 2,920 more rows
…
