DACSS 601: Data Science Fundamentals - FALL 2022 - Challenge 7 Guanhua Tan
…
pisa2018_joint_clean <-pisa2018_joint %>%
  select(CNT, STRATUM, OECD, Accessibility, Human_Resource_Support) %>%
  group_by(CNT) %>%
  mutate(Accessibility_Country_Ave=mean(Accessibility, na.rm=T)) %>%
  mutate(Human_Resource_ave=mean(Human_Resource_Support, na.rm=T)) %>%
  select(CNT,OECD, Accessibility_Country_Ave, Human_Resource_ave) %>%
  distinct() %>%
  arrange(desc(Accessibility_Country_Ave))%>%
  mutate(OECD_or_Non_OECD =case_when(
    OECD==0~"Non-OECD",
    OECD==1~"OECD")) %>%
  select(-OECD)
pisa2018_joint_clean

# A tibble: 80 × 4
# Groups:   CNT [80]
   CNT   Accessibility_Country_Ave Human_Resource_ave OECD_or_Non_OECD
   <chr>                     <dbl>              <dbl> <chr>           
 1 SGP                        3.43               3.11 Non-OECD        
 2 SWE                        3.36               3.06 OECD            
 3 QCI                        3.35               3.23 Non-OECD        
 4 QAT                        3.27               3.16 Non-OECD        
 5 DNK                        3.16               2.97 OECD            
 6 USA                        3.16               2.87 OECD            
 7 LTU                        3.15               3.04 OECD            
 8 ARE                        3.15               3.11 Non-OECD        
 9 TAP                        3.14               2.98 Non-OECD        
10 SVN                        3.12               2.96 OECD            
# … with 70 more rows
…
A Case Study of Six Countires

# tidy data about the case study
# choose five countries to look at regional difference within the countries
# United Kingdom (GBR), Hong Kong (HKG), Philippines (PHL), Argentina (ARG), Brazil(BRA), France(FRA)
pisa2018_joint_case_study <- pisa2018_joint  %>%
  select(CNT, STRATUM, OECD, SC155Q01HA,SC155Q02HA, SC155Q03HA, SC155Q04HA, SC155Q05HA,
         SC155Q06HA, SC155Q07HA, SC155Q08HA, SC155Q09HA, SC155Q10HA, SC155Q11HA) %>%
  group_by(STRATUM) %>%
  arrange(STRATUM) %>%
  filter(CNT== "GBR" | CNT== "HKG" | CNT=="PHL"| CNT=="ARG" | CNT=="BRA" |CNT=="FRA" )
pisa2018_joint_case_study

# A tibble: 2,114 × 14
# Groups:   STRATUM [129]
   CNT   STRATUM  OECD SC155Q0…¹ SC155…² SC155…³ SC155…⁴ SC155…⁵ SC155…⁶ SC155…⁷
   <chr> <chr>   <dbl>     <dbl>   <dbl>   <dbl>   <dbl>   <dbl>   <dbl>   <dbl>
 1 ARG   ARG0101     0         1       1       1       1       1       2       2
 2 ARG   ARG0101     0        NA      NA      NA      NA      NA      NA      NA
 3 ARG   ARG0101     0         2       1       2       2       2       2       2
 4 ARG   ARG0101     0         2       1       2       3       2       2       1
 5 ARG   ARG0101     0         1       1       2       2       2       2       2
 6 ARG   ARG0101     0         3       2       3       2       2       2       1
 7 ARG   ARG0101     0         1       1       1       1       1       3       1
 8 ARG   ARG0101     0         1       1       1       1       1       1       1
 9 ARG   ARG0101     0        NA      NA      NA      NA      NA      NA      NA
10 ARG   ARG0101     0         1       1       1       1       2       2       2
# … with 2,104 more rows, 4 more variables: SC155Q08HA <dbl>, SC155Q09HA <dbl>,
#   SC155Q10HA <dbl>, SC155Q11HA <dbl>, and abbreviated variable names
#   ¹​SC155Q01HA, ²​SC155Q02HA, ³​SC155Q03HA, ⁴​SC155Q04HA, ⁵​SC155Q05HA,
#   ⁶​SC155Q06HA, ⁷​SC155Q07HA

#further tidy data

pisa2018_joint_case_study$Accessibility=rowMeans(pisa2018_joint_case_study[,c("SC155Q01HA","SC155Q02HA", "SC155Q03HA","SC155Q04HA")])
pisa2018_joint_case_study$Human_Resource_Support=rowMeans(pisa2018_joint_case_study[,c("SC155Q05HA","SC155Q06HA", "SC155Q07HA","SC155Q08HA","SC155Q09HA", "SC155Q10HA", "SC155Q11HA")])
pisa2018_case_study_clean <- pisa2018_joint_case_study %>%
  select(CNT,STRATUM,OECD, Accessibility, Human_Resource_Support) %>% 
  pivot_longer(cols=c(Accessibility, Human_Resource_Support), names_to = "Group", values_to = "Evaluation")%>%
   mutate(OECD_or_Non_OECD =case_when(
    OECD==0~"Non-OECD",
    OECD==1~"OECD")) %>%
  select(-OECD)
pisa2018_case_study_clean

# A tibble: 4,228 × 5
# Groups:   STRATUM [129]
   CNT   STRATUM Group                  Evaluation OECD_or_Non_OECD
   <chr> <chr>   <chr>                       <dbl> <chr>           
 1 ARG   ARG0101 Accessibility                1    Non-OECD        
 2 ARG   ARG0101 Human_Resource_Support       1.57 Non-OECD        
 3 ARG   ARG0101 Accessibility               NA    Non-OECD        
 4 ARG   ARG0101 Human_Resource_Support      NA    Non-OECD        
 5 ARG   ARG0101 Accessibility                1.75 Non-OECD        
 6 ARG   ARG0101 Human_Resource_Support       2.29 Non-OECD        
 7 ARG   ARG0101 Accessibility                2    Non-OECD        
 8 ARG   ARG0101 Human_Resource_Support       1.43 Non-OECD        
 9 ARG   ARG0101 Accessibility                1.5  Non-OECD        
10 ARG   ARG0101 Human_Resource_Support       1.86 Non-OECD        
# … with 4,218 more rows
…
