DACSS 601: Data Science Fundamentals - FALL 2022 - Challenge 6 Guanhua Tan
…
  select(CNT, STRATUM, OECD, SC155Q01HA,SC155Q02HA, SC155Q03HA, SC155Q04HA, SC155Q05HA,
         SC155Q06HA, SC155Q07HA, SC155Q08HA, SC155Q09HA, SC155Q10HA, SC155Q11HA)
pisa2018_joint$Accessibility=rowMeans(pisa2018_joint[,c("SC155Q01HA","SC155Q02HA", "SC155Q03HA","SC155Q04HA")])
pisa2018_joint$Human_Resource_Support=rowMeans(pisa2018_joint[,c("SC155Q05HA","SC155Q06HA", "SC155Q07HA","SC155Q08HA","SC155Q09HA", "SC155Q10HA", "SC155Q11HA")])
pisa2018_joint_clean <-pisa2018_joint %>%
  select(CNT, STRATUM, OECD, Accessibility, Human_Resource_Support) %>%
  group_by(CNT) %>%
  mutate(Accessibility_Country_Ave=mean(Accessibility, na.rm=T)) %>%
  mutate(Human_Resource_ave=mean(Human_Resource_Support, na.rm=T)) %>%
  select(CNT,OECD, Accessibility_Country_Ave, Human_Resource_ave) %>%
  distinct() %>%
  arrange(desc(Accessibility_Country_Ave))
pisa2018_joint_clean

# A tibble: 80 × 4
# Groups:   CNT [80]
   CNT    OECD Accessibility_Country_Ave Human_Resource_ave
   <chr> <dbl>                     <dbl>              <dbl>
 1 SGP       0                      3.43               3.11
 2 SWE       1                      3.36               3.06
 3 QCI       0                      3.35               3.23
 4 QAT       0                      3.27               3.16
 5 DNK       1                      3.16               2.97
 6 USA       1                      3.16               2.87
 7 LTU       1                      3.15               3.04
 8 ARE       0                      3.15               3.11
 9 TAP       0                      3.14               2.98
10 SVN       1                      3.12               2.96
# … with 70 more rows
…
# United Kingdom (GBR), Hong Kong (HKG), Philippines (PHL), Argentina (ARG), Brazil(BRA)
df<-pisa2018_joint %>%
  group_by(CNT) %>%
  filter(CNT== "GBR" | CNT== "HKG" | CNT=="PHL"| CNT=="ARG" | CNT=="BRA" |CNT=="FRA" ) %>%
  drop_na() %>%
  count(Q1=factor(SC155Q01HA))%>%
  mutate(pct=paste0(sprintf("%4.1f",n/sum(n)*100), "%"))
df

# A tibble: 24 × 4
# Groups:   CNT [6]
   CNT   Q1        n pct    
   <chr> <fct> <int> <chr>  
 1 ARG   1       156 "36.7%"
 2 ARG   2       145 "34.1%"
 3 ARG   3        94 "22.1%"
 4 ARG   4        30 " 7.1%"
 5 BRA   1       215 "39.5%"
 6 BRA   2       198 "36.4%"
 7 BRA   3       100 "18.4%"
 8 BRA   4        31 " 5.7%"
 9 FRA   1        15 " 7.1%"
10 FRA   2        40 "19.0%"
# … with 14 more rows
…
