DACSS 601: Data Science Fundamentals - FALL 2022 - Challenge 8 Instructions
…
Briefly describe the data

The data consists of 3 separate files, each containing information about the actors, cast and seasons of artists who have featured on the program “Saturday Night Live”. This data gives us information about in what capacity each individual featured as (cast, crew, guest), which season had how many episodes, etc.

We can observe that only the url column contains NA values.

url_na <- subset(snl_actors, is.na(snl_actors$url))
url_na

# A tibble: 57 × 4
   aid               url   type    gender
   <chr>             <chr> <chr>   <chr> 
 1 Don Roy King      <NA>  unknown male  
 2 Liam Payne        <NA>  unknown male  
 3 Louis Tomlinson   <NA>  unknown male  
 4 Zayn Malik        <NA>  unknown male  
 5 Caleb Followill   <NA>  unknown male  
 6 Jared Followill   <NA>  unknown male  
 7 Matthew Followill <NA>  unknown male  
 8 Nathan Followill  <NA>  unknown male  
 9 Regine Chassagne  <NA>  unknown female
10 William Butler    <NA>  unknown male  
# … with 47 more rows
…
