DACSS 601: Data Science Fundamentals - FALL 2022 - Challenge 2 Guanua Tan
…
Provide Grouped Summary Statistics

Conduct some exploratory data analysis, using dplyr commands such as group_by(), select(), filter(), and summarise(). Find the central tendency (mean, median, mode) and dispersion (standard deviation, mix/max/quantile) for different subgroups within the data set.

Explain and Interpret

Be sure to explain why you choose a specific group. Comment on the interpretation of any interesting differences between groups that you uncover. This section can be integrated with the exploratory data analysis, just be sure it is included.

Code

library(dplyr)
railroad<-read_csv("_data/railroad_2012_clean_county.csv")
railroad

# A tibble: 2,930 × 3
   state county               total_employees
   <chr> <chr>                          <dbl>
 1 AE    APO                                2
 2 AK    ANCHORAGE                          7
 3 AK    FAIRBANKS NORTH STAR               2
 4 AK    JUNEAU                             3
 5 AK    MATANUSKA-SUSITNA                  2
 6 AK    SITKA                              1
 7 AK    SKAGWAY MUNICIPALITY              88
 8 AL    AUTAUGA                          102
 9 AL    BALDWIN                          143
10 AL    BARBOUR                            1
# … with 2,920 more rows
…
The mean, median and standard deviation of states reflect that total_employees of some big states are overwhelming and some small states only maintain a tiny number of total employees.

Code

# state difference
railroad %>% group_by(state) %>%
  summarise(temployee_mean=mean(total_employees),
            templyee_sd=sd(total_employees, na.rm=TRUE),
            tempyee_median=median(total_employees, na.rm=TRUE))

# A tibble: 53 × 4
   state temployee_mean templyee_sd tempyee_median
   <chr>          <dbl>       <dbl>          <dbl>
 1 AE               2          NA              2  
 2 AK              17.2        34.8            2.5
 3 AL              63.5       130.            26  
 4 AP               1          NA              1  
 5 AR              53.8       131.            16.5
 6 AZ             210.        228.            94  
 7 CA             239.        549.            61  
 8 CO              64.0       128.            10  
 9 CT             324         520.           125  
10 DC             279          NA            279  
# … with 43 more rows

The big differences between mean, median and sd of each state reflect population distribution in he United State.

Code

#TX as a case study
railroad %>% filter(state=='TX') %>% arrange(desc(total_employees)) %>% mutate(total_TX=sum(total_employees), ratio_TX=total_employees/total_TX) %>% filter(total_employees >100)

# A tibble: 34 × 5
   state county     total_employees total_TX ratio_TX
   <chr> <chr>                <dbl>    <dbl>    <dbl>
 1 TX    TARRANT               4235    19839   0.213 
 2 TX    HARRIS                2535    19839   0.128 
 3 TX    BEXAR                  950    19839   0.0479
 4 TX    POTTER                 883    19839   0.0445
 5 TX    EL PASO                863    19839   0.0435
 6 TX    MONTGOMERY             474    19839   0.0239
 7 TX    JOHNSON                429    19839   0.0216
 8 TX    BELL                   413    19839   0.0208
 9 TX    DALLAS                 406    19839   0.0205
10 TX    DENTON                 394    19839   0.0199
# … with 24 more rows
…
# A tibble: 1 × 2
  total_mean total_madian
       <dbl>        <dbl>
1       89.8           17

Cast study 1 TX Taking TX as case study, I try to looking the distribution in a state. The combination of TARRANT and HARRIS reaches 34 % of total employees in TX, which reflects high population density in these two areas.

Code

# case study IL
railroad %>% filter(state=='IL') %>% arrange(desc(total_employees)) %>% mutate(total_IL=sum(total_employees), ratio_IL=total_employees/total_IL) %>% filter(total_employees >100)

# A tibble: 25 × 5
   state county   total_employees total_IL ratio_IL
   <chr> <chr>              <dbl>    <dbl>    <dbl>
 1 IL    COOK                8207    19131   0.429 
 2 IL    WILL                1784    19131   0.0933
 3 IL    KNOX                 885    19131   0.0463
 4 IL    DUPAGE               837    19131   0.0438
 5 IL    KANE                 577    19131   0.0302
 6 IL    ST CLAIR             495    19131   0.0259
 7 IL    MADISON              427    19131   0.0223
 8 IL    MACON                425    19131   0.0222
 9 IL    LAKE                 340    19131   0.0178
10 IL    KANKAKEE             289    19131   0.0151
# … with 15 more rows
…
