DACSS 601: Data Science Fundamentals - FALL 2022 - Challenge 4 Solution
…
poultry_tidy.xlsx or organiceggpoultry.xls⭐⭐

FedFundsRate.csv⭐⭐⭐

hotel_bookings.csv⭐⭐⭐⭐

debt_in_trillions.xlsx ⭐⭐⭐⭐⭐

Code

debt_orig <- read_xlsx("_data/debt_in_trillions.xlsx")

debt_orig

# A tibble: 74 × 8
   `Year and Quarter` Mortgage HE Revolvin…¹ Auto …² Credi…³ Stude…⁴ Other Total
   <chr>                 <dbl>         <dbl>   <dbl>   <dbl>   <dbl> <dbl> <dbl>
 1 03:Q1                  4.94         0.242   0.641   0.688   0.241 0.478  7.23
 2 03:Q2                  5.08         0.26    0.622   0.693   0.243 0.486  7.38
 3 03:Q3                  5.18         0.269   0.684   0.693   0.249 0.477  7.56
 4 03:Q4                  5.66         0.302   0.704   0.698   0.253 0.449  8.07
 5 04:Q1                  5.84         0.328   0.72    0.695   0.260 0.446  8.29
 6 04:Q2                  5.97         0.367   0.743   0.697   0.263 0.423  8.46
 7 04:Q3                  6.21         0.426   0.751   0.706   0.33  0.41   8.83
 8 04:Q4                  6.36         0.468   0.728   0.717   0.346 0.423  9.04
 9 05:Q1                  6.51         0.502   0.725   0.71    0.364 0.394  9.21
10 05:Q2                  6.70         0.528   0.774   0.717   0.374 0.402  9.49
# … with 64 more rows, and abbreviated variable names ¹​`HE Revolving`,
#   ²​`Auto Loan`, ³​`Credit Card`, ⁴​`Student Loan`
…
Are there any variables that require mutation to be usable in your analysis stream? For example, are all time variables correctly coded as dates? Are all string variables reduced and cleaned to sensible categories? Do you need to turn any variables into factors and reorder for ease of graphics and visualization?

Code

# Fix the year, create a column that is stored as a date
  debt_tidy <- debt_pivoted %>% 
  mutate(Year = Year + 2000, 
  "Month" = str_replace_all(Quarter, c("Q1" = "1", "Q2" = "4", "Q3" = "6", "Q4" = "10")),
  "Date" = make_date(`Year`, `Month`, "01"),
  .before = `Debt Type`)

debt_tidy

# A tibble: 444 × 6
    Year Quarter Month Date       `Debt Type`  `Debt in Trillions`
   <dbl> <chr>   <chr> <date>     <chr>                      <dbl>
 1  2003 Q1      1     2003-01-01 Mortgage                   4.94 
 2  2003 Q1      1     2003-01-01 HE Revolving               0.242
 3  2003 Q1      1     2003-01-01 Auto Loan                  0.641
 4  2003 Q1      1     2003-01-01 Credit Card                0.688
 5  2003 Q1      1     2003-01-01 Student Loan               0.241
 6  2003 Q1      1     2003-01-01 Other                      0.478
 7  2003 Q2      4     2003-04-01 Mortgage                   5.08 
 8  2003 Q2      4     2003-04-01 HE Revolving               0.26 
 9  2003 Q2      4     2003-04-01 Auto Loan                  0.622
10  2003 Q2      4     2003-04-01 Credit Card                0.693
# … with 434 more rows
…
