DACSS 601: Data Science Fundamentals - FALL 2022 - Challenge 2
…
Read in one (or more) of the following data sets, available in the posts/_data folder, using the correct R package and command.

railroad*.csv or StateCounty2012.xls ⭐

FAOstat*.csv or birds.csv ⭐⭐⭐

hotel_bookings.csv ⭐⭐⭐⭐

Code

birds <- read_csv("_data/birds.csv")%>%
  select(-c(contains("Code"), Element, Domain, Unit))
birds

# A tibble: 30,977 × 6
   Area        Item      Year Value Flag  `Flag Description`
   <chr>       <chr>    <dbl> <dbl> <chr> <chr>             
 1 Afghanistan Chickens  1961  4700 F     FAO estimate      
 2 Afghanistan Chickens  1962  4900 F     FAO estimate      
 3 Afghanistan Chickens  1963  5000 F     FAO estimate      
 4 Afghanistan Chickens  1964  5300 F     FAO estimate      
 5 Afghanistan Chickens  1965  5500 F     FAO estimate      
 6 Afghanistan Chickens  1966  5800 F     FAO estimate      
 7 Afghanistan Chickens  1967  6600 F     FAO estimate      
 8 Afghanistan Chickens  1968  6290 <NA>  Official data     
 9 Afghanistan Chickens  1969  6300 F     FAO estimate      
10 Afghanistan Chickens  1970  6000 F     FAO estimate      
# … with 30,967 more rows
…
Describe the data

The birds dataset contained 14 variables, 8 of which are character variables and 6 are numeric variables. It was collected by the Food and Agriculture Association of the United Nations. This dataset features estimates of five types of bird(Chickens, Ducks, Geese and fowls, Turkeys, and Pigeons/Other birds) in 248 regions. The data was collected from 1961-2018.

Reading in the data, I chose to omit Element, Domain, and Unit as they are the same for every data point. I also eliminated all of the “Code” variables, as they are either redundant, or not useful to work with.

Code

Area <- select(birds,"Area")
num_areas <- unique(Area)
num_areas

# A tibble: 248 × 1
   Area               
   <chr>              
 1 Afghanistan        
 2 Albania            
 3 Algeria            
 4 American Samoa     
 5 Angola             
 6 Antigua and Barbuda
 7 Argentina          
 8 Armenia            
 9 Aruba              
10 Australia          
# … with 238 more rows
…
Provide Grouped Summary Statistics

I started my analysis of the birds dataset by taking a look at the average and median stock values by year.

Code

birds%>%
    group_by(Year)%>%
     summarise(avg_stocks = mean(Value, na.rm=TRUE),
               med_stocks = median(Value, na.rm=TRUE))

# A tibble: 58 × 3
    Year avg_stocks med_stocks
   <dbl>      <dbl>      <dbl>
 1  1961     36752.      1033 
 2  1962     37787.      1014 
 3  1963     38736.      1106 
 4  1964     39325.      1103 
 5  1965     40334.      1104 
 6  1966     41229.      1088.
 7  1967     43240.      1193 
 8  1968     44420.      1252.
 9  1969     45607.      1267 
10  1970     47706.      1259 
# … with 48 more rows
…
