DACSS 601: Data Science Fundamentals - FALL 2022 - Challenge 1 Instructions
…
Add any comments or documentation as needed. More challenging data sets may require additional code chunks and documentation.

Describe the data

Using a combination of words and results of R commands, can you provide a high level description of the data? Describe as efficiently as possible where/how the data was (likely) gathered, indicate the cases and variables (both the interpretation and any details you deem useful to the reader to fully understand your chosen data).

Code

# Get the number of counties in each state
stateCount <- group_by(df, STATE) %>% summarize(CountyCount = n())

# Sort in descending order
arrange(stateCount, desc(CountyCount))

# A tibble: 53 × 2
   STATE CountyCount
   <chr>       <int>
 1 TX            221
 2 GA            152
 3 KY            119
 4 MO            115
 5 IL            103
 6 IA             99
 7 KS             95
 8 NC             94
 9 IN             92
10 VA             92
# … with 43 more rows
…
From the code chunks above, we can see that Texas has the most counties out of every state. The other interesting thing about the data set is the length. There are 53 different states listed in the data set, not 50. This indicates that the data set must also include some data entries that are not States. One guess is that they could be territories. Additionally, we can see that the average number of counties per state is 55.28.

Code

# Get the total population in each state
stateEmployment <- group_by(df, STATE) %>% summarize(TotalEmployment = sum(TOTAL))

# Sort in descending order
arrange(stateEmployment, desc(TotalEmployment))

# A tibble: 53 × 2
   STATE TotalEmployment
   <chr>           <dbl>
 1 TX              19839
 2 IL              19131
 3 NY              17050
 4 NE              13176
 5 CA              13137
 6 PA              12769
 7 OH               9056
 8 GA               8605
 9 IN               8537
10 MO               8419
# … with 43 more rows
…
The two previous chunks of code calculates the total railroad employment of each state in the data set. The data set shows that Texas has the largest employment numbers with 19,839 and the average population per state is 4,819.

Code

# Calculate average population per county in each state
totalInfo <- mutate(stateEmployment, select(stateCount, CountyCount))
totalInfo <- mutate(totalInfo, AverageEmploymentPerCounty = TotalEmployment / CountyCount)
arrange(totalInfo, desc(AverageEmploymentPerCounty))

# A tibble: 53 × 4
   STATE TotalEmployment CountyCount AverageEmploymentPerCounty
   <chr>           <dbl>       <int>                      <dbl>
 1 DE               1495           3                       498.
 2 NJ               8329          21                       397.
 3 CT               2592           8                       324 
 4 MA               3379          12                       282.
 5 NY              17050          61                       280.
 6 DC                279           1                       279 
 7 CA              13137          55                       239.
 8 AZ               3153          15                       210.
 9 PA              12769          65                       196.
10 MD               4709          24                       196.
# … with 43 more rows
…
