DACSS 601: Data Science Fundamentals - FALL 2022 - Challenge 2 Instructions
…
df <- na.omit(df)

An analysis of the ‘arrival_data_year’ column reveals that the data was collected over the course of three years from 2015 to 2017. This can be shown with the following R command: summary(df$arrival_date_year). Additionally, we can see that the tibble contains information about hotel bookings from all over the world, as evident by the ‘country’ column. The code chunk below reveals that there are 167 unique countries in the data set. Note that although the tibble generated below has 168 rows, one of those rows is for those data entries whose country is not known. In these cases, the country is listed as “NULL”.

Code

countries <- select(df, country) %>%
  group_by(country) %>%
  summarise(TotalBookings = n()) %>%
  arrange(desc(TotalBookings))

countries

# A tibble: 178 × 2
   country TotalBookings
   <chr>           <int>
 1 PRT             48586
 2 GBR             12129
 3 FRA             10415
 4 ESP              8568
 5 DEU              7287
 6 ITA              3766
 7 IRL              3375
 8 BEL              2342
 9 BRA              2224
10 NLD              2104
# … with 168 more rows
…
