DACSS 601: Data Science Fundamentals - FALL 2022 - Challenge1 Erika Nagai
…
knitr::opts_chunk$set(echo = TRUE, warning=FALSE, message=FALSE)

Challenge Overview

Today’s challenge is to read in and explore the data ‘birds.csv’

Code

# 1. Read in the data

bird_data <- read_csv('_data/birds.csv')
bird_data

# A tibble: 30,977 × 14
   Domain Cod…¹ Domain Area …² Area  Eleme…³ Element Item …⁴ Item  Year …⁵  Year
   <chr>        <chr>    <dbl> <chr>   <dbl> <chr>     <dbl> <chr>   <dbl> <dbl>
 1 QA           Live …       2 Afgh…    5112 Stocks     1057 Chic…    1961  1961
 2 QA           Live …       2 Afgh…    5112 Stocks     1057 Chic…    1962  1962
 3 QA           Live …       2 Afgh…    5112 Stocks     1057 Chic…    1963  1963
 4 QA           Live …       2 Afgh…    5112 Stocks     1057 Chic…    1964  1964
 5 QA           Live …       2 Afgh…    5112 Stocks     1057 Chic…    1965  1965
 6 QA           Live …       2 Afgh…    5112 Stocks     1057 Chic…    1966  1966
 7 QA           Live …       2 Afgh…    5112 Stocks     1057 Chic…    1967  1967
 8 QA           Live …       2 Afgh…    5112 Stocks     1057 Chic…    1968  1968
 9 QA           Live …       2 Afgh…    5112 Stocks     1057 Chic…    1969  1969
10 QA           Live …       2 Afgh…    5112 Stocks     1057 Chic…    1970  1970
# … with 30,967 more rows, 4 more variables: Unit <chr>, Value <dbl>,
#   Flag <chr>, `Flag Description` <chr>, and abbreviated variable names
#   ¹​`Domain Code`, ²​`Area Code`, ³​`Element Code`, ⁴​`Item Code`, ⁵​`Year Code`
…
Generated by summarytools 1.0.1 (R version 4.2.1)
2022-12-20

This data looks tidy, however, the column “Area” is not well organized as it has the name of the countries and the regions. For example, there are “Africa” and “Algeria” for the Area column, but “Algeria” is a part of “Africa”.

Code

bird_data %>% 
  select(Area) %>%
  arrange(Area) %>%
  unique()

# A tibble: 248 × 1
   Area               
   <chr>              
 1 Afghanistan        
 2 Africa             
 3 Albania            
 4 Algeria            
 5 American Samoa     
 6 Americas           
 7 Angola             
 8 Antigua and Barbuda
 9 Argentina          
10 Armenia            
# … with 238 more rows
…
