DACSS 601: Data Science Fundamentals - FALL 2022 - Challenge 4 Instructions
…
Code

# Data grouped by date
poultry_grouped_date <- poultry_data %>%
  group_by(Date) %>%
  summarise(
    price_mean = mean(Price_Dollar),
    price_median = median(Price_Dollar)
  )

poultry_grouped_date

# A tibble: 120 × 3
   Date    price_mean price_median
   <chr>        <dbl>        <dbl>
 1 2004-01       2.07         1.94
 2 2004-02       2.47         1.98
 3 2004-03       2.50         2.03
 4 2004-04       2.50         2.03
 5 2004-05       2.51         2.03
 6 2004-06       2.52         2.02
 7 2004-07       3.31         2.17
 8 2004-08       3.31         2.17
 9 2004-09       3.31         2.17
10 2004-10       3.31         2.17
# … with 110 more rows
…
Are there any variables that require mutation to be usable in your analysis stream? For example, are all time variables correctly coded as dates? Are all string variables reduced and cleaned to sensible categories? Do you need to turn any variables into factors and reorder for ease of graphics and visualization?

For this data, I have used the Month and Year values to create a new “Date” column. I have then used this column, as well as the Product column, to group the data to get mean price and median price values. While the graphs formed by this grouping are not very informative, on scaling the data, this could be extremely informative.

Document your work here.

Code

# Reading into dataframe
data <- read_excel('_data/debt_in_trillions.xlsx')
data <- data %>%
  separate(c("Year and Quarter"), c("Year", "Quarter"), ":")
data

# A tibble: 74 × 9
   Year  Quarter Mortgage `HE Revolving` `Auto Loan` Credi…¹ Stude…² Other Total
   <chr> <chr>      <dbl>          <dbl>       <dbl>   <dbl>   <dbl> <dbl> <dbl>
 1 03    Q1          4.94          0.242       0.641   0.688   0.241 0.478  7.23
 2 03    Q2          5.08          0.26        0.622   0.693   0.243 0.486  7.38
 3 03    Q3          5.18          0.269       0.684   0.693   0.249 0.477  7.56
 4 03    Q4          5.66          0.302       0.704   0.698   0.253 0.449  8.07
 5 04    Q1          5.84          0.328       0.72    0.695   0.260 0.446  8.29
 6 04    Q2          5.97          0.367       0.743   0.697   0.263 0.423  8.46
 7 04    Q3          6.21          0.426       0.751   0.706   0.33  0.41   8.83
 8 04    Q4          6.36          0.468       0.728   0.717   0.346 0.423  9.04
 9 05    Q1          6.51          0.502       0.725   0.71    0.364 0.394  9.21
10 05    Q2          6.70          0.528       0.774   0.717   0.374 0.402  9.49
# … with 64 more rows, and abbreviated variable names ¹​`Credit Card`,
#   ²​`Student Loan`
…
Code

pivoted_debt_data

# A tibble: 95 × 3
   Year  debt_type  debt_mean_value
   <chr> <chr>                <dbl>
 1 03    mort_mean            5.22 
 2 03    herev_mean           0.268
 3 03    auto_mean            0.663
 4 03    cred_mean            0.693
 5 03    stud_mean            0.246
 6 04    mort_mean            6.09 
 7 04    herev_mean           0.397
 8 04    auto_mean            0.736
 9 04    cred_mean            0.704
10 04    stud_mean            0.300
# … with 85 more rows
…
