DACSS 601: Data Science Fundamentals - FALL 2022 - Challenge 2
…
provide summary statistics for different interesting groups within the data, and interpret those statistics

Read in the Data

Read in one (or more) of the following data sets, available in the posts/_data folder, using the correct R package and command.

birds.csv ⭐⭐⭐

Code

birdsData <- read_csv("_data/birds.csv")
birdsData

# A tibble: 30,977 × 14
   Domain Cod…¹ Domain Area …² Area  Eleme…³ Element Item …⁴ Item  Year …⁵  Year
   <chr>        <chr>    <dbl> <chr>   <dbl> <chr>     <dbl> <chr>   <dbl> <dbl>
 1 QA           Live …       2 Afgh…    5112 Stocks     1057 Chic…    1961  1961
 2 QA           Live …       2 Afgh…    5112 Stocks     1057 Chic…    1962  1962
 3 QA           Live …       2 Afgh…    5112 Stocks     1057 Chic…    1963  1963
 4 QA           Live …       2 Afgh…    5112 Stocks     1057 Chic…    1964  1964
 5 QA           Live …       2 Afgh…    5112 Stocks     1057 Chic…    1965  1965
 6 QA           Live …       2 Afgh…    5112 Stocks     1057 Chic…    1966  1966
 7 QA           Live …       2 Afgh…    5112 Stocks     1057 Chic…    1967  1967
 8 QA           Live …       2 Afgh…    5112 Stocks     1057 Chic…    1968  1968
 9 QA           Live …       2 Afgh…    5112 Stocks     1057 Chic…    1969  1969
10 QA           Live …       2 Afgh…    5112 Stocks     1057 Chic…    1970  1970
# … with 30,967 more rows, 4 more variables: Unit <chr>, Value <dbl>,
#   Flag <chr>, `Flag Description` <chr>, and abbreviated variable names
#   ¹​`Domain Code`, ²​`Area Code`, ³​`Element Code`, ⁴​`Item Code`, ⁵​`Year Code`
…
Summarizing the Grouping by area and Item gives us the mean number of each item type from 1961-2018 (Where a value exists)

Code

by_area <- birdsData %>% group_by(Area,Item)
by_area

# A tibble: 30,977 × 14
# Groups:   Area, Item [601]
   Domain Cod…¹ Domain Area …² Area  Eleme…³ Element Item …⁴ Item  Year …⁵  Year
   <chr>        <chr>    <dbl> <chr>   <dbl> <chr>     <dbl> <chr>   <dbl> <dbl>
 1 QA           Live …       2 Afgh…    5112 Stocks     1057 Chic…    1961  1961
 2 QA           Live …       2 Afgh…    5112 Stocks     1057 Chic…    1962  1962
 3 QA           Live …       2 Afgh…    5112 Stocks     1057 Chic…    1963  1963
 4 QA           Live …       2 Afgh…    5112 Stocks     1057 Chic…    1964  1964
 5 QA           Live …       2 Afgh…    5112 Stocks     1057 Chic…    1965  1965
 6 QA           Live …       2 Afgh…    5112 Stocks     1057 Chic…    1966  1966
 7 QA           Live …       2 Afgh…    5112 Stocks     1057 Chic…    1967  1967
 8 QA           Live …       2 Afgh…    5112 Stocks     1057 Chic…    1968  1968
 9 QA           Live …       2 Afgh…    5112 Stocks     1057 Chic…    1969  1969
10 QA           Live …       2 Afgh…    5112 Stocks     1057 Chic…    1970  1970
# … with 30,967 more rows, 4 more variables: Unit <chr>, Value <dbl>,
#   Flag <chr>, `Flag Description` <chr>, and abbreviated variable names
#   ¹​`Domain Code`, ²​`Area Code`, ³​`Element Code`, ⁴​`Item Code`, ⁵​`Year Code`

Code

summarise(by_area, birds = round(mean(Value, na.rm = TRUE)))

# A tibble: 601 × 3
# Groups:   Area [248]
   Area        Item                    birds
   <chr>       <chr>                   <dbl>
 1 Afghanistan Chickens                 8099
 2 Africa      Chickens               936779
 3 Africa      Ducks                   13639
 4 Africa      Geese and guinea fowls  12164
 5 Africa      Pigeons, other birds    11222
 6 Africa      Turkeys                  9004
 7 Albania     Chickens                 4055
 8 Albania     Ducks                     558
 9 Albania     Geese and guinea fowls    396
10 Albania     Turkeys                   750
# … with 591 more rows
…
An interesting area I wanted to filter on was the flag for how the data was collected.

Due to using the “na.rm = true” modifier in my earlier code, we never included any rows where the data was not available however we may want to see only official data.

Below we see a snapshot of the most recent and official data

Code

by_area_year <- birdsData %>% group_by(Area,Year,Item)
by_area_year

# A tibble: 30,977 × 14
# Groups:   Area, Year, Item [30,977]
   Domain Cod…¹ Domain Area …² Area  Eleme…³ Element Item …⁴ Item  Year …⁵  Year
   <chr>        <chr>    <dbl> <chr>   <dbl> <chr>     <dbl> <chr>   <dbl> <dbl>
 1 QA           Live …       2 Afgh…    5112 Stocks     1057 Chic…    1961  1961
 2 QA           Live …       2 Afgh…    5112 Stocks     1057 Chic…    1962  1962
 3 QA           Live …       2 Afgh…    5112 Stocks     1057 Chic…    1963  1963
 4 QA           Live …       2 Afgh…    5112 Stocks     1057 Chic…    1964  1964
 5 QA           Live …       2 Afgh…    5112 Stocks     1057 Chic…    1965  1965
 6 QA           Live …       2 Afgh…    5112 Stocks     1057 Chic…    1966  1966
 7 QA           Live …       2 Afgh…    5112 Stocks     1057 Chic…    1967  1967
 8 QA           Live …       2 Afgh…    5112 Stocks     1057 Chic…    1968  1968
 9 QA           Live …       2 Afgh…    5112 Stocks     1057 Chic…    1969  1969
10 QA           Live …       2 Afgh…    5112 Stocks     1057 Chic…    1970  1970
# … with 30,967 more rows, 4 more variables: Unit <chr>, Value <dbl>,
#   Flag <chr>, `Flag Description` <chr>, and abbreviated variable names
#   ¹​`Domain Code`, ²​`Area Code`, ³​`Element Code`, ⁴​`Item Code`, ⁵​`Year Code`

Code

by_area_year %>%
filter(`Flag Description` == "Official data",Year == 2018) %>%
  summarise(NumberOfBirds = Value)

# A tibble: 135 × 4
# Groups:   Area, Year [66]
   Area                    Year Item     NumberOfBirds
   <chr>                  <dbl> <chr>            <dbl>
 1 Albania                 2018 Chickens          7272
 2 Albania                 2018 Turkeys            403
 3 Argentina               2018 Chickens        113600
 4 Armenia                 2018 Chickens          4406
 5 Azerbaijan              2018 Chickens         30498
 6 Bangladesh              2018 Chickens        282145
 7 Bangladesh              2018 Ducks            55853
 8 Belgium                 2018 Chickens         32327
 9 Benin                   2018 Chickens         21304
10 Bosnia and Herzegovina  2018 Chickens         16229
# … with 125 more rows
…
