DACSS 601: Data Science Fundamentals - FALL 2022 - Challenge 3 Instructions
…
Code

# Pivoting the dataframe
pivoted_animal_wt <- pivot_longer(animal_wt, cols=col_names[-1], 
                          names_to = "animal_breed",
                          values_to = "weight")
pivoted_animal_wt

# A tibble: 144 × 3
   `IPCC Area`         animal_breed       weight
   <chr>               <chr>               <dbl>
 1 Indian Subcontinent Cattle - dairy      275  
 2 Indian Subcontinent Cattle - non-dairy  110  
 3 Indian Subcontinent Buffaloes           295  
 4 Indian Subcontinent Swine - market       28  
 5 Indian Subcontinent Swine - breeding     28  
 6 Indian Subcontinent Chicken - Broilers    0.9
 7 Indian Subcontinent Chicken - Layers      1.8
 8 Indian Subcontinent Ducks                 2.7
 9 Indian Subcontinent Turkeys               6.8
10 Indian Subcontinent Sheep                28  
# … with 134 more rows
…
# Get column names of the dataframe
col_names <- names(egg_data)

# Exclude month and year columns from pivoting, as they uniquely identify each row case
col_names <- col_names[!col_names %in% c("month","year")]

# Pivoting longer for tidier dataframe
pivoted_egg_data <- pivot_longer(egg_data, cols=col_names, 
                          names_to = "egg_qty",
                          values_to = "cost")

pivoted_egg_data

# A tibble: 480 × 4
   month     year egg_qty                 cost
   <chr>    <dbl> <chr>                  <dbl>
 1 January   2004 large_half_dozen        126 
 2 January   2004 large_dozen             230 
 3 January   2004 extra_large_half_dozen  132 
 4 January   2004 extra_large_dozen       230 
 5 February  2004 large_half_dozen        128.
 6 February  2004 large_dozen             226.
 7 February  2004 extra_large_half_dozen  134.
 8 February  2004 extra_large_dozen       230 
 9 March     2004 large_half_dozen        131 
10 March     2004 large_dozen             225 
# … with 470 more rows
…
