DACSS 601: Data Science Fundamentals - FALL 2022 - Homework 2 Abby Balint
…
Here I am filtering the data down to US only rows in or after the year 2000 to narrow down the scope of my analysis. I am also sorting by Case Number as upon reviewing the data, this is the variable that actually determines the chronological order of when these were reported. All other time and date rows are missing various data or in incomplete formats. I kept in the date column because for the rows that do have values, the formatting is pretty standardized.

Code

sharknew %>%
  filter(`Country` == "USA", `Year` >= "2000") %>%
  arrange(`original order`)

# A tibble: 963 × 15
   Date     Year Type     Country Area  Locat…¹ Activ…² Name  Sex   Age   Injury
   <chr>   <dbl> <chr>    <chr>   <chr> <chr>   <chr>   <chr> <chr> <chr> <chr> 
 1 6/22/05  2000 Boat     USA     Flor… Boca G… Fishin… boat… M     <NA>  No in…
 2 2/21/00  2000 Unprovo… USA     Flor… Rivier… <NA>    male  M     27    Right…
 3 3/1/00   2000 Unprovo… USA     Loui… Midnig… Spearf… Kurt… M     39    No in…
 4 3/24/00  2000 Unprovo… USA     Flor… Florid… Surfing Barr… M     37    Left …
 5 3/26/00  2000 Unprovo… USA     Flor… Juno B… Boogie… Heat… F     14    Right…
 6 3/31/00  2000 Unprovo… USA     Flor… Santa … Fishing Dave… M     <NA>  No In…
 7 4/9/00   2000 Unprovo… USA     Flor… Munici… Boogie… teen  M     <NA>  Punct…
 8 4/14/00  2000 Unprovo… USA     Flor… On the… Walking Adam… M     34    Left …
 9 6/2/00   2000 Unprovo… USA     Flor… 27th A… Snorke… Bria… M     13    Right…
10 6/9/00   2000 Unprovo… USA     Alab… Gulf S… Swimmi… Chuc… M     44    Right…
# … with 953 more rows, 4 more variables: `Fatal (Y/N)` <chr>, Time <chr>,
#   Species <chr>, `original order` <dbl>, and abbreviated variable names
#   ¹​Location, ²​Activity

I saw that the Location column could be used to break out counties since all values listed a description of the beach, park, etc, followed by a county after the column. This is particularly useful because I am looking at US shark attacks only and all US locations have a county associated with them. I also renamed the “Area” variable to “State” because I am looking at US.

Code

sharknew %>%
  filter(`Country` == "USA", `Year` >= "2000") %>%
  arrange(`original order`) %>%
  separate(col=`Location`, into=c("Description" , "County"), sep = ",") %>%
  rename(State = `Area`)

# A tibble: 963 × 16
   Date     Year Type     Country State Descr…¹ County Activ…² Name  Sex   Age  
   <chr>   <dbl> <chr>    <chr>   <chr> <chr>   <chr>  <chr>   <chr> <chr> <chr>
 1 6/22/05  2000 Boat     USA     Flor… Boca G… " Lee… Fishin… boat… M     <NA> 
 2 2/21/00  2000 Unprovo… USA     Flor… Rivier… " Pal… <NA>    male  M     27   
 3 3/1/00   2000 Unprovo… USA     Loui… Midnig…  <NA>  Spearf… Kurt… M     39   
 4 3/24/00  2000 Unprovo… USA     Flor… Florid… " Bre… Surfing Barr… M     37   
 5 3/26/00  2000 Unprovo… USA     Flor… Juno B… " Pal… Boogie… Heat… F     14   
 6 3/31/00  2000 Unprovo… USA     Flor… Santa …  <NA>  Fishing Dave… M     <NA> 
 7 4/9/00   2000 Unprovo… USA     Flor… Munici… " Riv… Boogie… teen  M     <NA> 
 8 4/14/00  2000 Unprovo… USA     Flor… On the… " Vol… Walking Adam… M     34   
 9 6/2/00   2000 Unprovo… USA     Flor… 27th A… " New… Snorke… Bria… M     13   
10 6/9/00   2000 Unprovo… USA     Alab… Gulf S… " Bal… Swimmi… Chuc… M     44   
# … with 953 more rows, 5 more variables: Injury <chr>, `Fatal (Y/N)` <chr>,
#   Time <chr>, Species <chr>, `original order` <dbl>, and abbreviated variable
#   names ¹​Description, ²​Activity
…
Code

sharknew %>%
  filter(`Country` == "USA", `Year` >= "2000") %>%
  arrange(`original order`) %>%
  separate(col=`Location`, into=c("Description" , "County"), sep = ",") %>%
  rename(State = `Area`) %>%
  mutate(`AgeRanges` = dplyr::case_when(
    `Age` >= 18 & `Age` <= 24 ~ "18-24",
    `Age` >= 25 & `Age` <= 34 ~ "25-34",
    `Age` >= 35 & `Age` <= 44 ~ "18-44",
    `Age` >= 45 & `Age` <= 54 ~ "18-54",
    `Age` >= 55  ~ "55+" ))

# A tibble: 963 × 17
   Date     Year Type     Country State Descr…¹ County Activ…² Name  Sex   Age  
   <chr>   <dbl> <chr>    <chr>   <chr> <chr>   <chr>  <chr>   <chr> <chr> <chr>
 1 6/22/05  2000 Boat     USA     Flor… Boca G… " Lee… Fishin… boat… M     <NA> 
 2 2/21/00  2000 Unprovo… USA     Flor… Rivier… " Pal… <NA>    male  M     27   
 3 3/1/00   2000 Unprovo… USA     Loui… Midnig…  <NA>  Spearf… Kurt… M     39   
 4 3/24/00  2000 Unprovo… USA     Flor… Florid… " Bre… Surfing Barr… M     37   
 5 3/26/00  2000 Unprovo… USA     Flor… Juno B… " Pal… Boogie… Heat… F     14   
 6 3/31/00  2000 Unprovo… USA     Flor… Santa …  <NA>  Fishing Dave… M     <NA> 
 7 4/9/00   2000 Unprovo… USA     Flor… Munici… " Riv… Boogie… teen  M     <NA> 
 8 4/14/00  2000 Unprovo… USA     Flor… On the… " Vol… Walking Adam… M     34   
 9 6/2/00   2000 Unprovo… USA     Flor… 27th A… " New… Snorke… Bria… M     13   
10 6/9/00   2000 Unprovo… USA     Alab… Gulf S… " Bal… Swimmi… Chuc… M     44   
# … with 953 more rows, 6 more variables: Injury <chr>, `Fatal (Y/N)` <chr>,
#   Time <chr>, Species <chr>, `original order` <dbl>, AgeRanges <chr>, and
#   abbreviated variable names ¹​Description, ²​Activity
…
