DACSS 601: Data Science Fundamentals - FALL 2022 - Homework 2 - Darron Bunt
…
#import data
FlagshipTwitter <- read_csv("_data/FlagshipTwitterUpdated.csv")

Cleaning the Dataset

1. Cleaning out any rows that are not Twitter data

I realized that when I had run my query in Brandwatch, I had not specified that I only wanted to return authors from Twitter. Accordingly, I had pulled in some mentions from forums, blogs, YouTube (etc.) where the author name there matched the flagship institution’s Twitter author name.

#remove rows where the Page Type isn't twitter
FlagshipTwitter2 <- subset(FlagshipTwitter, PageType =='twitter')
FlagshipTwitter2

# A tibble: 5,658 × 37
   Date     Url   Domain Senti…¹ PageT…² Langu…³ Count…⁴ Conti…⁵ Conti…⁶ Country
   <chr>    <chr> <chr>  <chr>   <chr>   <chr>   <chr>   <chr>   <chr>   <chr>  
 1 11/30/2… http… twitt… neutral twitter en      USA     NORTH … North … United…
 2 11/30/2… http… twitt… neutral twitter en      USA     NORTH … North … United…
 3 11/30/2… http… twitt… positi… twitter en      USA     NORTH … North … United…
 4 11/30/2… http… twitt… neutral twitter en      USA     NORTH … North … United…
 5 11/30/2… http… twitt… neutral twitter en      USA     NORTH … North … United…
 6 11/30/2… http… twitt… neutral twitter en      USA     NORTH … North … United…
 7 11/30/2… http… twitt… neutral twitter en      USA     NORTH … North … United…
 8 11/30/2… http… twitt… neutral twitter en      USA     NORTH … North … United…
 9 11/30/2… http… twitt… neutral twitter en      USA     NORTH … North … United…
10 11/30/2… http… twitt… neutral twitter en      USA     NORTH … North … United…
# … with 5,648 more rows, 27 more variables: `City Code` <chr>,
#   `Account Type` <chr>, Author <chr>, City <chr>, `Expanded URLs` <chr>,
#   `Full Text` <chr>, Gender <chr>, Hashtags <chr>, Impact <dbl>,
#   Impressions <dbl>, `Location Name` <chr>, `Mentioned Authors` <chr>,
#   `Twitter Followers` <dbl>, `Twitter Reply Count` <dbl>,
#   `Twitter Reply to` <chr>, `Twitter Retweet of` <chr>,
#   `Twitter Retweets` <dbl>, `Twitter Likes` <dbl>, `Twitter Tweets` <dbl>, …
…
3. Narrow down to the columns I actually want to use in analysis (and clean up their names, as necessary)

Though I had already deleted a few columns, I quickly realized I would probably not be using 32 different data points in this analysis and would be well served to re-order my columns such that the ones I intend to use the most are first, not interspersed randomly.

I also wanted to give several columns clearer/more usable names.

#rename the columns I intend to use for analysis
FlagshipTwitter3 <- rename(FlagshipTwitter2, c(Tweet = 'Full Text', MentionedAuthors = 'Mentioned Authors', TWFollowers = 'Twitter Followers', TWReply = 'Twitter Reply Count', TWRetweets = 'Twitter Retweets', TWLikes = 'Twitter Likes', Reach = 'Reach (new)', EngType = 'Engagement Type', URL = Url))

#put columns I plan to use first 
FlagshipTwitterUse <- select(FlagshipTwitter3, Author, Date, Impressions, Reach, TWLikes, TWRetweets, TWReply, EngType, Sentiment, Hashtags, MentionedAuthors, Tweet, TWFollowers, URL, everything())
FlagshipTwitterUse

# A tibble: 5,658 × 37
   Author    Date  Impre…¹ Reach TWLikes TWRet…² TWReply EngType Senti…³ Hasht…⁴
   <chr>     <chr>   <dbl> <dbl>   <dbl>   <dbl>   <dbl> <chr>   <chr>   <chr>  
 1 UofAlaba… 11/3…  189187 24242       6       0       2 <NA>    neutral <NA>   
 2 uhmanoa   11/3…   33885  9715       0       0       0 RETWEET neutral <NA>   
 3 CUBoulder 11/3…   90003 15452       0       0       0 RETWEET positi… #skobus
 4 UNC       11/3…  143148 18997       0       0       0 RETWEET neutral #chtra…
 5 unevadar… 11/3…   33378 10932       5       3       0 <NA>    neutral #nvgra…
 6 uhmanoa   11/3…   33887  9716       1       0       0 <NA>    neutral #takem…
 7 uarizona  11/3…  233177 24770      12       4       0 <NA>    neutral <NA>   
 8 UArkansas 11/3…   72683 14013       0       0       0 RETWEET neutral <NA>   
 9 UArkansas 11/3…   72683 15413       1       0       1 REPLY   neutral <NA>   
10 UUtah     11/3…  126437 17988       0       0       0 RETWEET neutral <NA>   
# … with 5,648 more rows, 27 more variables: MentionedAuthors <chr>,
#   Tweet <chr>, TWFollowers <dbl>, URL <chr>, Domain <chr>, PageType <chr>,
#   Language <chr>, `Country Code` <chr>, `Continent Code` <chr>,
#   Continent <chr>, Country <chr>, `City Code` <chr>, `Account Type` <chr>,
#   City <chr>, `Expanded URLs` <chr>, Gender <chr>, Impact <dbl>,
#   `Location Name` <chr>, `Twitter Reply to` <chr>,
#   `Twitter Retweet of` <chr>, `Twitter Tweets` <dbl>, …

4. Sort out my dates

My dates are currently date + times that each tweet was posted. I want to separate this into a date column and a time column.

#separate dates into respective date and time column
TwitterUse2 <- separate(FlagshipTwitterUse, Date, into = c("Date", "Time"), sep = " ")

TwitterUse2$Date <- parse_date(TwitterUse2$Date, format = "%m/%d/%Y")
TwitterUse2$Time <- parse_time(TwitterUse2$Time, format = "%H:%M")
TwitterUse2

# A tibble: 5,658 × 38
   Author Date       Time  Impre…¹ Reach TWLikes TWRet…² TWReply EngType Senti…³
   <chr>  <date>     <tim>   <dbl> <dbl>   <dbl>   <dbl>   <dbl> <chr>   <chr>  
 1 UofAl… 2022-11-30 23:55  189187 24242       6       0       2 <NA>    neutral
 2 uhman… 2022-11-30 23:50   33885  9715       0       0       0 RETWEET neutral
 3 CUBou… 2022-11-30 23:47   90003 15452       0       0       0 RETWEET positi…
 4 UNC    2022-11-30 23:30  143148 18997       0       0       0 RETWEET neutral
 5 uneva… 2022-11-30 23:30   33378 10932       5       3       0 <NA>    neutral
 6 uhman… 2022-11-30 23:24   33887  9716       1       0       0 <NA>    neutral
 7 uariz… 2022-11-30 23:10  233177 24770      12       4       0 <NA>    neutral
 8 UArka… 2022-11-30 23:03   72683 14013       0       0       0 RETWEET neutral
 9 UArka… 2022-11-30 23:02   72683 15413       1       0       1 REPLY   neutral
10 UUtah  2022-11-30 23:00  126437 17988       0       0       0 RETWEET neutral
# … with 5,648 more rows, 28 more variables: Hashtags <chr>,
#   MentionedAuthors <chr>, Tweet <chr>, TWFollowers <dbl>, URL <chr>,
#   Domain <chr>, PageType <chr>, Language <chr>, `Country Code` <chr>,
#   `Continent Code` <chr>, Continent <chr>, Country <chr>, `City Code` <chr>,
#   `Account Type` <chr>, City <chr>, `Expanded URLs` <chr>, Gender <chr>,
#   Impact <dbl>, `Location Name` <chr>, `Twitter Reply to` <chr>,
#   `Twitter Retweet of` <chr>, `Twitter Tweets` <dbl>, …
…
