DACSS 601: Data Science Fundamentals - FALL 2022 - HW3 - Darron Bunt
…
#count posts made by each college
by_college <- TwitterUse2 %>%
count(Author) %>%
  rename("Total_Posts" = "n") %>%
  mutate(Total_PostsPerc = (Total_Posts/sum(Total_Posts)*100)) %>%
  arrange(desc(Total_PostsPerc))
by_college

# A tibble: 50 × 3
   Author      Total_Posts Total_PostsPerc
   <chr>             <int>           <dbl>
 1 RutgersU            337            5.96
 2 UUtah               311            5.50
 3 UMich               281            4.97
 4 UofAlabama          242            4.28
 5 uhmanoa             238            4.21
 6 CUBoulder           220            3.89
 7 penn_state          210            3.71
 8 UNC                 203            3.59
 9 UofOklahoma         203            3.59
10 UBuffalo            198            3.50
# … with 40 more rows
…
Most common time of day to post

The time of day that posts are made is also a variable worth considering. I don’t, however, want to look at post time down to the second; instead, I want to break the day up into four equal time periods: overnight (00:00:00 to 05:59:59), morning (06:00:00 to 11:59:59), afternoon (12:00:00 to 17:59:59), and evening (18:00:00 to 23:59:59).

#assign a time period label to each post based on when it was made
time_of_day <- TwitterUse2 %>%  
   mutate(TimePeriod = format(Time, format="%H:%M:%S")) %>%
  mutate(TimePeriod = replace(TimePeriod, TimePeriod >= "00:00:00" & TimePeriod < "05:59:59", "overnight")) %>%
  mutate(TimePeriod = replace(TimePeriod, TimePeriod >= "06:00:00" & TimePeriod < "11:59:59", "morning")) %>%
  mutate(TimePeriod = replace(TimePeriod, TimePeriod >= "12:00:00" & TimePeriod < "17:59:59", "afternoon")) %>%
 mutate(TimePeriod = replace(TimePeriod, TimePeriod >= "18:00:00" & TimePeriod < "23:59:59", "evening")) %>%
  select(Author, Date, TimePeriod, Tweet)
time_of_day

# A tibble: 5,658 × 4
   Author      Date       TimePeriod Tweet                                      
   <chr>       <date>     <chr>      <chr>                                      
 1 UofAlabama  2022-11-30 evening    "Juggling, snakes and cooking - oh my! ICY…
 2 uhmanoa     2022-11-30 evening    "RT @ManoaGrad Summer and Fall 2022 candid…
 3 CUBoulder   2022-11-30 evening    "RT @CU_PTS We are thrilled to welcome two…
 4 UNC         2022-11-30 evening    "RT @ChapelHillFD #CHtraffic Alert: Countr…
 5 unevadareno 2022-11-30 evening    "Save the date! @unevadareno will hold the…
 6 uhmanoa     2022-11-30 evening    "$3.4 million to grow Native Hawaiian phys…
 7 uarizona    2022-11-30 evening    "University of Arizona researchers are tea…
 8 UArkansas   2022-11-30 evening    "RT @ArkansasPBS LIVESTREAMING: Join @Hill…
 9 UArkansas   2022-11-30 evening    "@prehistormic Your No. 1 song of the year…
10 UUtah       2022-11-30 evening    "RT @UofUIT If you haven’t already, check …
# … with 5,648 more rows

Can I pivot this so that I have a count of how many times each account posted in each time frame?

time_of_day_by_college <- time_of_day %>%
group_by(Author, TimePeriod) %>%
  summarize(Count=n()) %>%
  pivot_wider(names_from = TimePeriod, values_from = Count)
time_of_day_by_college[is.na(time_of_day_by_college)] <- 0 
time_of_day_by_college

# A tibble: 50 × 5
# Groups:   Author [50]
   Author      afternoon evening morning overnight
   <chr>           <int>   <int>   <int>     <int>
 1 CUBoulder          86     114       2        18
 2 IndianaUniv        53      62       0         6
 3 LSU                80      58       1         8
 4 Mizzou            100      75       4         9
 5 OhioState          35      31       0         3
 6 OleMiss            16      11       0         0
 7 penn_state        119      77       4        10
 8 RutgersU          140     145       9        43
 9 uafairbanks         2      12       0         0
10 uarizona           48      57       0         0
# … with 40 more rows
…
TWLikes_Max = max(TWLikes, na.rm = TRUE), 
    TWLikes_Min = min(TWLikes, na.rm = TRUE),
TWLikes_Median = median(TWLikes, na.rm = TRUE),
TWLikes_Mean = mean(TWLikes,na.rm = TRUE),
TWRT_Max = max(TWRetweets, na.rm = TRUE), 
    TWRT_Min = min(TWRetweets, na.rm = TRUE),
TWRT_Median = median(TWRetweets, na.rm = TRUE),
TWRT_Mean = mean(TWRetweets,na.rm = TRUE),
TWReply_Max = max(TWReply, na.rm = TRUE), 
    TWReply_Min = min(TWReply, na.rm = TRUE),
TWReply_Median = median(TWReply, na.rm = TRUE),
TWReply_Mean = mean(TWReply,na.rm = TRUE))
eng_met_by_college

# A tibble: 50 × 21
   Author      Impress…¹ Impre…² Impre…³ Impre…⁴ Reach…⁵ Reach…⁶ Reach…⁷ Reach…⁸
   <chr>           <dbl>   <dbl>   <dbl>   <dbl>   <dbl>   <dbl>   <dbl>   <dbl>
 1 CUBoulder      194433   89977  90304   94814.   33342   15450   15477  16634.
 2 IndianaUniv    417922   87263  87438  109424.   26413   15236   15250  16215.
 3 LSU           4047025  359995 362754  425548.  612271   28147   28238  35589.
 4 Mizzou         577996  137774 138206. 151897.   91012   18681   18709  21230.
 5 OhioState     1380976  381184 381417  463142.  102221   28824   28831  35813.
 6 OleMiss        286030  111851 114761  129935.   33628   17036   19983  21809.
 7 penn_state     292698  226550 226899  229665.   31571   23161   23179  24187.
 8 RutgersU       290287  141602 141797  144131.   49452   18907   18919  19443.
 9 uafairbanks      8989    8927   8960    8965     6002    4591    4602   4704.
10 uarizona       288508  168142 168483  176141.   36915   20377   20402  21612.
# … with 40 more rows, 12 more variables: TWLikes_Max <dbl>, TWLikes_Min <dbl>,
#   TWLikes_Median <dbl>, TWLikes_Mean <dbl>, TWRT_Max <dbl>, TWRT_Min <dbl>,
#   TWRT_Median <dbl>, TWRT_Mean <dbl>, TWReply_Max <dbl>, TWReply_Min <dbl>,
#   TWReply_Median <dbl>, TWReply_Mean <dbl>, and abbreviated variable names
#   ¹​Impressions_Max, ²​Impressions_Min, ³​Impressions_Median, ⁴​Impressions_Mean,
#   ⁵​Reach_Max, ⁶​Reach_Min, ⁷​Reach_Median, ⁸​Reach_Mean
…
The key metric that I’m most interested in is reach, as it is more of a reflection of how many people actually saw a post (as opposed to impressions, which shows the theoretical potential number of people who could have seen a post).

What I’d like to layer onto reach is the number of followers that each account has in order to examine the relationship between reach and number of followers.

The number of followers any Twitter account has can and does vary day-by-day. For simplicity’s sake, I am going to use the follower count for the day in November when they had the greatest number of followers to do my subsequent analysis.

#Number of followers for each college
followers_by_college <- TwitterUse2 %>%
group_by(Author) %>%
  summarize(
    Followers = max(TWFollowers, na.rm = TRUE))
followers_by_college

# A tibble: 50 × 2
   Author      Followers
   <chr>           <dbl>
 1 CUBoulder       90492
 2 IndianaUniv     87544
 3 LSU            363002
 4 Mizzou         138271
 5 OhioState      381557
 6 OleMiss        112905
 7 penn_state     227153
 8 RutgersU       142012
 9 uafairbanks      8989
10 uarizona       168691
# … with 40 more rows
…
Dissecting posts made by the Twitter authors

Characters per post

#count the number of characters in each Twitter post
TwitterUse2$TweetCharCount = str_length(TwitterUse2$Tweet)
TwitterUse2 %>%
  select(Author, TweetCharCount, Tweet)

# A tibble: 5,658 × 3
   Author      TweetCharCount Tweet                                             
   <chr>                <int> <chr>                                             
 1 UofAlabama             302 "Juggling, snakes and cooking - oh my! ICYMI: the…
 2 uhmanoa                218 "RT @ManoaGrad Summer and Fall 2022 candidates - …
 3 CUBoulder              255 "RT @CU_PTS We are thrilled to welcome two new el…
 4 UNC                    221 "RT @ChapelHillFD #CHtraffic Alert: Country Club …
 5 unevadareno            301 "Save the date! @unevadareno will hold the 2022 W…
 6 uhmanoa                289 "$3.4 million to grow Native Hawaiian physicians …
 7 uarizona               176 "University of Arizona researchers are teaming up…
 8 UArkansas              295 "RT @ArkansasPBS LIVESTREAMING: Join @HillaryClin…
 9 UArkansas               51 "@prehistormic Your No. 1 song of the year, we ho…
10 UUtah                  262 "RT @UofUIT If you haven’t already, check out @Ma…
# … with 5,648 more rows

#number of posts from November that were about athletics
DissectPosts <- TwitterUse2 %>%
  select(Author, TWFollowers, Tweet, EngType, TweetCharCount, Reach, TWLikes, TWRetweets, TWReply)
DissectPostsAthletics <- DissectPosts %>%
  filter(str_detect(Tweet, "FB|(?i)football|basketball|MBB|WBB|athletics|NCAA"))
  DissectPostsAthletics

# A tibble: 764 × 9
   Author        TWFollowers Tweet EngType Tweet…¹ Reach TWLikes TWRet…² TWReply
   <chr>               <dbl> <chr> <chr>     <int> <dbl>   <dbl>   <dbl>   <dbl>
 1 WestVirginiaU      197557 "RT … RETWEET     102 21844       0       0       0
 2 UUtah              126435 "RT … RETWEET     246 17988       0       0       0
 3 UMassAmherst        57996 "Wha… OG          255 13263       5       1       0
 4 Mizzou             137999 "RT … RETWEET     302 18695       0       0       0
 5 UNLincoln           50787 "RT … RETWEET     140 11842       0       0       0
 6 UUtah              126436 "RT … RETWEET     304 17988       0       0       0
 7 RutgersU           141602 "RT … RETWEET     140 18907       0       0       0
 8 uarizona           168142 "RT … RETWEET     275 20377       0       0       0
 9 WestVirginiaU      197557 "We’… OG          106 48002     239      41       9
10 UTAustin           239275 "RT … RETWEET     315 23706       0       0       0
# … with 754 more rows, and abbreviated variable names ¹​TweetCharCount,
#   ²​TWRetweets
…
