DACSS 601: Data Science Fundamentals - FALL 2022 - Challenge 1
…
FAOstat*.csv ⭐⭐

wild_bird_data.xlsx ⭐⭐⭐

StateCounty2012.xls ⭐⭐⭐⭐

Find the _data folder, located inside the posts folder. Then you can read in the data, using either one of the readr standard tidy read commands, or a specialized package such as readxl.

Code

bird <- read_csv('_data/birds.csv')
bird

# A tibble: 30,977 × 14
   Domain Cod…¹ Domain Area …² Area  Eleme…³ Element Item …⁴ Item  Year …⁵  Year
   <chr>        <chr>    <dbl> <chr>   <dbl> <chr>     <dbl> <chr>   <dbl> <dbl>
 1 QA           Live …       2 Afgh…    5112 Stocks     1057 Chic…    1961  1961
 2 QA           Live …       2 Afgh…    5112 Stocks     1057 Chic…    1962  1962
 3 QA           Live …       2 Afgh…    5112 Stocks     1057 Chic…    1963  1963
 4 QA           Live …       2 Afgh…    5112 Stocks     1057 Chic…    1964  1964
 5 QA           Live …       2 Afgh…    5112 Stocks     1057 Chic…    1965  1965
 6 QA           Live …       2 Afgh…    5112 Stocks     1057 Chic…    1966  1966
 7 QA           Live …       2 Afgh…    5112 Stocks     1057 Chic…    1967  1967
 8 QA           Live …       2 Afgh…    5112 Stocks     1057 Chic…    1968  1968
 9 QA           Live …       2 Afgh…    5112 Stocks     1057 Chic…    1969  1969
10 QA           Live …       2 Afgh…    5112 Stocks     1057 Chic…    1970  1970
# … with 30,967 more rows, 4 more variables: Unit <chr>, Value <dbl>,
#   Flag <chr>, `Flag Description` <chr>, and abbreviated variable names
#   ¹​`Domain Code`, ²​`Area Code`, ³​`Element Code`, ⁴​`Item Code`, ⁵​`Year Code`

Code

as_tibble(bird)

# A tibble: 30,977 × 14
   Domain Cod…¹ Domain Area …² Area  Eleme…³ Element Item …⁴ Item  Year …⁵  Year
   <chr>        <chr>    <dbl> <chr>   <dbl> <chr>     <dbl> <chr>   <dbl> <dbl>
 1 QA           Live …       2 Afgh…    5112 Stocks     1057 Chic…    1961  1961
 2 QA           Live …       2 Afgh…    5112 Stocks     1057 Chic…    1962  1962
 3 QA           Live …       2 Afgh…    5112 Stocks     1057 Chic…    1963  1963
 4 QA           Live …       2 Afgh…    5112 Stocks     1057 Chic…    1964  1964
 5 QA           Live …       2 Afgh…    5112 Stocks     1057 Chic…    1965  1965
 6 QA           Live …       2 Afgh…    5112 Stocks     1057 Chic…    1966  1966
 7 QA           Live …       2 Afgh…    5112 Stocks     1057 Chic…    1967  1967
 8 QA           Live …       2 Afgh…    5112 Stocks     1057 Chic…    1968  1968
 9 QA           Live …       2 Afgh…    5112 Stocks     1057 Chic…    1969  1969
10 QA           Live …       2 Afgh…    5112 Stocks     1057 Chic…    1970  1970
# … with 30,967 more rows, 4 more variables: Unit <chr>, Value <dbl>,
#   Flag <chr>, `Flag Description` <chr>, and abbreviated variable names
#   ¹​`Domain Code`, ²​`Area Code`, ³​`Element Code`, ⁴​`Item Code`, ⁵​`Year Code`
…
