DACSS 601: Data Science Fundamentals - FALL 2022 - Layoffs dataset
…
Code

df %>%
  group_by(location) %>%
  summarise(total_laid_off = n_distinct(company)) %>%
  arrange(location)

# A tibble: 99 × 2
   location       total_laid_off
   <fct>                   <int>
 1 Ahmedabad                   1
 2 Amsterdam                   1
 3 Ann Arbor                   1
 4 Atlanta                     3
 5 Austin                     10
 6 Bangkok                     1
 7 Beijing                     1
 8 Belo Horizonte              2
 9 Bend                        1
10 Bengaluru                  25
# … with 89 more rows
…
