DACSS 601: Data Science Fundamentals - FALL 2022 - Challenge 7 Instructions
…
To get the total sales, group the data by year and carton type-

group_by_y <- eggs %>%
  group_by(year, carton_type) %>%
  summarise(
    sum = sum(sales)
  )
group_by_y

# A tibble: 40 × 3
# Groups:   year [10]
    year carton_type              sum
   <dbl> <chr>                  <dbl>
 1  2004 extra_large_dozen      2848.
 2  2004 extra_large_half_dozen 1631.
 3  2004 large_dozen            2764.
 4  2004 large_half_dozen       1563.
 5  2005 extra_large_dozen      2892 
 6  2005 extra_large_half_dozen 1626 
 7  2005 large_dozen            2802 
 8  2005 large_half_dozen       1542 
 9  2006 extra_large_dozen      2897.
10  2006 extra_large_half_dozen 1626 
# … with 30 more rows
…
