DACSS 601: Data Science Fundamentals - FALL 2022 - Challenge 4
…
knitr::opts_chunk$set(echo = TRUE, warning=FALSE, message=FALSE)

Read in data

hotel_bookings.csv⭐⭐⭐⭐

Code

# Reading in the hotels booking data
hotels_booking <- read_csv("_data/hotel_bookings.csv", show_col_types = FALSE)

hotels_booking

# A tibble: 119,390 × 32
   hotel  is_ca…¹ lead_…² arriv…³ arriv…⁴ arriv…⁵ arriv…⁶ stays…⁷ stays…⁸ adults
   <chr>    <dbl>   <dbl>   <dbl> <chr>     <dbl>   <dbl>   <dbl>   <dbl>  <dbl>
 1 Resor…       0     342    2015 July         27       1       0       0      2
 2 Resor…       0     737    2015 July         27       1       0       0      2
 3 Resor…       0       7    2015 July         27       1       0       1      1
 4 Resor…       0      13    2015 July         27       1       0       1      1
 5 Resor…       0      14    2015 July         27       1       0       2      2
 6 Resor…       0      14    2015 July         27       1       0       2      2
 7 Resor…       0       0    2015 July         27       1       0       2      2
 8 Resor…       0       9    2015 July         27       1       0       2      2
 9 Resor…       1      85    2015 July         27       1       0       3      2
10 Resor…       1      75    2015 July         27       1       0       3      2
# … with 119,380 more rows, 22 more variables: children <dbl>, babies <dbl>,
#   meal <chr>, country <chr>, market_segment <chr>,
#   distribution_channel <chr>, is_repeated_guest <dbl>,
#   previous_cancellations <dbl>, previous_bookings_not_canceled <dbl>,
#   reserved_room_type <chr>, assigned_room_type <chr>, booking_changes <dbl>,
#   deposit_type <chr>, agent <chr>, company <chr>, days_in_waiting_list <dbl>,
#   customer_type <chr>, adr <dbl>, required_car_parking_spaces <dbl>, …
…
Code

#Mutating the arrival date into a single field and also mutate the adults, babies and children in order to get the total guests in the hotel.

hotels_booking_mutate <- hotels_booking %>% 
  mutate(arrival_date = str_c(arrival_date_day_of_month,
                              arrival_date_month,
                              arrival_date_year, sep="/"),
         arrival_date = dmy(arrival_date),
         total_guests = adults + children + babies) %>% 
  select(-c(arrival_date_day_of_month,arrival_date_month,arrival_date_year))

hotels_booking_mutate

# A tibble: 118,902 × 31
   hotel     is_ca…¹ lead_…² arriv…³ stays…⁴ stays…⁵ adults child…⁶ babies meal 
   <chr>       <dbl>   <dbl>   <dbl>   <dbl>   <dbl>  <dbl>   <dbl>  <dbl> <chr>
 1 Resort H…       0     342      27       0       0      2       0      0 BB   
 2 Resort H…       0     737      27       0       0      2       0      0 BB   
 3 Resort H…       0       7      27       0       1      1       0      0 BB   
 4 Resort H…       0      13      27       0       1      1       0      0 BB   
 5 Resort H…       0      14      27       0       2      2       0      0 BB   
 6 Resort H…       0      14      27       0       2      2       0      0 BB   
 7 Resort H…       0       0      27       0       2      2       0      0 BB   
 8 Resort H…       0       9      27       0       2      2       0      0 FB   
 9 Resort H…       1      85      27       0       3      2       0      0 BB   
10 Resort H…       1      75      27       0       3      2       0      0 HB   
# … with 118,892 more rows, 21 more variables: country <chr>,
#   market_segment <chr>, distribution_channel <chr>, is_repeated_guest <dbl>,
#   previous_cancellations <dbl>, previous_bookings_not_canceled <dbl>,
#   reserved_room_type <chr>, assigned_room_type <chr>, booking_changes <dbl>,
#   deposit_type <chr>, agent <chr>, company <chr>, days_in_waiting_list <dbl>,
#   customer_type <chr>, adr <dbl>, required_car_parking_spaces <dbl>,
#   total_of_special_requests <dbl>, reservation_status <chr>, …
…
summary(hotels_booking_mutate$arrival_date)

        Min.      1st Qu.       Median         Mean      3rd Qu.         Max. 
"2015-07-01" "2016-03-14" "2016-09-07" "2016-08-29" "2017-03-19" "2017-08-31" 

We can now observe that the arrival dates now lie between the July 2015 - August 2017. Also, the lead time will help us in understanding when the total hotel reservation has been started and we can also calculate the booking date by subtracting the lead time from the arrival date.

Code

hotels_booking_mutate <- hotels_booking_mutate %>%
  mutate(booking_date = arrival_date - lead_time)

hotels_booking_mutate

# A tibble: 118,902 × 32
   hotel     is_ca…¹ lead_…² arriv…³ stays…⁴ stays…⁵ adults child…⁶ babies meal 
   <chr>       <dbl>   <dbl>   <dbl>   <dbl>   <dbl>  <dbl>   <dbl>  <dbl> <chr>
 1 Resort H…       0     342      27       0       0      2       0      0 BB   
 2 Resort H…       0     737      27       0       0      2       0      0 BB   
 3 Resort H…       0       7      27       0       1      1       0      0 BB   
 4 Resort H…       0      13      27       0       1      1       0      0 BB   
 5 Resort H…       0      14      27       0       2      2       0      0 BB   
 6 Resort H…       0      14      27       0       2      2       0      0 BB   
 7 Resort H…       0       0      27       0       2      2       0      0 BB   
 8 Resort H…       0       9      27       0       2      2       0      0 FB   
 9 Resort H…       1      85      27       0       3      2       0      0 BB   
10 Resort H…       1      75      27       0       3      2       0      0 HB   
# … with 118,892 more rows, 22 more variables: country <chr>,
#   market_segment <chr>, distribution_channel <chr>, is_repeated_guest <dbl>,
#   previous_cancellations <dbl>, previous_bookings_not_canceled <dbl>,
#   reserved_room_type <chr>, assigned_room_type <chr>, booking_changes <dbl>,
#   deposit_type <chr>, agent <chr>, company <chr>, days_in_waiting_list <dbl>,
#   customer_type <chr>, adr <dbl>, required_car_parking_spaces <dbl>,
#   total_of_special_requests <dbl>, reservation_status <chr>, …
…
