DACSS 601: Data Science Fundamentals - FALL 2022 - Homework 3
…
#Observing all records for model year 2007 and newer
carprices<- carprices %>% 
  filter(`year`> 2006, sellingprice>100, condition>2.41)
  dim(carprices)

[1] 388155     16

Code

#Checking the consistency in the names of states and body types
  carprices %>% 
  select(state) %>% 
  distinct()

# A tibble: 38 × 1
   state
   <chr>
 1 ca   
 2 tx   
 3 pa   
 4 mn   
 5 az   
 6 tn   
 7 md   
 8 ne   
 9 oh   
10 fl   
# … with 28 more rows

Code

carprices$state <- toupper(carprices$state)

carprices %>% 
  select(body) %>% 
  distinct() %>%print()

# A tibble: 83 × 1
   body         
   <chr>        
 1 SUV          
 2 Sedan        
 3 Convertible  
 4 Wagon        
 5 Coupe        
 6 Crew Cab     
 7 G Coupe      
 8 G Sedan      
 9 Hatchback    
10 Elantra Coupe
# … with 73 more rows

Code

carprices$body <- toupper(carprices$body)

I notice that there are 76 distinct values for body. I’ll explore and condense them into fewer categories in a new column called “Body_type” below

Code

#Checking the consistency in the names of Body types}
carprices %>% 
select(body) %>% 
distinct()

# A tibble: 43 × 1
   body         
   <chr>        
 1 SUV          
 2 SEDAN        
 3 CONVERTIBLE  
 4 WAGON        
 5 COUPE        
 6 CREW CAB     
 7 G COUPE      
 8 G SEDAN      
 9 HATCHBACK    
10 ELANTRA COUPE
# … with 33 more rows
…
Warning in Body_Type == passenger: longer object length is not a multiple of
shorter object length

Code

print(best_value_segments)

# A tibble: 36 × 6
# Groups:   Segment, Age_years [36]
   Segment                  Age_years RV_percent Mileage Condition Sample_Size
   <chr>                        <dbl>      <dbl>   <dbl>     <dbl>       <int>
 1 Mid-Size SUV/Crossover           2       63.2  31575.      4.16        1658
 2 Subcompact SUV/Crossover         2       62.0  25790.      4.18         381
 3 Compact SUV/Crossover            2       61.2  31791.      4.18        1892
 4 Full-Size SUV/Crossover          2       61.1  35426.      4.13         415
 5 Subcompact Car                   2       59.9  27101.      3.97         992
 6 Compact Car                      2       57.9  28675.      3.94        3189
 7 Sports Car                       2       52.1  27601.      4.00         651
 8 Mid-Size Car                     2       50.5  29878.      3.99        4368
 9 Full-Size Car                    2       47.8  33692.      3.95         868
10 Mid-Size SUV/Crossover           3       54.1  40314.      4.00         919
# … with 26 more rows
…
  #Filtering a sample size 20 or more
  filter(n>19) %>%
arrange((Age_years))

Warning in Body_Type == passenger: longer object length is not a multiple of
shorter object length

Code

     print(best_value_models)

# A tibble: 366 × 7
# Groups:   make, model, Age_years [366]
   make   model        Age_years RV_percent mileage condition     n
   <chr>  <chr>            <dbl>      <dbl>   <dbl>     <dbl> <int>
 1 Jeep   Wrangler             2       86.0  22507.      4.55   119
 2 Toyota 4Runner              2       85.6  26949.      4.47    30
 3 Subaru XV Crosstrek         2       83.0  15515       4.68    21
 4 Jeep   Cherokee             2       77.5  18633.      4.29    43
 5 Toyota RAV4                 2       72.9  27580.      4.19    72
 6 Toyota Highlander           2       72.0  28409.      4.10    33
 7 Nissan Versa Note           2       71.9  17331.      4.16    54
 8 Subaru Impreza              2       71.4  16454.      4.22    23
 9 BMW    X3                   2       69.9  20962.      4.20    22
10 Subaru Outback              2       69.3  28139.      4.29    69
# … with 356 more rows
…
Best mainstream cars to buy post-2015?

Code

carprices %>% 
  filter(make== mainstream, Age_years == 2, `%MSRP_Range` <50, Body_Type== passenger) %>% 
  group_by(model) %>% 
  arrange(desc(RV_percent)) %>% 
  slice(1:10)

# A tibble: 198 × 23
# Groups:   model [25]
    year make    model  trim   trans…¹ Body_…² state condi…³ odome…⁴ color   mmr
   <dbl> <chr>   <chr>  <chr>  <chr>   <chr>   <chr>   <dbl>   <dbl> <chr> <dbl>
 1  2014 Hyundai Accent GS     automa… Hatchb… TN        4.6    6566 blue  11300
 2  2013 Hyundai Accent GS     automa… Hatchb… FL        4.8   14730 silv…  9875
 3  2013 Hyundai Accent GS     automa… Hatchb… FL        2.7   21101 black  9350
 4  2014 Hyundai Accent GS     <NA>    Hatchb… ON        2.8   40860 black 11100
 5  2014 Nissan  Altima 2.5 S  automa… Sedan   WA        4.1    2371 white 17050
 6  2014 Nissan  Altima 2.5 S  automa… Sedan   TN        4.1   22847 —     15600
 7  2014 Nissan  Altima 2.5 S  automa… Sedan   TN        4.7   27050 black 15250
 8  2013 Nissan  Altima 3.5 SL automa… Sedan   GA        3.7   19959 blue  16800
 9  2013 Nissan  Altima 3.5 SL automa… Sedan   MO        4.7   18735 white 19200
10  2014 Nissan  Altima 2.5 S  <NA>    Sedan   CA        2.9    2030 white 17250
# … with 188 more rows, 12 more variables: sellingprice <dbl>, sale_year <chr>,
#   launch_date <date>, Date_Sold <date>, AVG_MSRP <dbl>, Trim_Count <int>,
#   `Error %` <dbl>, `%MSRP_Range` <dbl>, Segment <chr>, Age_months <dbl>,
#   Age_years <dbl>, RV_percent <dbl>, and abbreviated variable names
#   ¹​transmission, ²​Body_Type, ³​condition, ⁴​odometer
…
