DACSS 601: Data Science Fundamentals - FALL 2022 - Sarah McAlpine - Challenge 6
…
As expected, the rentals with missing names tend to have availability of 0 or nearly 365, and many have no reviews. I want to know if the ones that have reviews tend to be some of the oldest reviews. (I will test that theory once I graph the reviews on a timeline.) One has a minimum stay of 1000 nights (but I still haven’t found the one requiring 1250 nights!). All of them have prices within a realistic range, generally speaking, so I would guess these were discontinued listings.

In order for this data to be tidy, it needs to represent one case per row with variables that are all independent from one another. Location information seems to be the most duplicative, so I will tidy that now. I will elect to keep the more specific neighborhood names with the borough in parentheses afterward, which will require a unite function. I am not sure if longitude and latitude are redundant locations, but I will keep them in case I want to map these later.

Code

airbnb <- airbnb_orig %>% 
  #combine neighbourhood and neighbourhood group
  unite("location",neighbourhood_group:neighbourhood)

airbnb

# A tibble: 48,895 × 15
      id name      host_id host_…¹ locat…² latit…³ longi…⁴ room_…⁵ price minim…⁶
   <dbl> <chr>       <dbl> <chr>   <chr>     <dbl>   <dbl> <chr>   <dbl>   <dbl>
 1  2539 Clean & …    2787 John    Brookl…    40.6   -74.0 Privat…   149       1
 2  2595 Skylit M…    2845 Jennif… Manhat…    40.8   -74.0 Entire…   225       1
 3  3647 THE VILL…    4632 Elisab… Manhat…    40.8   -73.9 Privat…   150       3
 4  3831 Cozy Ent…    4869 LisaRo… Brookl…    40.7   -74.0 Entire…    89       1
 5  5022 Entire A…    7192 Laura   Manhat…    40.8   -73.9 Entire…    80      10
 6  5099 Large Co…    7322 Chris   Manhat…    40.7   -74.0 Entire…   200       3
 7  5121 BlissArt…    7356 Garon   Brookl…    40.7   -74.0 Privat…    60      45
 8  5178 Large Fu…    8967 Shunic… Manhat…    40.8   -74.0 Privat…    79       2
 9  5203 Cozy Cle…    7490 MaryEl… Manhat…    40.8   -74.0 Privat…    79       2
10  5238 Cute & C…    7549 Ben     Manhat…    40.7   -74.0 Entire…   150       1
# … with 48,885 more rows, 5 more variables: number_of_reviews <dbl>,
#   last_review <date>, reviews_per_month <dbl>,
#   calculated_host_listings_count <dbl>, availability_365 <dbl>, and
#   abbreviated variable names ¹​host_name, ²​location, ³​latitude, ⁴​longitude,
#   ⁵​room_type, ⁶​minimum_nights
…
Code

  reviews_by_borough

# A tibble: 24,811 × 16
# Groups:   neighbourhood_group [5]
      id name      host_id host_…¹ neigh…² neigh…³ latit…⁴ longi…⁵ room_…⁶ price
   <dbl> <chr>       <dbl> <chr>   <chr>   <chr>     <dbl>   <dbl> <chr>   <dbl>
 1  2595 Skylit M…    2845 Jennif… Manhat… Midtown    40.8   -74.0 Entire…   225
 2  3831 Cozy Ent…    4869 LisaRo… Brookl… Clinto…    40.7   -74.0 Entire…    89
 3  5099 Large Co…    7322 Chris   Manhat… Murray…    40.7   -74.0 Entire…   200
 4  5178 Large Fu…    8967 Shunic… Manhat… Hell's…    40.8   -74.0 Privat…    79
 5  5238 Cute & C…    7549 Ben     Manhat… Chinat…    40.7   -74.0 Entire…   150
 6  5295 Beautifu…    7702 Lena    Manhat… Upper …    40.8   -74.0 Entire…   135
 7  5441 Central …    7989 Kate    Manhat… Hell's…    40.8   -74.0 Privat…    85
 8  5803 Lovely R…    9744 Laurie  Brookl… South …    40.7   -74.0 Privat…    89
 9  6021 Wonderfu…   11528 Claudio Manhat… Upper …    40.8   -74.0 Privat…    85
10  6848 Only 2 s…   15991 Allen … Brookl… Willia…    40.7   -74.0 Entire…   140
# … with 24,801 more rows, 6 more variables: minimum_nights <dbl>,
#   number_of_reviews <dbl>, last_review <date>, reviews_per_month <dbl>,
#   calculated_host_listings_count <dbl>, availability_365 <dbl>, and
#   abbreviated variable names ¹​host_name, ²​neighbourhood_group,
#   ³​neighbourhood, ⁴​latitude, ⁵​longitude, ⁶​room_type
…
Visualizing Part-Whole Relationships

I want to learn more about how neighborhoods make up the NYC boroughs, as they are listed in this data set. I selected treemap because I want to show subgroups within groups, and also to see how each neighborhood and borough are represented in the data by count of listing. This graph will allow me to easily see how much area each covers.

Code

#prep the data frame
boroughs <- airbnb_orig %>%
  # select just the variables I want
  select(neighbourhood, neighbourhood_group) %>%
  count(neighbourhood, neighbourhood_group)
boroughs

# A tibble: 221 × 3
   neighbourhood              neighbourhood_group     n
   <chr>                      <chr>               <int>
 1 Allerton                   Bronx                  42
 2 Arden Heights              Staten Island           4
 3 Arrochar                   Staten Island          21
 4 Arverne                    Queens                 77
 5 Astoria                    Queens                900
 6 Bath Beach                 Brooklyn               17
 7 Battery Park City          Manhattan              70
 8 Bay Ridge                  Brooklyn              141
 9 Bay Terrace                Queens                  6
10 Bay Terrace, Staten Island Staten Island           2
# … with 211 more rows
…
#prep the data frame
boroughs_price <- airbnb_orig %>%
  select(neighbourhood, neighbourhood_group, price) %>%
  group_by(neighbourhood, neighbourhood_group) %>%
  summarize(median(price))

`summarise()` has grouped output by 'neighbourhood'. You can override using the
`.groups` argument.

Code

boroughs_price

# A tibble: 221 × 3
# Groups:   neighbourhood [221]
   neighbourhood              neighbourhood_group `median(price)`
   <chr>                      <chr>                         <dbl>
 1 Allerton                   Bronx                          66.5
 2 Arden Heights              Staten Island                  72.5
 3 Arrochar                   Staten Island                  65  
 4 Arverne                    Queens                        125  
 5 Astoria                    Queens                         85  
 6 Bath Beach                 Brooklyn                       69  
 7 Battery Park City          Manhattan                     195  
 8 Bay Ridge                  Brooklyn                       85  
 9 Bay Terrace                Queens                        142. 
10 Bay Terrace, Staten Island Staten Island                 102. 
# … with 211 more rows
…
