DACSS 601: Data Science Fundamentals - FALL 2022 - Challenge 2
…
Code

#| label: Items info

Area consists of 248 entries. Notably, the entries with values less than 5000 represent countries of the world. The numeric codes correspond with the the alphabetical order of the country names. The remaining codes greater than 5000, correspond to regions of the world rather than a specific country. In these cases, regions with numbers closer in value seem to have closer geographic proximity. It should be noted that there is a value for Europe as well as a value for Eastern Europe and Western Europe, so there are regions that are represented in multiple cases of these entries.

Code

  Areas <-select(Birds, "Area Code", Area)
  Num_Areas <-unique(Areas)
  Num_Areas

# A tibble: 248 × 2
   `Area Code` Area               
         <dbl> <chr>              
 1           2 Afghanistan        
 2           3 Albania            
 3           4 Algeria            
 4           5 American Samoa     
 5           7 Angola             
 6           8 Antigua and Barbuda
 7           9 Argentina          
 8           1 Armenia            
 9          22 Aruba              
10          10 Australia          
# … with 238 more rows

Code

  arrange(Num_Areas, `Area Code`)

# A tibble: 248 × 2
   `Area Code` Area               
         <dbl> <chr>              
 1           1 Armenia            
 2           2 Afghanistan        
 3           3 Albania            
 4           4 Algeria            
 5           5 American Samoa     
 6           7 Angola             
 7           8 Antigua and Barbuda
 8           9 Argentina          
 9          10 Australia          
10          11 Austria            
# … with 238 more rows

Code

  arrange(Num_Areas, desc(`Area Code`))

# A tibble: 248 × 2
   `Area Code` Area                     
         <dbl> <chr>                    
 1        5504 Polynesia                
 2        5503 Micronesia               
 3        5502 Melanesia                
 4        5501 Australia and New Zealand
 5        5500 Oceania                  
 6        5404 Western Europe           
 7        5403 Southern Europe          
 8        5402 Northern Europe          
 9        5401 Eastern Europe           
10        5400 Europe                   
# … with 238 more rows

Code

  World_Region <- filter(Num_Areas, `Area Code` >= 5000)
  arrange(World_Region, `Area Code`)

# A tibble: 28 × 2
   `Area Code` Area            
         <dbl> <chr>           
 1        5000 World           
 2        5100 Africa          
 3        5101 Eastern Africa  
 4        5102 Middle Africa   
 5        5103 Northern Africa 
 6        5104 Southern Africa 
 7        5105 Western Africa  
 8        5200 Americas        
 9        5203 Northern America
10        5204 Central America 
# … with 18 more rows
…
     Unit               Value         
 Length:30977       Min.   :       0  
 Class :character   1st Qu.:     171  
 Mode  :character   Median :    1800  
                    Mean   :   99411  
                    3rd Qu.:   15404  
                    Max.   :23707134  
                    NA's   :1036      

Code

  Birds_Values

# A tibble: 30,977 × 2
   Unit      Value
   <chr>     <dbl>
 1 1000 Head  4700
 2 1000 Head  4900
 3 1000 Head  5000
 4 1000 Head  5300
 5 1000 Head  5500
 6 1000 Head  5800
 7 1000 Head  6600
 8 1000 Head  6290
 9 1000 Head  6300
10 1000 Head  6000
# … with 30,967 more rows
…
Code

World_Data <- select(World_Data, Item, Year, Value )

World_Data_by_Item <-select(World_Data, Item, Value)
World_Data_by_Item <- pivot_wider(World_Data, names_from = `Item`, values_from = `Value`)
World_Data_by_Item

# A tibble: 58 × 6
    Year Chickens  Ducks `Geese and guinea fowls` `Pigeons, other birds` Turkeys
   <dbl>    <dbl>  <dbl>                    <dbl>                  <dbl>   <dbl>
 1  1961  3906690 193452                    36640                  14055  204241
 2  1962  4048728 201167                    37737                  16026  174077
 3  1963  4163131 210275                    38489                  17018  161262
 4  1964  4231221 216183                    40928                  17963  153758
 5  1965  4349674 222799                    43523                  18869  154790
 6  1966  4445629 229837                    44491                  19676  166655
 7  1967  4666511 237028                    48028                  19860  174158
 8  1968  4823170 245201                    50302                  12068  155205
 9  1969  4988438 249936                    52459                  12656  157950
10  1970  5209733 256318                    54578                  13219  178971
# … with 48 more rows
…
The world Turkey population seems to have steadily increased from 1961-1990. From 1990-2018 the population of Turkey is consistently larger than the previous 30 years but has not grown incrementally grown year to year.

The world chicken population seems to have consistently increased year to year from 1961-2018.

The world duck population seems to have consistently increased year-to-year until 2004.

The world geese and guinea fowl population seems to have consistently increased year-to-year until 1993.

The world pigeon and other bird population has much more variation in the year to year population changes. This suggests that trends in global production, domestication, and consumption/use of chickens, ducks, turkeys, and geese over the last 60 years is much different than that of pigeons and other birds.

Code

arrange(World_Data_by_Item, `Year`)

# A tibble: 58 × 6
    Year Chickens  Ducks `Geese and guinea fowls` `Pigeons, other birds` Turkeys
   <dbl>    <dbl>  <dbl>                    <dbl>                  <dbl>   <dbl>
 1  1961  3906690 193452                    36640                  14055  204241
 2  1962  4048728 201167                    37737                  16026  174077
 3  1963  4163131 210275                    38489                  17018  161262
 4  1964  4231221 216183                    40928                  17963  153758
 5  1965  4349674 222799                    43523                  18869  154790
 6  1966  4445629 229837                    44491                  19676  166655
 7  1967  4666511 237028                    48028                  19860  174158
 8  1968  4823170 245201                    50302                  12068  155205
 9  1969  4988438 249936                    52459                  12656  157950
10  1970  5209733 256318                    54578                  13219  178971
# … with 48 more rows
…
