DACSS 601: Data Science Fundamentals - FALL 2022 - Challenge 8 Solutions
…
snl ⭐⭐⭐⭐⭐

For this challenge I will be working with the SNL data set.

# Reading the SNL csv files

snl_actors <- read_csv("_data/snl_actors.csv")
snl_casts <- read_csv("_data/snl_casts.csv")
snl_seasons <- read_csv("_data/snl_seasons.csv")

# Displaying snl_actors dataset
snl_actors

# A tibble: 2,306 × 4
   aid            url           type  gender 
   <chr>          <chr>         <chr> <chr>  
 1 Kate McKinnon  /Cast/?KaMc   cast  female 
 2 Alex Moffat    /Cast/?AlMo   cast  male   
 3 Ego Nwodim     /Cast/?EgNw   cast  unknown
 4 Chris Redd     /Cast/?ChRe   cast  male   
 5 Kenan Thompson /Cast/?KeTh   cast  male   
 6 Carey Mulligan /Guests/?3677 guest andy   
 7 Marcus Mumford /Guests/?3679 guest male   
 8 Aidy Bryant    /Cast/?AiBr   cast  female 
 9 Steve Higgins  /Crew/?StHi   crew  male   
10 Mikey Day      /Cast/?MiDa   cast  male   
# … with 2,296 more rows

# Displaying snl_casts dataset
snl_casts

# A tibble: 614 × 8
   aid                sid featured first_epid last_epid update…¹ n_epi…² seaso…³
   <chr>            <dbl> <lgl>         <dbl>     <dbl> <lgl>      <dbl>   <dbl>
 1 A. Whitney Brown    11 TRUE       19860222        NA FALSE          8   0.444
 2 A. Whitney Brown    12 TRUE             NA        NA FALSE         20   1    
 3 A. Whitney Brown    13 TRUE             NA        NA FALSE         13   1    
 4 A. Whitney Brown    14 TRUE             NA        NA FALSE         20   1    
 5 A. Whitney Brown    15 TRUE             NA        NA FALSE         20   1    
 6 A. Whitney Brown    16 TRUE             NA        NA FALSE         20   1    
 7 Alan Zweibel         5 TRUE       19800409        NA FALSE          5   0.25 
 8 Sasheer Zamata      39 TRUE       20140118        NA FALSE         11   0.524
 9 Sasheer Zamata      40 TRUE             NA        NA FALSE         21   1    
10 Sasheer Zamata      41 FALSE            NA        NA FALSE         21   1    
# … with 604 more rows, and abbreviated variable names ¹​update_anchor,
#   ²​n_episodes, ³​season_fraction

# Displaying snl_seasons dataset
snl_seasons

# A tibble: 46 × 5
     sid  year first_epid last_epid n_episodes
   <dbl> <dbl>      <dbl>     <dbl>      <dbl>
 1     1  1975   19751011  19760731         24
 2     2  1976   19760918  19770521         22
 3     3  1977   19770924  19780520         20
 4     4  1978   19781007  19790526         20
 5     5  1979   19791013  19800524         20
 6     6  1980   19801115  19810411         13
 7     7  1981   19811003  19820522         20
 8     8  1982   19820925  19830514         20
 9     9  1983   19831008  19840512         19
10    10  1984   19841006  19850413         17
# … with 36 more rows
…
[1] "NA values in aid: 0"
[1] "NA values in url: 57"
[1] "NA values in type: 0"
[1] "NA values in gender: 0"

We observe that out of the 57 observations which have missing “url” value, 56 of them have “unknown” value for ‘type’ attribute. This may be the reason for missing “url” value.

# Displaying the 57 actors with missing "url" value.
filter(snl_actors,is.na(snl_actors$url))

# A tibble: 57 × 4
   aid               url   type    gender
   <chr>             <chr> <chr>   <chr> 
 1 Don Roy King      <NA>  unknown male  
 2 Liam Payne        <NA>  unknown male  
 3 Louis Tomlinson   <NA>  unknown male  
 4 Zayn Malik        <NA>  unknown male  
 5 Caleb Followill   <NA>  unknown male  
 6 Jared Followill   <NA>  unknown male  
 7 Matthew Followill <NA>  unknown male  
 8 Nathan Followill  <NA>  unknown male  
 9 Regine Chassagne  <NA>  unknown female
10 William Butler    <NA>  unknown male  
# … with 47 more rows

The “url” contains information in the form of type of actor enclosed in ‘/’ and ‘/?’ followed by a identifier for each actor. Since, we have a unique identifier “aid” and there are no duplicates in the dataset, the attribute “url” seems unnecessary and I am dropping it. We are now left with 2306 observations and 3 attributes for snl_actors.

# Dropping the attribute "url" from the snl_actors
snl_actors <- snl_actors%>%
  subset(select = -c(2))
snl_actors

# A tibble: 2,306 × 3
   aid            type  gender 
   <chr>          <chr> <chr>  
 1 Kate McKinnon  cast  female 
 2 Alex Moffat    cast  male   
 3 Ego Nwodim     cast  unknown
 4 Chris Redd     cast  male   
 5 Kenan Thompson cast  male   
 6 Carey Mulligan guest andy   
 7 Marcus Mumford guest male   
 8 Aidy Bryant    cast  female 
 9 Steve Higgins  crew  male   
10 Mikey Day      cast  male   
# … with 2,296 more rows

The “type” attribute has 56 “unknown” values. We are retaining these observations for now as we have less data.

table(snl_actors$type)

   cast    crew   guest unknown 
    154     170    1926      56 

# Displaying the 56 actors with type as "unknown".
filter(snl_actors,snl_actors$type=="unknown")

# A tibble: 56 × 3
   aid               type    gender
   <chr>             <chr>   <chr> 
 1 Don Roy King      unknown male  
 2 Liam Payne        unknown male  
 3 Louis Tomlinson   unknown male  
 4 Zayn Malik        unknown male  
 5 Caleb Followill   unknown male  
 6 Jared Followill   unknown male  
 7 Matthew Followill unknown male  
 8 Nathan Followill  unknown male  
 9 Regine Chassagne  unknown female
10 William Butler    unknown male  
# … with 46 more rows

The “gender” attribute has 388 “unknown” values. 21 actors have been assigned the gender as “andy” which seems to be a mistake. I changed the value from “andy” to “unknown” for these 21 actors.

table(snl_actors$gender)

   andy  female    male unknown 
     21     671    1226     388 

# Changing the gender from "andy" to "unknown" for the 21 observations
snl_actors <- snl_actors%>%
  mutate(gender = replace(gender, gender == "andy", "unknown"))
snl_actors

# A tibble: 2,306 × 3
   aid            type  gender 
   <chr>          <chr> <chr>  
 1 Kate McKinnon  cast  female 
 2 Alex Moffat    cast  male   
 3 Ego Nwodim     cast  unknown
 4 Chris Redd     cast  male   
 5 Kenan Thompson cast  male   
 6 Carey Mulligan guest unknown
 7 Marcus Mumford guest male   
 8 Aidy Bryant    cast  female 
 9 Steve Higgins  crew  male   
10 Mikey Day      cast  male   
# … with 2,296 more rows
…
Since the attributes “first_epid” and “last_epid” have more than 90% of the values missing and it is difficult to impute the missing values, I decided to drop them from the dataset.

# Dropping the attributes "first_epid" and "last_epid" from the snl_casts
snl_casts <- snl_casts%>%
  subset(select = -c(4,5))
snl_casts

# A tibble: 614 × 6
   aid                sid featured update_anchor n_episodes season_fraction
   <chr>            <dbl> <lgl>    <lgl>              <dbl>           <dbl>
 1 A. Whitney Brown    11 TRUE     FALSE                  8           0.444
 2 A. Whitney Brown    12 TRUE     FALSE                 20           1    
 3 A. Whitney Brown    13 TRUE     FALSE                 13           1    
 4 A. Whitney Brown    14 TRUE     FALSE                 20           1    
 5 A. Whitney Brown    15 TRUE     FALSE                 20           1    
 6 A. Whitney Brown    16 TRUE     FALSE                 20           1    
 7 Alan Zweibel         5 TRUE     FALSE                  5           0.25 
 8 Sasheer Zamata      39 TRUE     FALSE                 11           0.524
 9 Sasheer Zamata      40 TRUE     FALSE                 21           1    
10 Sasheer Zamata      41 FALSE    FALSE                 21           1    
# … with 604 more rows
…
[1] 0

sum(is.null(snl_seasons))

[1] 0

I converted the “first_epid” and “last_epid” attributes to ymd date format which will be useful while creating visualizations.

# Converting "first_epid" and "last_epid" attributes to ymd date format
library(lubridate)
snl_seasons$first_epid <- ymd(snl_seasons$first_epid)
snl_seasons$last_epid <- ymd(snl_seasons$last_epid)
snl_seasons

# A tibble: 46 × 5
     sid  year first_epid last_epid  n_episodes
   <dbl> <dbl> <date>     <date>          <dbl>
 1     1  1975 1975-10-11 1976-07-31         24
 2     2  1976 1976-09-18 1977-05-21         22
 3     3  1977 1977-09-24 1978-05-20         20
 4     4  1978 1978-10-07 1979-05-26         20
 5     5  1979 1979-10-13 1980-05-24         20
 6     6  1980 1980-11-15 1981-04-11         13
 7     7  1981 1981-10-03 1982-05-22         20
 8     8  1982 1982-09-25 1983-05-14         20
 9     9  1983 1983-10-08 1984-05-12         19
10    10  1984 1984-10-06 1985-04-13         17
# … with 36 more rows
…
