DACSS 601: Data Science Fundamentals - FALL 2022 - Challenge 6 Solutions
…
usa_hh ⭐⭐⭐

hotel_bookings ⭐⭐⭐⭐

AB_NYC ⭐⭐⭐⭐⭐

For this challenge I will be working with the “hotel_bookings” dataset. It is a publicly available data set containing booking transactions from a city hotel and a resort hotel in Portugal.

I used the “hotel_bookings” dataset previously for the Challenge 2 and Challenge 4 and I will be using the same content for the section 1: read in a data set, and describe the data set using both words and any supporting information (e.g., tables, etc), section 2: tidy data (as needed, including sanity checks), and section 3: mutate variables as needed (including sanity checks).

# Reading the hotel_bookings.csv data set and storing in a data frame
hotel_data <- read_csv("_data/hotel_bookings.csv")
print(hotel_data)

# A tibble: 119,390 × 32
   hotel  is_ca…¹ lead_…² arriv…³ arriv…⁴ arriv…⁵ arriv…⁶ stays…⁷ stays…⁸ adults
   <chr>    <dbl>   <dbl>   <dbl> <chr>     <dbl>   <dbl>   <dbl>   <dbl>  <dbl>
 1 Resor…       0     342    2015 July         27       1       0       0      2
 2 Resor…       0     737    2015 July         27       1       0       0      2
 3 Resor…       0       7    2015 July         27       1       0       1      1
 4 Resor…       0      13    2015 July         27       1       0       1      1
 5 Resor…       0      14    2015 July         27       1       0       2      2
 6 Resor…       0      14    2015 July         27       1       0       2      2
 7 Resor…       0       0    2015 July         27       1       0       2      2
 8 Resor…       0       9    2015 July         27       1       0       2      2
 9 Resor…       1      85    2015 July         27       1       0       3      2
10 Resor…       1      75    2015 July         27       1       0       3      2
# … with 119,380 more rows, 22 more variables: children <dbl>, babies <dbl>,
#   meal <chr>, country <chr>, market_segment <chr>,
#   distribution_channel <chr>, is_repeated_guest <dbl>,
#   previous_cancellations <dbl>, previous_bookings_not_canceled <dbl>,
#   reserved_room_type <chr>, assigned_room_type <chr>, booking_changes <dbl>,
#   deposit_type <chr>, agent <chr>, company <chr>, days_in_waiting_list <dbl>,
#   customer_type <chr>, adr <dbl>, required_car_parking_spaces <dbl>, …
…
      0
(0.0%)

Generated by summarytools 1.0.1 (R version 4.2.1)
2022-12-21

#Check for the period of hotel booking dates
hotel_data%>%
  select(hotel, arrival_date_year, arrival_date_month)%>%distinct()

# A tibble: 52 × 3
   hotel        arrival_date_year arrival_date_month
   <chr>                    <dbl> <chr>             
 1 Resort Hotel              2015 July              
 2 Resort Hotel              2015 August            
 3 Resort Hotel              2015 September         
 4 Resort Hotel              2015 October           
 5 Resort Hotel              2015 November          
 6 Resort Hotel              2015 December          
 7 Resort Hotel              2016 January           
 8 Resort Hotel              2016 February          
 9 Resort Hotel              2016 March             
10 Resort Hotel              2016 April             
# … with 42 more rows
…
The datatype is character for both the columns “agent” and “company” due to which the numbers are not sorted/arranged as expected. From the table() we notice that both the columns have all numerical values except for the “NULL” value which is used for the bookings which did not use an agent or a company for booking. If we change these “NULL” string values to a numerical value like -1 (as no negative values are being used in these columns), then we can change the column type to numeric.

As the first step of tidying the data, I dropped the rows with NA values in “children” column (4 rows to be exact).

# Dropping the rows with NA values in "children" column
hotel_data <- hotel_data%>%
  subset(!is.na(children))
hotel_data

# A tibble: 119,386 × 32
   hotel  is_ca…¹ lead_…² arriv…³ arriv…⁴ arriv…⁵ arriv…⁶ stays…⁷ stays…⁸ adults
   <chr>    <dbl>   <dbl>   <dbl> <chr>     <dbl>   <dbl>   <dbl>   <dbl>  <dbl>
 1 Resor…       0     342    2015 July         27       1       0       0      2
 2 Resor…       0     737    2015 July         27       1       0       0      2
 3 Resor…       0       7    2015 July         27       1       0       1      1
 4 Resor…       0      13    2015 July         27       1       0       1      1
 5 Resor…       0      14    2015 July         27       1       0       2      2
 6 Resor…       0      14    2015 July         27       1       0       2      2
 7 Resor…       0       0    2015 July         27       1       0       2      2
 8 Resor…       0       9    2015 July         27       1       0       2      2
 9 Resor…       1      85    2015 July         27       1       0       3      2
10 Resor…       1      75    2015 July         27       1       0       3      2
# … with 119,376 more rows, 22 more variables: children <dbl>, babies <dbl>,
#   meal <chr>, country <chr>, market_segment <chr>,
#   distribution_channel <chr>, is_repeated_guest <dbl>,
#   previous_cancellations <dbl>, previous_bookings_not_canceled <dbl>,
#   reserved_room_type <chr>, assigned_room_type <chr>, booking_changes <dbl>,
#   deposit_type <chr>, agent <chr>, company <chr>, days_in_waiting_list <dbl>,
#   customer_type <chr>, adr <dbl>, required_car_parking_spaces <dbl>, …
…
Mutate Variables (as needed)

Are there any variables that require mutation to be usable in your analysis stream? For example, do you need to calculate new values in order to graph them? Can string values be represented numerically? Do you need to turn any variables into factors and reorder for ease of graphics and visualization?

Document your work here.

Knowing the demand i.e total guests staying in the booked hotel during a time frame would help in visualizing trends in the form of line plots. These trends would be helpful for tourists to identify the best time to visit Portugal and book the rooms earlier for a lesser price or for hotel management/travel agents to inflate the prices of the rooms according to the demand. We can calculate demand as the sum of adults, children and babies.

# Calculate demand as the sum of adults, children and babies
hotel_data <- hotel_data%>%
  mutate(demand = adults+children+babies)
hotel_data

# A tibble: 119,386 × 33
   hotel  is_ca…¹ lead_…² arriv…³ arriv…⁴ arriv…⁵ arriv…⁶ stays…⁷ stays…⁸ adults
   <chr>    <dbl>   <dbl>   <dbl> <chr>     <dbl>   <dbl>   <dbl>   <dbl>  <dbl>
 1 Resor…       0     342    2015 July         27       1       0       0      2
 2 Resor…       0     737    2015 July         27       1       0       0      2
 3 Resor…       0       7    2015 July         27       1       0       1      1
 4 Resor…       0      13    2015 July         27       1       0       1      1
 5 Resor…       0      14    2015 July         27       1       0       2      2
 6 Resor…       0      14    2015 July         27       1       0       2      2
 7 Resor…       0       0    2015 July         27       1       0       2      2
 8 Resor…       0       9    2015 July         27       1       0       2      2
 9 Resor…       1      85    2015 July         27       1       0       3      2
10 Resor…       1      75    2015 July         27       1       0       3      2
# … with 119,376 more rows, 23 more variables: children <dbl>, babies <dbl>,
#   meal <chr>, country <chr>, market_segment <chr>,
#   distribution_channel <chr>, is_repeated_guest <dbl>,
#   previous_cancellations <dbl>, previous_bookings_not_canceled <dbl>,
#   reserved_room_type <chr>, assigned_room_type <chr>, booking_changes <dbl>,
#   deposit_type <chr>, agent <dbl>, company <dbl>, days_in_waiting_list <dbl>,
#   customer_type <chr>, adr <dbl>, required_car_parking_spaces <dbl>, …
…
max(hotel_data$arrival_date)

[1] "2017-08-31"

From the mutated variable “arrival_date” we can easily understand that the “hotel_bookings” dataset has data for the arrival period of “2015-07-01” to “2017-08-31”.

Currently, the data contains information about the “lead_time” (Number of days that elapsed between the date of hotel booking and the arrival date) and the “arrival_date” at the hotel. It would be useful to create visualizations between the “arrival_date”, “booking_date” and “adr” for insights. For this purpose, it would be suitable if the “booking_date” was calculated from “arrival_date” and the “lead_time”. This will help customers to understand the right time to book hotels and the demand.

# Calculating "booking_date" variable from "arrival_date" and "lead_time"
hotel_data <- hotel_data%>%
  mutate(booking_date = arrival_date - lead_time)
hotel_data

# A tibble: 119,386 × 31
   hotel     is_ca…¹ lead_…² stays…³ stays…⁴ adults child…⁵ babies meal  country
   <chr>       <dbl>   <dbl>   <dbl>   <dbl>  <dbl>   <dbl>  <dbl> <chr> <chr>  
 1 Resort H…       0     342       0       0      2       0      0 BB    PRT    
 2 Resort H…       0     737       0       0      2       0      0 BB    PRT    
 3 Resort H…       0       7       0       1      1       0      0 BB    GBR    
 4 Resort H…       0      13       0       1      1       0      0 BB    GBR    
 5 Resort H…       0      14       0       2      2       0      0 BB    GBR    
 6 Resort H…       0      14       0       2      2       0      0 BB    GBR    
 7 Resort H…       0       0       0       2      2       0      0 BB    PRT    
 8 Resort H…       0       9       0       2      2       0      0 FB    PRT    
 9 Resort H…       1      85       0       3      2       0      0 BB    PRT    
10 Resort H…       1      75       0       3      2       0      0 HB    PRT    
# … with 119,376 more rows, 21 more variables: market_segment <chr>,
#   distribution_channel <chr>, is_repeated_guest <dbl>,
#   previous_cancellations <dbl>, previous_bookings_not_canceled <dbl>,
#   reserved_room_type <chr>, assigned_room_type <chr>, booking_changes <dbl>,
#   deposit_type <chr>, agent <dbl>, company <dbl>, days_in_waiting_list <dbl>,
#   customer_type <chr>, adr <dbl>, required_car_parking_spaces <dbl>,
#   total_of_special_requests <dbl>, reservation_status <chr>, …
…
From the above visualization, we can observe that the data points are overlapping and congested as the time series is on a daily basis. This makes it difficult to arrive at any insights. In order to make the trends more clear, I decided to group by the dataset on hotel and arrival_date and summarized the sum of demand and adr.

grouped_hotel_data <- hotel_data%>%
  select(hotel, demand, arrival_date, adr)%>%
  group_by(hotel, arrival_date)%>%
  summarise(guest_total = sum(demand, na.rm=TRUE), adr_total = sum(adr, na.rm = TRUE))
grouped_hotel_data

# A tibble: 1,586 × 4
# Groups:   hotel [2]
   hotel      arrival_date guest_total adr_total
   <chr>      <date>             <dbl>     <dbl>
 1 City Hotel 2015-07-01           143     7442.
 2 City Hotel 2015-07-02            96     3158.
 3 City Hotel 2015-07-03            28     1184.
 4 City Hotel 2015-07-04            72     2442 
 5 City Hotel 2015-07-05            15      532.
 6 City Hotel 2015-07-06            59     1995.
 7 City Hotel 2015-07-07            35     1254.
 8 City Hotel 2015-07-08            79     2490.
 9 City Hotel 2015-07-09            92     2952.
10 City Hotel 2015-07-10            19      647.
# … with 1,576 more rows
…
