DACSS 601: Data Science Fundamentals - FALL 2022 - Challenge 5 Solutions
…
Public School Characteristics ⭐⭐⭐⭐

USA Households ⭐⭐⭐⭐⭐

For this challenge I will be working with the “USA Households*.xlsx” data set.

library(readxl)

# Reading the USA Households\*.xlsx data set and storing in a data frame

column_names = c("Year", "Household_Number_Thousands", "Total_Percent_Distribution", "Under $15,000", "$15,000 to $24,999", "$25,000 to $34,999", "35,000 to $49,999", "$50,000 to $74,999", "$75,000 to $99,999", "$100,000 to $149,999", "$150,000 to $199,999", "$200,000 and over", "Median_Income_Estimate", "Median_Income_MOE", "Mean_Income_Estimate", "Mean_Income_MOE")
usa_data <- read_excel("_data/USA Households by Total Money Income, Race, and Hispanic Origin of Householder 1967 to 2019.xlsx", col_names = column_names, skip = 5)
print(usa_data)

# A tibble: 383 × 16
   Year  House…¹ Total…² Under…³ $15,0…⁴ $25,0…⁵ 35,00…⁶ $50,0…⁷ $75,0…⁸ $100,…⁹
   <chr> <chr>     <dbl>   <dbl>   <dbl>   <dbl>   <dbl>   <dbl>   <dbl>   <dbl>
 1 ALL … <NA>         NA    NA      NA      NA      NA      NA      NA      NA  
 2 2019  128451      100     9.1     8       8.3    11.7    16.5    12.3    15.5
 3 2018  128579      100    10.1     8.8     8.7    12      17      12.5    15  
 4 2017… 127669      100    10       9.1     9.2    12      16.4    12.4    14.7
 5 2017  127586      100    10.1     9.1     9.2    11.9    16.3    12.6    14.8
 6 2016  126224      100    10.4     9       9.2    12.3    16.7    12.2    15  
 7 2015  125819      100    10.6    10       9.6    12.1    16.1    12.4    14.9
 8 2014  124587      100    11.4    10.5     9.6    12.6    16.4    12.1    14  
 9 2013… 123931      100    11.4    10.3     9.5    12.5    16.8    12      13.9
10 2013… 122952      100    11.3    10.4     9.7    13.1    17      12.5    13.6
# … with 373 more rows, 6 more variables: `$150,000 to $199,999` <dbl>,
#   `$200,000 and over` <dbl>, Median_Income_Estimate <dbl>,
#   Median_Income_MOE <dbl>, Mean_Income_Estimate <chr>, Mean_Income_MOE <chr>,
#   and abbreviated variable names ¹​Household_Number_Thousands,
#   ²​Total_Percent_Distribution, ³​`Under $15,000`, ⁴​`$15,000 to $24,999`,
#   ⁵​`$25,000 to $34,999`, ⁶​`35,000 to $49,999`, ⁷​`$50,000 to $74,999`,
#   ⁸​`$75,000 to $99,999`, ⁹​`$100,000 to $149,999`
…
The USA household data contains information on the mean and median income grouped by Race and Hispanic Origin of householder for the period 1967 - 2019. The data is split into 12 different categories based on Races and we have the total number of households surveyed in a given year along with the total percentage distribution (100 for all observations), percentage distribution for various income levels, and the mean and median (estimated and margin of error) income. For some races, data is not available for all the years in the period 1967 - 2019.

Tidy Data and Mutate Variables (as needed)

Is your data already tidy, or is there work to be done? Be sure to anticipate your end result to provide a sanity check, and document your work here. Are there any variables that require mutation to be usable in your analysis stream? For example, do you need to calculate new values in order to graph them? Can string values be represented numerically? Do you need to turn any variables into factors and reorder for ease of graphics and visualization?

Document your work here.

The data is not tidy and requires data cleaning. (Note: I renamed the column names while reading the data.) First, I removed the last 31 rows from the dataframe “usa_data” as they are just footnotes and not observations.

# Removing the last 31 rows as they are just footnotes and not observations
usa_data <- head(usa_data,-31)
print(usa_data)

# A tibble: 352 × 16
   Year  House…¹ Total…² Under…³ $15,0…⁴ $25,0…⁵ 35,00…⁶ $50,0…⁷ $75,0…⁸ $100,…⁹
   <chr> <chr>     <dbl>   <dbl>   <dbl>   <dbl>   <dbl>   <dbl>   <dbl>   <dbl>
 1 ALL … <NA>         NA    NA      NA      NA      NA      NA      NA      NA  
 2 2019  128451      100     9.1     8       8.3    11.7    16.5    12.3    15.5
 3 2018  128579      100    10.1     8.8     8.7    12      17      12.5    15  
 4 2017… 127669      100    10       9.1     9.2    12      16.4    12.4    14.7
 5 2017  127586      100    10.1     9.1     9.2    11.9    16.3    12.6    14.8
 6 2016  126224      100    10.4     9       9.2    12.3    16.7    12.2    15  
 7 2015  125819      100    10.6    10       9.6    12.1    16.1    12.4    14.9
 8 2014  124587      100    11.4    10.5     9.6    12.6    16.4    12.1    14  
 9 2013… 123931      100    11.4    10.3     9.5    12.5    16.8    12      13.9
10 2013… 122952      100    11.3    10.4     9.7    13.1    17      12.5    13.6
# … with 342 more rows, 6 more variables: `$150,000 to $199,999` <dbl>,
#   `$200,000 and over` <dbl>, Median_Income_Estimate <dbl>,
#   Median_Income_MOE <dbl>, Mean_Income_Estimate <chr>, Mean_Income_MOE <chr>,
#   and abbreviated variable names ¹​Household_Number_Thousands,
#   ²​Total_Percent_Distribution, ³​`Under $15,000`, ⁴​`$15,000 to $24,999`,
#   ⁵​`$25,000 to $34,999`, ⁶​`35,000 to $49,999`, ⁷​`$50,000 to $74,999`,
#   ⁸​`$75,000 to $99,999`, ⁹​`$100,000 to $149,999`
…
# Creating new column for Race and filling the empty values for Race with the previous value in that column

usa_data <- usa_data%>%
  mutate(Race = case_when(str_detect(Year,("([A-Z])")) ~ Year))%>%
  fill(Race, .direction = "down")

# Removing the rows from usa_data which has non-numerical values in Year column (these rows have Race value in the Year column and were inserted as separators for different Race groups)

usa_data <- usa_data%>%
  filter(!str_detect(Year,("([A-Z])")))

usa_data

# A tibble: 340 × 17
   Year  House…¹ Total…² Under…³ $15,0…⁴ $25,0…⁵ 35,00…⁶ $50,0…⁷ $75,0…⁸ $100,…⁹
   <chr> <chr>     <dbl>   <dbl>   <dbl>   <dbl>   <dbl>   <dbl>   <dbl>   <dbl>
 1 2019  128451      100     9.1     8       8.3    11.7    16.5    12.3    15.5
 2 2018  128579      100    10.1     8.8     8.7    12      17      12.5    15  
 3 2017… 127669      100    10       9.1     9.2    12      16.4    12.4    14.7
 4 2017  127586      100    10.1     9.1     9.2    11.9    16.3    12.6    14.8
 5 2016  126224      100    10.4     9       9.2    12.3    16.7    12.2    15  
 6 2015  125819      100    10.6    10       9.6    12.1    16.1    12.4    14.9
 7 2014  124587      100    11.4    10.5     9.6    12.6    16.4    12.1    14  
 8 2013… 123931      100    11.4    10.3     9.5    12.5    16.8    12      13.9
 9 2013… 122952      100    11.3    10.4     9.7    13.1    17      12.5    13.6
10 2012  122459      100    11.4    10.6    10.1    12.5    17.4    12      13.9
# … with 330 more rows, 7 more variables: `$150,000 to $199,999` <dbl>,
#   `$200,000 and over` <dbl>, Median_Income_Estimate <dbl>,
#   Median_Income_MOE <dbl>, Mean_Income_Estimate <chr>, Mean_Income_MOE <chr>,
#   Race <chr>, and abbreviated variable names ¹​Household_Number_Thousands,
#   ²​Total_Percent_Distribution, ³​`Under $15,000`, ⁴​`$15,000 to $24,999`,
#   ⁵​`$25,000 to $34,999`, ⁶​`35,000 to $49,999`, ⁷​`$50,000 to $74,999`,
#   ⁸​`$75,000 to $99,999`, ⁹​`$100,000 to $149,999`
Next, I removed the footnote number next to the year value and race value from the columns “Year” and “Race” respectively as they had no purpose in visualization.

# Removing the footnote number next to the year value in the "Year" column

usa_data <- usa_data%>%
  mutate(Year = str_remove(Year, " .*"))

# Removing the footnote number next to the race value in the "Race" column

usa_data <- usa_data%>%
  mutate(Race = str_remove(Race, "[0-9]+"))

usa_data

# A tibble: 340 × 17
   Year  House…¹ Total…² Under…³ $15,0…⁴ $25,0…⁵ 35,00…⁶ $50,0…⁷ $75,0…⁸ $100,…⁹
   <chr> <chr>     <dbl>   <dbl>   <dbl>   <dbl>   <dbl>   <dbl>   <dbl>   <dbl>
 1 2019  128451      100     9.1     8       8.3    11.7    16.5    12.3    15.5
 2 2018  128579      100    10.1     8.8     8.7    12      17      12.5    15  
 3 2017  127669      100    10       9.1     9.2    12      16.4    12.4    14.7
 4 2017  127586      100    10.1     9.1     9.2    11.9    16.3    12.6    14.8
 5 2016  126224      100    10.4     9       9.2    12.3    16.7    12.2    15  
 6 2015  125819      100    10.6    10       9.6    12.1    16.1    12.4    14.9
 7 2014  124587      100    11.4    10.5     9.6    12.6    16.4    12.1    14  
 8 2013  123931      100    11.4    10.3     9.5    12.5    16.8    12      13.9
 9 2013  122952      100    11.3    10.4     9.7    13.1    17      12.5    13.6
10 2012  122459      100    11.4    10.6    10.1    12.5    17.4    12      13.9
# … with 330 more rows, 7 more variables: `$150,000 to $199,999` <dbl>,
#   `$200,000 and over` <dbl>, Median_Income_Estimate <dbl>,
#   Median_Income_MOE <dbl>, Mean_Income_Estimate <chr>, Mean_Income_MOE <chr>,
#   Race <chr>, and abbreviated variable names ¹​Household_Number_Thousands,
#   ²​Total_Percent_Distribution, ³​`Under $15,000`, ⁴​`$15,000 to $24,999`,
#   ⁵​`$25,000 to $34,999`, ⁶​`35,000 to $49,999`, ⁷​`$50,000 to $74,999`,
#   ⁸​`$75,000 to $99,999`, ⁹​`$100,000 to $149,999`

Following that, I removed the “Total_Percent_Distribution” column form the dataset as the value was same (100) for all the observations and had no purpose in visualization.

# Remove the "Total_Percent_Distribution" column as that value is 100 for all observations

usa_data <- usa_data%>%
  subset(select = -c(3))

usa_data

# A tibble: 340 × 16
   Year  House…¹ Under…² $15,0…³ $25,0…⁴ 35,00…⁵ $50,0…⁶ $75,0…⁷ $100,…⁸ $150,…⁹
   <chr> <chr>     <dbl>   <dbl>   <dbl>   <dbl>   <dbl>   <dbl>   <dbl>   <dbl>
 1 2019  128451      9.1     8       8.3    11.7    16.5    12.3    15.5     8.3
 2 2018  128579     10.1     8.8     8.7    12      17      12.5    15       7.2
 3 2017  127669     10       9.1     9.2    12      16.4    12.4    14.7     7.3
 4 2017  127586     10.1     9.1     9.2    11.9    16.3    12.6    14.8     7.5
 5 2016  126224     10.4     9       9.2    12.3    16.7    12.2    15       7.2
 6 2015  125819     10.6    10       9.6    12.1    16.1    12.4    14.9     7.1
 7 2014  124587     11.4    10.5     9.6    12.6    16.4    12.1    14       6.6
 8 2013  123931     11.4    10.3     9.5    12.5    16.8    12      13.9     6.7
 9 2013  122952     11.3    10.4     9.7    13.1    17      12.5    13.6     6.3
10 2012  122459     11.4    10.6    10.1    12.5    17.4    12      13.9     6.3
# … with 330 more rows, 6 more variables: `$200,000 and over` <dbl>,
#   Median_Income_Estimate <dbl>, Median_Income_MOE <dbl>,
#   Mean_Income_Estimate <chr>, Mean_Income_MOE <chr>, Race <chr>, and
#   abbreviated variable names ¹​Household_Number_Thousands, ²​`Under $15,000`,
#   ³​`$15,000 to $24,999`, ⁴​`$25,000 to $34,999`, ⁵​`35,000 to $49,999`,
#   ⁶​`$50,000 to $74,999`, ⁷​`$75,000 to $99,999`, ⁸​`$100,000 to $149,999`,
#   ⁹​`$150,000 to $199,999`

Finally, I reordered the columns in the dataframe in order to have “Race” as the first column followed by “Year” and the remaining columns.

# Reorder the columns in the usa_data dataframe so that "Race" is the first column followed by "Year"

usa_data <- usa_data%>%
  subset(select=c(16, 1, 2, 3, 4, 5, 6, 7, 8, 9, 10, 11, 12, 13, 14, 15))

usa_data

# A tibble: 340 × 16
   Race    Year  House…¹ Under…² $15,0…³ $25,0…⁴ 35,00…⁵ $50,0…⁶ $75,0…⁷ $100,…⁸
   <chr>   <chr> <chr>     <dbl>   <dbl>   <dbl>   <dbl>   <dbl>   <dbl>   <dbl>
 1 ALL RA… 2019  128451      9.1     8       8.3    11.7    16.5    12.3    15.5
 2 ALL RA… 2018  128579     10.1     8.8     8.7    12      17      12.5    15  
 3 ALL RA… 2017  127669     10       9.1     9.2    12      16.4    12.4    14.7
 4 ALL RA… 2017  127586     10.1     9.1     9.2    11.9    16.3    12.6    14.8
 5 ALL RA… 2016  126224     10.4     9       9.2    12.3    16.7    12.2    15  
 6 ALL RA… 2015  125819     10.6    10       9.6    12.1    16.1    12.4    14.9
 7 ALL RA… 2014  124587     11.4    10.5     9.6    12.6    16.4    12.1    14  
 8 ALL RA… 2013  123931     11.4    10.3     9.5    12.5    16.8    12      13.9
 9 ALL RA… 2013  122952     11.3    10.4     9.7    13.1    17      12.5    13.6
10 ALL RA… 2012  122459     11.4    10.6    10.1    12.5    17.4    12      13.9
# … with 330 more rows, 6 more variables: `$150,000 to $199,999` <dbl>,
#   `$200,000 and over` <dbl>, Median_Income_Estimate <dbl>,
#   Median_Income_MOE <dbl>, Mean_Income_Estimate <chr>, Mean_Income_MOE <chr>,
#   and abbreviated variable names ¹​Household_Number_Thousands,
#   ²​`Under $15,000`, ³​`$15,000 to $24,999`, ⁴​`$25,000 to $34,999`,
#   ⁵​`35,000 to $49,999`, ⁶​`$50,000 to $74,999`, ⁷​`$75,000 to $99,999`,
#   ⁸​`$100,000 to $149,999`
…
# Remove rows from the dataset that have "N" value
usa_data <- usa_data%>%
  filter(across(everything(),~ . !="N"))
usa_data

# A tibble: 337 × 16
   Race    Year  House…¹ Under…² $15,0…³ $25,0…⁴ 35,00…⁵ $50,0…⁶ $75,0…⁷ $100,…⁸
   <chr>   <chr> <chr>     <dbl>   <dbl>   <dbl>   <dbl>   <dbl>   <dbl>   <dbl>
 1 ALL RA… 2019  128451      9.1     8       8.3    11.7    16.5    12.3    15.5
 2 ALL RA… 2018  128579     10.1     8.8     8.7    12      17      12.5    15  
 3 ALL RA… 2017  127669     10       9.1     9.2    12      16.4    12.4    14.7
 4 ALL RA… 2017  127586     10.1     9.1     9.2    11.9    16.3    12.6    14.8
 5 ALL RA… 2016  126224     10.4     9       9.2    12.3    16.7    12.2    15  
 6 ALL RA… 2015  125819     10.6    10       9.6    12.1    16.1    12.4    14.9
 7 ALL RA… 2014  124587     11.4    10.5     9.6    12.6    16.4    12.1    14  
 8 ALL RA… 2013  123931     11.4    10.3     9.5    12.5    16.8    12      13.9
 9 ALL RA… 2013  122952     11.3    10.4     9.7    13.1    17      12.5    13.6
10 ALL RA… 2012  122459     11.4    10.6    10.1    12.5    17.4    12      13.9
# … with 327 more rows, 6 more variables: `$150,000 to $199,999` <dbl>,
#   `$200,000 and over` <dbl>, Median_Income_Estimate <dbl>,
#   Median_Income_MOE <dbl>, Mean_Income_Estimate <chr>, Mean_Income_MOE <chr>,
#   and abbreviated variable names ¹​Household_Number_Thousands,
#   ²​`Under $15,000`, ³​`$15,000 to $24,999`, ⁴​`$25,000 to $34,999`,
#   ⁵​`35,000 to $49,999`, ⁶​`$50,000 to $74,999`, ⁷​`$75,000 to $99,999`,
#   ⁸​`$100,000 to $149,999`
…
