DACSS 601: Data Science Fundamentals - FALL 2022 - Challenge 7 Solutions
…
knitr::opts_chunk$set(echo = TRUE, warning=FALSE, message=FALSE)

Challenge Overview

Working with the Hotel data set as I had previously tidied it.

Read in data

# Reading in data
h_book <- read_csv("_data/hotel_bookings.csv", show_col_types = FALSE)
h_book

# A tibble: 119,390 × 32
   hotel  is_ca…¹ lead_…² arriv…³ arriv…⁴ arriv…⁵ arriv…⁶ stays…⁷ stays…⁸ adults
   <chr>    <dbl>   <dbl>   <dbl> <chr>     <dbl>   <dbl>   <dbl>   <dbl>  <dbl>
 1 Resor…       0     342    2015 July         27       1       0       0      2
 2 Resor…       0     737    2015 July         27       1       0       0      2
 3 Resor…       0       7    2015 July         27       1       0       1      1
 4 Resor…       0      13    2015 July         27       1       0       1      1
 5 Resor…       0      14    2015 July         27       1       0       2      2
 6 Resor…       0      14    2015 July         27       1       0       2      2
 7 Resor…       0       0    2015 July         27       1       0       2      2
 8 Resor…       0       9    2015 July         27       1       0       2      2
 9 Resor…       1      85    2015 July         27       1       0       3      2
10 Resor…       1      75    2015 July         27       1       0       3      2
# … with 119,380 more rows, 22 more variables: children <dbl>, babies <dbl>,
#   meal <chr>, country <chr>, market_segment <chr>,
#   distribution_channel <chr>, is_repeated_guest <dbl>,
#   previous_cancellations <dbl>, previous_bookings_not_canceled <dbl>,
#   reserved_room_type <chr>, assigned_room_type <chr>, booking_changes <dbl>,
#   deposit_type <chr>, agent <chr>, company <chr>, days_in_waiting_list <dbl>,
#   customer_type <chr>, adr <dbl>, required_car_parking_spaces <dbl>, …
…
# combining the arrival date into a single field
# to find the total number of guests in the hotel - add adults, children and babies

h_book_mut <- h_book %>% 
  mutate(arrival_date = str_c(arrival_date_day_of_month,
                              arrival_date_month,
                              arrival_date_year, sep="/"),
         arrival_date = dmy(arrival_date),
         total_guests = adults + children + babies) %>% 
  select(-c(arrival_date_day_of_month,arrival_date_year))

h_book_mut

# A tibble: 118,902 × 32
   hotel   is_ca…¹ lead_…² arriv…³ arriv…⁴ stays…⁵ stays…⁶ adults child…⁷ babies
   <chr>     <dbl>   <dbl> <chr>     <dbl>   <dbl>   <dbl>  <dbl>   <dbl>  <dbl>
 1 Resort…       0     342 July         27       0       0      2       0      0
 2 Resort…       0     737 July         27       0       0      2       0      0
 3 Resort…       0       7 July         27       0       1      1       0      0
 4 Resort…       0      13 July         27       0       1      1       0      0
 5 Resort…       0      14 July         27       0       2      2       0      0
 6 Resort…       0      14 July         27       0       2      2       0      0
 7 Resort…       0       0 July         27       0       2      2       0      0
 8 Resort…       0       9 July         27       0       2      2       0      0
 9 Resort…       1      85 July         27       0       3      2       0      0
10 Resort…       1      75 July         27       0       3      2       0      0
# … with 118,892 more rows, 22 more variables: meal <chr>, country <chr>,
#   market_segment <chr>, distribution_channel <chr>, is_repeated_guest <dbl>,
#   previous_cancellations <dbl>, previous_bookings_not_canceled <dbl>,
#   reserved_room_type <chr>, assigned_room_type <chr>, booking_changes <dbl>,
#   deposit_type <chr>, agent <chr>, company <chr>, days_in_waiting_list <dbl>,
#   customer_type <chr>, adr <dbl>, required_car_parking_spaces <dbl>,
#   total_of_special_requests <dbl>, reservation_status <chr>, …
…
[1] TRUE

Visualization with Multiple Dimensions

I had previously used only one two dimensions to visualize this dataset. I can add an additional dimension of the category of hotel to see the guest count arrival rate between “City Hotel” and “Resort Hotel”.

Firstly, I want to see how many guests are arriving over a period of time on a daily basis for each hotel separately.

plot1_data <- h_book_mut %>% select(hotel, total_guests, arrival_date) %>%
  group_by(hotel, arrival_date) %>%
  summarise(net_guests = sum(total_guests, na.rm=TRUE))

plot1_data

# A tibble: 1,586 × 3
# Groups:   hotel [2]
   hotel      arrival_date net_guests
   <chr>      <date>            <dbl>
 1 City Hotel 2015-07-01          143
 2 City Hotel 2015-07-02           96
 3 City Hotel 2015-07-03           28
 4 City Hotel 2015-07-04           72
 5 City Hotel 2015-07-05           15
 6 City Hotel 2015-07-06           59
 7 City Hotel 2015-07-07           35
 8 City Hotel 2015-07-08           79
 9 City Hotel 2015-07-09           92
10 City Hotel 2015-07-10           19
# … with 1,576 more rows
…
plot2_data$month <-as.character(plot2_data$month)

plot2_data

# A tibble: 24 × 4
# Groups:   hotel [2]
   hotel        arrival_date_month net_guests month
   <chr>        <chr>                   <dbl> <chr>
 1 City Hotel   January                  6721 1    
 2 Resort Hotel January                  3733 1    
 3 City Hotel   February                 9376 2    
 4 Resort Hotel February                 5848 2    
 5 City Hotel   March                   12333 3    
 6 Resort Hotel March                    6031 3    
 7 City Hotel   April                   15101 4    
 8 Resort Hotel April                    6847 4    
 9 City Hotel   May                     15464 5    
10 Resort Hotel May                      6978 5    
# … with 14 more rows
…
plot3_data

# A tibble: 205 × 5
# Groups:   hotel, arrival_date_month [24]
   hotel        arrival_date_month assigned_room_type net_adr month
   <chr>        <chr>              <chr>                <dbl> <dbl>
 1 City Hotel   January            A                     78.5     1
 2 City Hotel   January            B                     77.3     1
 3 City Hotel   January            D                     92.8     1
 4 City Hotel   January            E                    109.      1
 5 City Hotel   January            F                    137.      1
 6 City Hotel   January            G                    144.      1
 7 City Hotel   January            K                     44.2     1
 8 Resort Hotel January            A                     44.8     1
 9 Resort Hotel January            B                     34.9     1
10 Resort Hotel January            C                     50.1     1
# … with 195 more rows
…
